EC=3&,1
EC=40,1
EC=38,0
RcpF=1,0
param1=creative_completion,0
param1=creative_impression,1
param1=screen_impression,1
param1=screen_completion,0
https://dt-secure.videohub.tv/v1/usync/bk?,1
https://dt-secure.videohub.tv/v1/usync/springserve?,1
https://dt-secure.videohub.tv/v1/usync/lkqd_direct?,1
https://dt-secure.videohub.tv/v1/usync/rubicon?,1
https://dt-secure.videohub.tv/ssframework/tvuid?,1
https://dt-secure.videohub.tv/v1/usync/tr?,1
https://dt-secure.videohub.tv/v1/usync/bs?,1
https://dt-secure.videohub.tv/v1/usync/ex?,1
https://dt-secure.videohub.tv/v1/usync/lr?,1
https://dt-secure.videohub.tv/v1/usync/lo?,1
https://dt-secure.videohub.tv/v1/usync/dd?,1
https://dt-secure.videohub.tv/v1/usync/lrjs?,1
https://dt-secure.videohub.tv/v1/usync/kx?,1
https://dt-secure.videohub.tv/v1/usync/spx?,1
https://dt-secure.videohub.tv/v1/usync/ns,1
https://dt-secure.videohub.tv/v1/usync/al?,1
https://dt-secure.videohub.tv/v1/usync/ds?,1
https://tp.videohub.tv/v1/topprop.png?,1
https://sync.doubleverify.com/query.gif?ctx=42674&cmp=2256325&,1
https://sync.doubleverify.com/query.gif?ctx=42674&cmp=2311460&,1
https://secure-gl.imrworldwide.com/u/ad?ca=12345,1
https://tags.bluekai.com/site/2954,1