
AnimateCursor "Yes"
Click "{ImageFolder}/1553193036308.png" 40 19
Sleep 2000
Click "{ImageFolder}/1553022982436.png" 48 33
StepDelay "5000"

TypeNew {FILENAME}
Click "{ImageFolder}/1553194237274.png" 48 53
Click "{ImageFolder}/1553194286070.png"
Click "{ImageFolder}/1553194177508.png" 54 58
StepDelay "3000"
Click "{ImageFolder}/1554140150371.png"
//Set "TESTNAME" "REG-3202"
//Set "FILENAME" "REG-3202"
//Set "ROOT_FOLDER" "/Users/ny-qa-test/Documents/eyeautomate/EyeAutomate/scripts/EyeScripts"
//Set "RESULTS_PATH"  "{ROOT_FOLDER}/Results/{TESTNAME}_Results.txt"
//Set "LOGS_PATH" "{ROOT_FOLDER}/CharlesLogs/{FILENAME}.csv
//Set "LOGS_PATH" "C:\Users\NY-QA-TEST\OneDrive - Tremor Video DSP\CharlesLogs\REG-3269DATE1557773444042.csv"
//Set "RESULTS_PATH" "C:\Users\NY-QA-TEST\Documents\Automation\EyeAutomate\scripts\EyeScripts\Results\REG-3269_Results.txt"

CompareResults "{RESULTS_PATH}" "{LOGS_PATH}" "{TESTNAME}"
