URL,Status,Response Code,Protocol,Method,Content-Type,Client Address,Client Port,Remote Address,Remote Port,Exception,Request Start Time,Request End Time,Response Start Time,Response End Time,Duration (ms),DNS Duration (ms),Connect Duration (ms),SSL Duration (ms),Request Duration (ms),Response Duration (ms),Latency (ms),Speed (KB/s),Request Speed (KB/s),Response Speed (KB/s),Request Handshake Size (bytes),Request Header Size (bytes),Request Body Size (bytes),Response Handshake Size (bytes),Response Header Size (bytes),Response Body Size (bytes),Request Compression,Response Compression
https://14.client-channel.google.com,RECEIVING_RESPONSE_BODY,200,https,CONNECT,,/127.0.0.1,50798,14.client-channel.google.com/74.125.192.189,443,,03 Jun 2019 14:27:42,,,,1312464,38,33,34,,,,0.01171875,,,1608,0,,372,0,8146,,
https://ts01-b.cloudsink.net,RECEIVING_REQUEST_BODY,200,https,CONNECT,,/127.0.0.1,51057,ts01-b.cloudsink.net/54.193.67.98,443,,03 Jun 2019 14:29:35,,,,1199140,36,72,174,,,,0.07324219,,,1246,0,59791,17474,0,11975,,
https://ssl.gstatic.com,RECEIVING_REQUEST_BODY,200,https,CONNECT,,/127.0.0.1,51061,ssl.gstatic.com/172.217.12.195,443,,03 Jun 2019 14:29:47,,,,1186925,36,5,3,,,,0.0048828125,,,1608,0,1702,372,0,2481,,
https://entitlements.jwplayer.com,COMPLETE,200,https,CONNECT,,/127.0.0.1,51740,entitlements.jwplayer.com/72.21.81.189,443,,03 Jun 2019 14:48:32,,,03 Jun 2019 14:49:20,48199,35,3,45,,,,0.7451172,,,1684,0,634,33541,0,928,,
https://s.tremorvideodsp.com/q/video1_small.mp4,COMPLETE,206,https,GET,video/mp4,/127.0.0.1,51741,s.tremorvideodsp.com/23.48.39.122,443,,03 Jun 2019 14:48:32,03 Jun 2019 14:48:32,03 Jun 2019 14:48:32,03 Jun 2019 14:48:32,133,67,7,24,0,0,35,120.91016,0.0,0.0,1058,358,,15049,0,2,,
https://jwpltx.com,COMPLETE,200,https,CONNECT,,/127.0.0.1,51742,jwpltx.com/54.174.103.247,443,,03 Jun 2019 14:48:32,,,03 Jun 2019 14:49:19,47604,5,9,60,,,,0.7285156,,,1609,0,1813,31731,0,396,,
https://s.tremorvideodsp.com/q/video1_small.mp4,COMPLETE,206,https,GET,video/mp4,/127.0.0.1,51741,s.tremorvideodsp.com/23.48.39.122,443,,03 Jun 2019 14:48:32,03 Jun 2019 14:48:32,03 Jun 2019 14:48:32,03 Jun 2019 14:48:32,55,,,,0,12,43,1170.0635,0.0,5333.333,,362,,,0,65536,,
https://s.tremorvideodsp.com/q/video1_small.mp4,COMPLETE,206,https,GET,video/mp4,/127.0.0.1,51741,s.tremorvideodsp.com/23.48.39.122,443,,03 Jun 2019 14:48:32,03 Jun 2019 14:48:32,03 Jun 2019 14:48:32,03 Jun 2019 14:48:32,32,,,,0,7,25,2011.2305,0.0,9142.856,,368,,,0,65536,,
https://s.tremorvideodsp.com/q/video1_small.mp4,COMPLETE,206,https,GET,video/mp4,/127.0.0.1,51746,s.tremorvideodsp.com/23.48.39.122,443,,03 Jun 2019 14:48:32,03 Jun 2019 14:48:32,03 Jun 2019 14:48:32,03 Jun 2019 14:48:33,528,2,8,26,0,468,24,18323.33,0.0,20669.65,986,368,,14959,0,9890599,,
https://s.tremorvideodsp.com/q/video1_small.mp4,COMPLETE,206,https,GET,video/mp4,/127.0.0.1,51741,s.tremorvideodsp.com/23.48.39.122,443,,03 Jun 2019 14:48:32,03 Jun 2019 14:48:32,03 Jun 2019 14:48:32,03 Jun 2019 14:48:32,28,,,,1,6,21,2298.5488,359.375,10666.666,,368,,,0,65536,,
https://adserver.videohub.tv/preview?RI=3ZhjgheYMyplS7aRL2ZxLA&screenType=mobiletablet&rml=true&Uctry=__country__&Ust=__state__&Udma=__dma__&Uzip=__postalCode__&Ucty=__city__&Uctnt=__continent__&Ulong=__longitude__&Ulat=__latitude__&Uacd=__areaCode__&position_ACP=__adChoicesPosition__&usedACP=__usedACP__&dspACP=__adChoicesProviders__&sig=5036761F1F487491C124DE18F691998B&dmps=y&ssRmlApp=1&isApp=y,COMPLETE,200,https,GET,application/xml; charset=utf-8,/127.0.0.1,51748,adserver.videohub.tv/67.226.210.9,443,,03 Jun 2019 14:48:41,03 Jun 2019 14:48:41,03 Jun 2019 14:48:41,03 Jun 2019 14:48:41,96,35,11,34,0,2,14,390.4209,0.0,17903.32,1046,668,,25605,0,11061,,
https://objects-secure.videohub.tv/net/js/rml-app.min.js?adData=https%3A%2F%2Fadserver.videohub.tv%2Fadresponse%3Fkey%3D7aeb1c87-e70c-4b2a-a77f-a35df1dbe817,COMPLETE,200,https,GET,application/javascript,/127.0.0.1,51750,objects-secure.videohub.tv/104.110.215.249,443,,03 Jun 2019 14:48:41,03 Jun 2019 14:48:41,03 Jun 2019 14:48:41,03 Jun 2019 14:48:41,118,65,9,24,0,12,8,671.6758,0.0,6483.0723,1070,426,,16754,0,62910,,72.6%
https://adserver.videohub.tv/adresponse?key=7aeb1c87-e70c-4b2a-a77f-a35df1dbe817,COMPLETE,200,https,GET,application/xml; charset=utf-8,/127.0.0.1,51748,adserver.videohub.tv/67.226.210.9,443,,03 Jun 2019 14:48:41,03 Jun 2019 14:48:41,03 Jun 2019 14:48:41,03 Jun 2019 14:48:41,14,,,,0,1,13,93.40039,0.0,965.8203,,350,,,0,989,,
https://objects-secure.tremormedia.com/net/js/io-polyfill-0.5.1.js,COMPLETE,200,https,GET,application/javascript,/127.0.0.1,51752,objects-secure.tremormedia.com/104.110.194.47,443,,03 Jun 2019 14:48:41,03 Jun 2019 14:48:41,03 Jun 2019 14:48:41,03 Jun 2019 14:48:41,130,86,9,25,0,1,9,184.57031,0.0,22605.469,1086,336,,16789,0,6359,,71.5%
https://static-secure.scanscout.com,COMPLETE,200,https,CONNECT,,/127.0.0.1,51754,static-secure.scanscout.com/184.28.89.61,443,,03 Jun 2019 14:48:41,,,03 Jun 2019 14:49:12,30969,62,26,77,,,,1.3222656,,,1534,0,900,22279,0,17243,,
https://s.tremorvideodsp.com/q/video1_small.mp4,COMPLETE,206,https,GET,video/mp4,/127.0.0.1,51756,s.tremorvideodsp.com/23.48.39.122,443,,03 Jun 2019 14:48:42,03 Jun 2019 14:48:42,03 Jun 2019 14:48:42,03 Jun 2019 14:48:42,136,2,8,30,0,1,95,118.24219,0.0,14698.242,1058,358,,15049,0,2,,
https://s.tremorvideodsp.com/q/video1_small.mp4,COMPLETE,206,https,GET,video/mp4,/127.0.0.1,51756,s.tremorvideodsp.com/23.48.39.122,443,,03 Jun 2019 14:48:42,03 Jun 2019 14:48:42,03 Jun 2019 14:48:42,03 Jun 2019 14:48:42,42,,,,0,13,29,1532.2266,0.0,4923.076,,362,,,0,65536,,
https://s.tremorvideodsp.com/q/video1_small.mp4,COMPLETE,206,https,GET,video/mp4,/127.0.0.1,51756,s.tremorvideodsp.com/23.48.39.122,443,,03 Jun 2019 14:48:42,03 Jun 2019 14:48:42,03 Jun 2019 14:48:42,03 Jun 2019 14:48:42,34,,,,0,8,26,1892.9219,0.0,8000.0,,368,,,0,65536,,
https://s.tremorvideodsp.com/q/video1_small.mp4,COMPLETE,206,https,GET,video/mp4,/127.0.0.1,51758,s.tremorvideodsp.com/23.48.39.122,443,,03 Jun 2019 14:48:42,03 Jun 2019 14:48:42,03 Jun 2019 14:48:42,03 Jun 2019 14:48:43,666,2,9,26,0,605,24,14526.6045,0.0,15989.085,986,368,,14959,0,9890599,,
https://s.tremorvideodsp.com/q/video1_small.mp4,COMPLETE,206,https,GET,video/mp4,/127.0.0.1,51756,s.tremorvideodsp.com/23.48.39.122,443,,03 Jun 2019 14:48:42,03 Jun 2019 14:48:42,03 Jun 2019 14:48:42,03 Jun 2019 14:48:42,30,,,,0,4,26,2145.3125,0.0,16000.0,,368,,,0,65536,,
https://prd.jwpltx.com,COMPLETE,200,https,CONNECT,,/127.0.0.1,51760,prd.jwpltx.com/34.192.30.112,443,,03 Jun 2019 14:48:43,,,03 Jun 2019 14:49:13,30716,62,9,48,,,,0.92089844,,,1629,0,885,26340,0,132,,
https://s.tremorvideodsp.com/q/video1_small.mp4,COMPLETE,206,https,GET,video/mp4,/127.0.0.1,51762,s.tremorvideodsp.com/23.48.39.122,443,,03 Jun 2019 14:48:49,03 Jun 2019 14:48:49,03 Jun 2019 14:48:49,03 Jun 2019 14:48:49,98,2,8,24,0,0,64,164.0918,0.0,0.0,1058,358,,15049,0,2,,
https://s.tremorvideodsp.com/q/video1_small.mp4,COMPLETE,206,https,GET,video/mp4,/127.0.0.1,51762,s.tremorvideodsp.com/23.48.39.122,443,,03 Jun 2019 14:48:49,03 Jun 2019 14:48:49,03 Jun 2019 14:48:49,03 Jun 2019 14:48:49,36,,,,0,11,25,1787.5977,0.0,5818.1816,,362,,,0,65536,,
https://s.tremorvideodsp.com/q/video1_small.mp4,COMPLETE,206,https,GET,video/mp4,/127.0.0.1,51762,s.tremorvideodsp.com/23.48.39.122,443,,03 Jun 2019 14:48:49,03 Jun 2019 14:48:49,03 Jun 2019 14:48:50,03 Jun 2019 14:48:50,31,,,,0,9,22,2076.1084,0.0,7111.1104,,368,,,0,65536,,
https://s.tremorvideodsp.com/q/video1_small.mp4,COMPLETE,206,https,GET,video/mp4,/127.0.0.1,51764,s.tremorvideodsp.com/23.48.39.122,443,com.xk72.proxy.ProxyException: Client closed connection before receiving entire response,03 Jun 2019 14:48:50,03 Jun 2019 14:48:50,03 Jun 2019 14:48:50,03 Jun 2019 14:48:50,218,2,9,28,0,147,32,2791.956,0.0,4131.457,986,368,,14959,0,606941,,
https://s.tremorvideodsp.com/q/video1_small.mp4,COMPLETE,206,https,GET,video/mp4,/127.0.0.1,51762,s.tremorvideodsp.com/23.48.39.122,443,,03 Jun 2019 14:48:50,03 Jun 2019 14:48:50,03 Jun 2019 14:48:50,03 Jun 2019 14:48:50,32,,,,0,7,25,2011.2305,0.0,9142.856,,368,,,0,65536,,
https://play.google.com,RECEIVING_REQUEST_BODY,200,https,CONNECT,,/127.0.0.1,51766,play.google.com/172.217.10.46,443,,03 Jun 2019 14:49:25,,,,9031,2,2,,,,,0.055664062,,,517,0,0,,0,0,,
https://tremorvideo.jamfcloud.com,COMPLETE,200,https,CONNECT,,/127.0.0.1,51772,tremorvideo.jamfcloud.com/52.20.191.66,443,,03 Jun 2019 14:49:34,,,03 Jun 2019 14:49:34,235,117,10,30,,,,125.43164,,,1182,0,1839,26155,0,1008,,
