URL,Status,Response Code,Protocol,Method,Content-Type,Client Address,Client Port,Remote Address,Remote Port,Exception,Request Start Time,Request End Time,Response Start Time,Response End Time,Duration (ms),DNS Duration (ms),Connect Duration (ms),SSL Duration (ms),Request Duration (ms),Response Duration (ms),Latency (ms),Speed (KB/s),Request Speed (KB/s),Response Speed (KB/s),Request Handshake Size (bytes),Request Header Size (bytes),Request Body Size (bytes),Response Handshake Size (bytes),Response Header Size (bytes),Response Body Size (bytes),Request Compression,Response Compression
https://14.client-channel.google.com,RECEIVING_RESPONSE_BODY,200,https,CONNECT,,/127.0.0.1,50798,14.client-channel.google.com/74.125.192.189,443,,03 Jun 2019 14:27:42,,,,365629,38,33,34,,,,0.021484375,,,1608,0,2257,372,0,3808,,
https://chat-pa.clients6.google.com,COMPLETE,200,https,CONNECT,,/127.0.0.1,50800,chat-pa.clients6.google.com/172.217.12.202,443,,03 Jun 2019 14:27:47,,,03 Jun 2019 14:32:36,288450,56,2,41,,,,0.08300781,,,2892,0,1364,19621,0,,,
https://chat-pa.clients6.google.com,COMPLETE,200,https,CONNECT,,/127.0.0.1,50804,chat-pa.clients6.google.com/172.217.12.202,443,,03 Jun 2019 14:27:48,,,03 Jun 2019 14:32:44,296894,1,3,41,,,,0.08886719,,,2892,0,2763,19621,0,,,
https://clients4.google.com,COMPLETE,200,https,CONNECT,,/127.0.0.1,50917,clients4.google.com/172.217.10.46,443,,03 Jun 2019 14:29:06,,,03 Jun 2019 14:32:44,218821,36,3,4,,,,0.020507812,,,2207,0,1741,372,0,,,
https://www.googletagmanager.com,COMPLETE,200,https,CONNECT,,/127.0.0.1,51039,www.googletagmanager.com/172.217.10.40,443,,03 Jun 2019 14:29:32,,,03 Jun 2019 14:33:32,240068,41,2,12,,,,0.0146484375,,,2207,0,496,372,0,,,
https://www.google-analytics.com,RECEIVING_REQUEST_BODY,200,https,CONNECT,,/127.0.0.1,51051,www.google-analytics.com/172.217.6.206,443,,03 Jun 2019 14:29:33,,,,254557,8,2,6,,,,0.013671875,,,1608,0,1074,372,0,523,,
https://stats.g.doubleclick.net,RECEIVING_REQUEST_BODY,200,https,CONNECT,,/127.0.0.1,51053,stats.g.doubleclick.net/173.194.206.154,443,,03 Jun 2019 14:29:33,,,,254336,37,33,35,,,,0.0126953125,,,1608,0,800,372,0,557,,
https://www.google.com,RECEIVING_REQUEST_BODY,200,https,CONNECT,,/127.0.0.1,51055,www.google.com/172.217.10.68,443,,03 Jun 2019 14:29:33,,,,254174,34,2,48,,,,0.06542969,,,2251,0,981,13245,0,613,,
https://ts01-b.cloudsink.net,RECEIVING_REQUEST_BODY,200,https,CONNECT,,/127.0.0.1,51057,ts01-b.cloudsink.net/54.193.67.98,443,,03 Jun 2019 14:29:35,,,,252305,36,72,174,,,,0.17382812,,,1246,0,22393,17474,0,3887,,
https://ssl.gstatic.com,RECEIVING_REQUEST_BODY,200,https,CONNECT,,/127.0.0.1,51061,ssl.gstatic.com/172.217.12.195,443,,03 Jun 2019 14:29:47,,,,240090,36,5,3,,,,0.01171875,,,1608,0,599,372,0,533,,
https://play.google.com,RECEIVING_REQUEST_BODY,200,https,CONNECT,,/127.0.0.1,51079,play.google.com/172.217.10.46,443,,03 Jun 2019 14:30:50,,,,177280,1,2,3,,,,0.034179688,,,1608,0,3369,372,0,890,,
https://play.google.com,RECEIVING_REQUEST_BODY,200,https,CONNECT,,/127.0.0.1,51084,play.google.com/172.217.10.46,443,,03 Jun 2019 14:31:45,,,,122236,2,2,2,,,,0.033203125,,,1608,0,1206,372,0,1087,,
https://entitlements.jwplayer.com,COMPLETE,200,https,CONNECT,,/127.0.0.1,51086,entitlements.jwplayer.com/72.21.81.189,443,,03 Jun 2019 14:32:17,,,03 Jun 2019 14:32:48,30499,34,2,36,,,,1.1474609,,,1524,0,317,33541,0,464,,
https://s.tremorvideodsp.com/q/video1_small.mp4,COMPLETE,206,https,GET,video/mp4,/127.0.0.1,51087,s.tremorvideodsp.com/23.48.36.205,443,,03 Jun 2019 14:32:17,03 Jun 2019 14:32:17,03 Jun 2019 14:32:17,03 Jun 2019 14:32:17,163,62,11,29,0,1,60,98.65625,0.0,14698.242,1058,358,,15049,0,2,,
https://jwpltx.com,COMPLETE,200,https,CONNECT,,/127.0.0.1,51088,jwpltx.com/34.236.4.254,443,,03 Jun 2019 14:32:17,,,03 Jun 2019 14:32:48,30452,5,9,40,,,,1.0927734,,,1609,0,609,31731,0,132,,
https://s.tremorvideodsp.com/q/video1_small.mp4,COMPLETE,206,https,GET,video/mp4,/127.0.0.1,51087,s.tremorvideodsp.com/23.48.36.205,443,,03 Jun 2019 14:32:17,03 Jun 2019 14:32:17,03 Jun 2019 14:32:17,03 Jun 2019 14:32:17,43,,,,0,15,28,1496.5928,0.0,4266.666,,362,,,0,65536,,
https://s.tremorvideodsp.com/q/video1_small.mp4,COMPLETE,206,https,GET,video/mp4,/127.0.0.1,51087,s.tremorvideodsp.com/23.48.36.205,443,,03 Jun 2019 14:32:17,03 Jun 2019 14:32:17,03 Jun 2019 14:32:17,03 Jun 2019 14:32:17,35,,,,0,7,28,1838.8389,0.0,9142.856,,368,,,0,65536,,
https://s.tremorvideodsp.com/q/video1_small.mp4,COMPLETE,206,https,GET,video/mp4,/127.0.0.1,51092,s.tremorvideodsp.com/23.48.36.205,443,,03 Jun 2019 14:32:17,03 Jun 2019 14:32:17,03 Jun 2019 14:32:17,03 Jun 2019 14:32:18,539,2,11,28,0,468,30,17949.385,0.0,20669.65,986,368,,14959,0,9890599,,
https://s.tremorvideodsp.com/q/video1_small.mp4,COMPLETE,206,https,GET,video/mp4,/127.0.0.1,51087,s.tremorvideodsp.com/23.48.36.205,443,,03 Jun 2019 14:32:17,03 Jun 2019 14:32:17,03 Jun 2019 14:32:17,03 Jun 2019 14:32:17,37,,,,0,6,31,1739.4424,0.0,10666.666,,368,,,0,65536,,
https://adserver.videohub.tv/preview?RI=0qVDB4RQ6XxaPtPJ6LvNPw&screenType=mobiletablet&rml=true&Uctry=__country__&Ust=__state__&Udma=__dma__&Uzip=__postalCode__&Ucty=__city__&Uctnt=__continent__&Ulong=__longitude__&Ulat=__latitude__&Uacd=__areaCode__&position_ACP=__adChoicesPosition__&usedACP=__usedACP__&dspACP=__adChoicesProviders__&sig=EB3C0E79452040BDF67C3F14F44A81FE&CI=EQRLslwxeX0ah-b4ofuB8A&dmps=y&ssRmlApp=1&isApp=y,COMPLETE,200,https,GET,application/xml; charset=utf-8,/127.0.0.1,51094,adserver.videohub.tv/67.226.210.10,443,,03 Jun 2019 14:32:26,03 Jun 2019 14:32:26,03 Jun 2019 14:32:26,03 Jun 2019 14:32:26,69,1,11,32,0,11,14,601.75977,0.0,3620.205,1046,694,,25605,0,15173,,
https://objects-secure.videohub.tv/net/js/rml-app.min.js?adData=https%3A%2F%2Fadserver.videohub.tv%2Fadresponse%3Fkey%3Da5529a9c-442f-46c7-9e4a-52ae1c6f08a2,COMPLETE,200,https,GET,application/javascript,/127.0.0.1,51096,objects-secure.videohub.tv/104.117.13.219,443,,03 Jun 2019 14:32:26,03 Jun 2019 14:32:26,03 Jun 2019 14:32:26,03 Jun 2019 14:32:26,121,65,9,25,1,12,9,655.02246,1460.9375,6483.0723,1070,426,,16754,0,62910,,72.6%
https://adserver.videohub.tv/adresponse?key=a5529a9c-442f-46c7-9e4a-52ae1c6f08a2,COMPLETE,200,https,GET,application/xml; charset=utf-8,/127.0.0.1,51094,adserver.videohub.tv/67.226.210.10,443,,03 Jun 2019 14:32:26,03 Jun 2019 14:32:26,03 Jun 2019 14:32:26,03 Jun 2019 14:32:26,15,,,,0,0,15,87.109375,0.0,0.0,,350,,,0,988,,
https://objects-secure.tremormedia.com/net/js/io-polyfill-0.5.1.js,COMPLETE,200,https,GET,application/javascript,/127.0.0.1,51098,objects-secure.tremormedia.com/104.117.3.9,443,,03 Jun 2019 14:32:26,03 Jun 2019 14:32:27,03 Jun 2019 14:32:27,03 Jun 2019 14:32:27,232,184,9,25,1,0,13,103.42285,1388.6719,0.0,1086,336,,16789,0,6359,,71.5%
https://static-secure.scanscout.com,COMPLETE,200,https,CONNECT,,/127.0.0.1,51100,static-secure.scanscout.com/184.28.89.61,443,,03 Jun 2019 14:32:27,,,03 Jun 2019 14:32:58,31356,62,23,69,,,,72.44629,,,1534,0,1810,26243,0,2296583,,
https://prd.jwpltx.com,COMPLETE,200,https,CONNECT,,/127.0.0.1,51102,prd.jwpltx.com/54.174.103.247,443,,03 Jun 2019 14:32:28,,,03 Jun 2019 14:33:28,60312,64,8,129,,,,0.60546875,,,1469,0,3685,31731,0,528,,
https://s.tremorvideodsp.com/q/qa1.js?param1=creative_impression,COMPLETE,200,https,GET,application/x-javascript,/127.0.0.1,51103,s.tremorvideodsp.com/23.48.36.205,443,,03 Jun 2019 14:32:28,03 Jun 2019 14:32:28,03 Jun 2019 14:32:28,03 Jun 2019 14:32:28,91,2,11,33,0,0,45,179.22559,0.0,0.0,1046,334,,15049,0,272,,
https://dt-secure.videohub.tv/v1/usync/ironsource?userId=,COMPLETE,303,https,GET,image/gif,/127.0.0.1,51105,dt-secure.videohub.tv/67.226.210.15,443,,03 Jun 2019 14:32:28,03 Jun 2019 14:32:28,03 Jun 2019 14:32:28,03 Jun 2019 14:32:28,52,2,9,29,0,2,10,513.57715,0.0,12652.344,1050,385,,25869,0,43,,
https://sync.doubleverify.com/query.gif?ctx=42674&cmp=2311460&DVP_CMPID=3502466&DVP_PUBID=&dvp_red=http%3A%2F%2Fads.videohub.tv%2Fssframework%2Fdt%2Fbotid%3Fa%3Dset%26DUID%3D1,COMPLETE,200,https,GET,image/gif,/127.0.0.1,51107,sync.doubleverify.com/204.154.111.224,443,,03 Jun 2019 14:32:28,03 Jun 2019 14:32:28,03 Jun 2019 14:32:28,03 Jun 2019 14:32:28,31,9,3,13,0,0,6,772.68066,0.0,0.0,1178,503,,21987,0,860,,-6.6%
https://tps30.doubleverify.com/visit.jpg?ctx=42674&cmp=2256325&sid=1111&plc=22563261&num=&adid=&advid=498259&adsrv=41&region=30&btreg=&btadsrv=&crt=&crtname=&chnl=&unit=&pid=&uid=&dvtagver=6.1.img&DVP_CMPID=3502466&DVP_PUBID=&turl=tremorvideodsp.com,COMPLETE,200,https,GET,image/jpeg,/127.0.0.1,51108,tps30.doubleverify.com/204.154.111.128,443,,03 Jun 2019 14:32:28,03 Jun 2019 14:32:29,03 Jun 2019 14:32:29,03 Jun 2019 14:32:29,453,428,2,12,0,1,10,56.262695,0.0,23769.531,1182,577,,24198,0,142,,53.4%
https://tags.bluekai.com/site/2954,COMPLETE,200,https,GET,,/127.0.0.1,51109,tags.bluekai.com/96.7.23.53,443,,03 Jun 2019 14:32:28,03 Jun 2019 14:32:28,03 Jun 2019 14:32:28,03 Jun 2019 14:32:28,203,61,11,37,0,1,93,73.15039,0.0,13490.234,1030,362,,13814,0,0,,
"https://secure-gl.imrworldwide.com/cgi-bin/m?ci=nlsnapi12535&am=4&ep=1&at=view&rt=banner&st=image&ca=3500226_000&cr=&pc=3502466&r=1850827836&c7=osgrp,iOS&c8=devgrp,TAB&c9=devid,unknown&c10=plt,MBL&c12=apv,12.1&c13=asid,PF85C1805-9397-D9CB-E040-070AAD31777E&c14=osver,12.1",COMPLETE,200,https,GET,image/gif,/127.0.0.1,51112,secure-gl.imrworldwide.com/99.84.127.41,443,,03 Jun 2019 14:32:28,03 Jun 2019 14:32:28,03 Jun 2019 14:32:28,03 Jun 2019 14:32:28,110,65,2,16,0,0,27,160.64453,0.0,0.0,1070,599,,16382,0,44,,
https://tp.videohub.tv/v1/topprop.png?domain=&ui=&pri=583bc017-94dd-47b6-95ec-7d5e7b6c4127&ssRnd=564841053,COMPLETE,200,https,GET,image/png,/127.0.0.1,51111,tp.videohub.tv/67.226.210.13,443,,03 Jun 2019 14:32:28,03 Jun 2019 14:32:28,03 Jun 2019 14:32:28,03 Jun 2019 14:32:28,78,2,10,52,0,0,14,342.64746,0.0,0.0,1022,434,,25869,0,43,,
https://l0-secure.videohub.tv/ssframework/log/log.png?EC=3&a=logitemaction&nolog=1&ssPD=tremorvideodsp.com&Uzip=__postalCode__&CI=3502466&ADI=7871906&PRI=583bc017-94dd-47b6-95ec-7d5e7b6c4127&Udma=__dma__&ssMLVer=rml_app_1.9.0&Uctry=__country__&AVI=425726&ssASVer=2.0&PBI=3500226&RI=1&Ust=__state__&NI=1344&admode=preroll&ssDsC=mobiletablet&ssRnd=660355009&SfF=true&dspPartnerFee=vi-moatgroupm:0.0001500000;rp-nielsen:0.0099800000&AmN=1&ssBe=1&adFocus=true&RvN=1,COMPLETE,200,https,GET,image/gif,/127.0.0.1,51114,l0-secure.videohub.tv/67.226.210.12,443,,03 Jun 2019 14:32:28,03 Jun 2019 14:32:28,03 Jun 2019 14:32:28,03 Jun 2019 14:32:28,94,36,11,33,0,1,13,288.3037,0.0,25304.688,1050,789,,25869,0,43,,
https://s.tremorvideodsp.com/q/qa.gif?param1=mobile_screen_impression,COMPLETE,200,https,GET,image/gif,/127.0.0.1,51118,s.tremorvideodsp.com/23.48.36.205,443,,03 Jun 2019 14:32:28,03 Jun 2019 14:32:28,03 Jun 2019 14:32:28,03 Jun 2019 14:32:28,87,3,10,28,0,1,45,183.91895,0.0,14650.391,986,397,,14959,0,43,,
https://s.tremorvideodsp.com/q/qa.gif?param1=creative_impression,COMPLETE,200,https,GET,image/gif,/127.0.0.1,51120,s.tremorvideodsp.com/23.48.36.205,443,,03 Jun 2019 14:32:28,03 Jun 2019 14:32:28,03 Jun 2019 14:32:28,03 Jun 2019 14:32:28,93,4,11,30,0,1,47,172.00098,0.0,14650.391,986,392,,14959,0,43,,
https://s.tremorvideodsp.com/q/qa.gif?param1=impression,COMPLETE,200,https,GET,image/gif,/127.0.0.1,51121,s.tremorvideodsp.com/23.48.36.205,443,,03 Jun 2019 14:32:28,03 Jun 2019 14:32:28,03 Jun 2019 14:32:28,03 Jun 2019 14:32:28,79,2,11,28,0,1,37,202.37012,0.0,14650.391,986,383,,14959,0,43,,
https://s.tremorvideodsp.com/q/qa1.js?param1=impression,COMPLETE,200,https,GET,application/x-javascript,/127.0.0.1,51122,s.tremorvideodsp.com/23.48.36.205,443,,03 Jun 2019 14:32:28,03 Jun 2019 14:32:28,03 Jun 2019 14:32:28,03 Jun 2019 14:32:28,91,2,11,30,0,1,47,178.1416,0.0,14874.023,986,383,,14959,0,272,,
https://dt-secure.videohub.tv/v1/usync/rubicon?userId=,COMPLETE,303,https,GET,image/gif,/127.0.0.1,51130,dt-secure.videohub.tv/67.226.210.15,443,,03 Jun 2019 14:32:28,03 Jun 2019 14:32:28,03 Jun 2019 14:32:28,03 Jun 2019 14:32:28,61,1,11,37,0,0,12,436.79492,0.0,0.0,990,382,,25869,0,43,,
https://dt-secure.videohub.tv/v1/usync/pubmatic?userId=,COMPLETE,303,https,GET,image/gif,/127.0.0.1,51129,dt-secure.videohub.tv/67.226.210.15,443,,03 Jun 2019 14:32:28,03 Jun 2019 14:32:28,03 Jun 2019 14:32:28,03 Jun 2019 14:32:28,66,5,10,38,0,2,11,403.71973,0.0,12652.344,990,383,,25869,0,43,,
https://dt-secure.videohub.tv/v1/usync/springserve?userId=,COMPLETE,303,https,GET,image/gif,/127.0.0.1,51131,dt-secure.videohub.tv/67.226.210.15,443,,03 Jun 2019 14:32:28,03 Jun 2019 14:32:28,03 Jun 2019 14:32:28,03 Jun 2019 14:32:28,64,4,9,39,0,0,12,416.38184,0.0,0.0,990,386,,25869,0,43,,
https://dt-secure.videohub.tv/v1/usync/lkqd_direct?userId=,COMPLETE,303,https,GET,image/gif,/127.0.0.1,51128,dt-secure.videohub.tv/67.226.210.15,443,,03 Jun 2019 14:32:28,03 Jun 2019 14:32:28,03 Jun 2019 14:32:28,03 Jun 2019 14:32:28,71,3,10,46,0,1,11,375.33008,0.0,25304.688,990,386,,25869,0,43,,
https://dt-secure.videohub.tv/v1/usync/bs?userId=,COMPLETE,303,https,GET,image/gif,/127.0.0.1,51127,dt-secure.videohub.tv/67.226.210.15,443,,03 Jun 2019 14:32:28,03 Jun 2019 14:32:28,03 Jun 2019 14:32:28,03 Jun 2019 14:32:28,72,1,11,48,0,0,12,369.99512,0.0,0.0,990,377,,25869,0,43,,
https://sync.doubleverify.com/query.gif?ctx=42674&cmp=2256325&DVP_CMPID=3502466&DVP_PUBID=&dvp_red=http%3A%2F%2Fapp.scanscout.com%2Fssframework%2Fdt%2Fbotid%3Fa%3Dset%26DUID%3D1,COMPLETE,200,https,GET,image/gif,/127.0.0.1,51132,sync.doubleverify.com/204.154.111.224,443,,03 Jun 2019 14:32:28,03 Jun 2019 14:32:28,03 Jun 2019 14:32:28,03 Jun 2019 14:32:28,25,1,2,3,0,1,18,93.515625,0.0,1176.7578,684,505,,345,0,860,,-6.6%
https://dt-secure.videohub.tv/v1/usync/spx?userId=,COMPLETE,303,https,GET,image/gif,/127.0.0.1,51105,dt-secure.videohub.tv/67.226.210.15,443,,03 Jun 2019 14:32:28,03 Jun 2019 14:32:28,03 Jun 2019 14:32:28,03 Jun 2019 14:32:28,11,,,,0,0,11,37.375,0.0,0.0,,378,,,0,43,,
https://cs.rtb-seller.com,COMPLETE,200,https,CONNECT,,/127.0.0.1,51139,cs.rtb-seller.com/52.200.27.187,443,,03 Jun 2019 14:32:28,,,03 Jun 2019 14:32:59,31261,35,7,137,,,,1.0488281,,,1484,0,388,31539,0,170,,
https://dt-secure.videohub.tv/v1/usync/rhythmone?userId=,COMPLETE,303,https,GET,image/gif,/127.0.0.1,51105,dt-secure.videohub.tv/67.226.210.15,443,,03 Jun 2019 14:32:28,03 Jun 2019 14:32:28,03 Jun 2019 14:32:28,03 Jun 2019 14:32:28,11,,,,1,0,10,37.908203,375.0,0.0,,384,,,0,43,,
https://sync.search.spotxchange.com,COMPLETE,200,https,CONNECT,,/127.0.0.1,51140,sync.search.spotxchange.com/192.35.249.120,443,,03 Jun 2019 14:32:28,,,03 Jun 2019 14:32:59,31237,1,11,138,,,,0.6269531,,,1534,0,886,16383,0,1260,,
https://dt-secure.videohub.tv/v1/usync/tr?userId=,COMPLETE,303,https,GET,image/gif,/127.0.0.1,51105,dt-secure.videohub.tv/67.226.210.15,443,,03 Jun 2019 14:32:28,03 Jun 2019 14:32:28,03 Jun 2019 14:32:28,03 Jun 2019 14:32:28,11,,,,0,0,11,37.286133,0.0,0.0,,377,,,0,43,,
https://l0-secure.videohub.tv/ssframework/log/log.png?EC=7&a=logitemaction&nolog=1&ssPD=tremorvideodsp.com&Uzip=__postalCode__&CI=3502466&ADI=7871906&PRI=583bc017-94dd-47b6-95ec-7d5e7b6c4127&Udma=__dma__&ssMLVer=rml_app_1.9.0&Uctry=__country__&AVI=425726&ssASVer=2.0&PBI=3500226&RI=1&Ust=__state__&NI=1344&admode=preroll&ssDsC=mobiletablet&ssRnd=2056381748&Eipct=0&EvaF=1&EiN=1,COMPLETE,200,https,GET,image/gif,/127.0.0.1,51143,l0-secure.videohub.tv/67.226.210.12,443,,03 Jun 2019 14:32:28,03 Jun 2019 14:32:28,03 Jun 2019 14:32:28,03 Jun 2019 14:32:28,51,1,10,29,0,0,11,528.626,0.0,0.0,990,705,,25869,0,43,,
https://dt-secure.videohub.tv/ssframework/tvuid?a=set&UI=,COMPLETE,400,https,GET,image/gif,/127.0.0.1,51130,dt-secure.videohub.tv/67.226.210.15,443,,03 Jun 2019 14:32:28,03 Jun 2019 14:32:28,03 Jun 2019 14:32:28,03 Jun 2019 14:32:28,13,,,,0,0,13,32.151367,0.0,0.0,,385,,,0,43,,
https://sync.1rx.io,COMPLETE,200,https,CONNECT,,/127.0.0.1,51145,sync.1rx.io/8.41.222.152,443,,03 Jun 2019 14:32:28,,,03 Jun 2019 14:33:00,31187,37,2,201,,,,0.86816406,,,1094,0,796,24907,0,936,,
https://pixel.rubiconproject.com,COMPLETE,200,https,CONNECT,,/127.0.0.1,51146,pixel.rubiconproject.com/8.43.72.97,443,,03 Jun 2019 14:32:28,,,03 Jun 2019 14:32:59,31118,138,10,214,,,,0.63671875,,,1589,0,890,16516,0,1322,,
https://dt-secure.videohub.tv/v1/usync/dd?userId=,COMPLETE,303,https,GET,image/gif,/127.0.0.1,51131,dt-secure.videohub.tv/67.226.210.15,443,,03 Jun 2019 14:32:28,03 Jun 2019 14:32:28,03 Jun 2019 14:32:28,03 Jun 2019 14:32:28,13,,,,1,0,12,31.549805,368.16406,0.0,,377,,,0,43,,
https://dt-secure.videohub.tv/v1/usync/lo?userId=,COMPLETE,303,https,GET,image/gif,/127.0.0.1,51129,dt-secure.videohub.tv/67.226.210.15,443,,03 Jun 2019 14:32:28,03 Jun 2019 14:32:28,03 Jun 2019 14:32:28,03 Jun 2019 14:32:28,11,,,,1,0,10,37.286133,368.16406,0.0,,377,,,0,43,,
https://dt-secure.videohub.tv/v1/usync/ex?userId=,COMPLETE,303,https,GET,image/gif,/127.0.0.1,51105,dt-secure.videohub.tv/67.226.210.15,443,,03 Jun 2019 14:32:28,03 Jun 2019 14:32:28,03 Jun 2019 14:32:28,03 Jun 2019 14:32:28,11,,,,1,0,10,37.286133,368.16406,0.0,,377,,,0,43,,
https://dt-secure.videohub.tv/v1/usync/ds?userId=,COMPLETE,303,https,GET,image/gif,/127.0.0.1,51128,dt-secure.videohub.tv/67.226.210.15,443,,03 Jun 2019 14:32:28,03 Jun 2019 14:32:28,03 Jun 2019 14:32:28,03 Jun 2019 14:32:28,11,,,,0,0,11,37.286133,0.0,0.0,,377,,,0,43,,
https://dt-secure.videohub.tv/v1/usync/lrjs?userId=,COMPLETE,303,https,GET,image/gif,/127.0.0.1,51127,dt-secure.videohub.tv/67.226.210.15,443,,03 Jun 2019 14:32:28,03 Jun 2019 14:32:28,03 Jun 2019 14:32:28,03 Jun 2019 14:32:28,15,,,,0,0,15,27.473633,0.0,0.0,,379,,,0,43,,
https://dt-secure.videohub.tv/v1/usync/db?userId=&deviceId=unknown&screenType=mobiletablet&osType=iOS&rand=1850827836,COMPLETE,303,https,GET,image/gif,/127.0.0.1,51130,dt-secure.videohub.tv/67.226.210.15,443,,03 Jun 2019 14:32:28,03 Jun 2019 14:32:28,03 Jun 2019 14:32:28,03 Jun 2019 14:32:28,13,,,,0,0,13,36.658203,0.0,0.0,,445,,,0,43,,
https://simage2.pubmatic.com,COMPLETE,200,https,CONNECT,,/127.0.0.1,51149,simage2.pubmatic.com/162.248.19.147,443,,03 Jun 2019 14:32:28,,,03 Jun 2019 14:32:59,31116,35,2,202,,,,0.69140625,,,1499,0,455,19257,0,827,,
https://x.bidswitch.net,COMPLETE,200,https,CONNECT,,/127.0.0.1,51152,x.bidswitch.net/104.196.173.4,443,,03 Jun 2019 14:32:28,,,03 Jun 2019 14:32:39,10418,5,20,203,,,,3.616211,,,1146,0,405,36284,0,743,,
https://sync.springserve.com,COMPLETE,200,https,CONNECT,,/127.0.0.1,51150,sync.springserve.com/18.214.171.42,443,,03 Jun 2019 14:32:28,,,03 Jun 2019 14:32:59,31115,62,8,195,,,,1.0595703,,,1499,0,397,31653,0,212,,
https://partners.tremorhub.com,COMPLETE,200,https,CONNECT,,/127.0.0.1,51148,partners.tremorhub.com/52.201.165.246,443,,03 Jun 2019 14:32:28,,,03 Jun 2019 14:32:59,31116,10,10,176,,,,1.0820312,,,1509,0,387,32079,0,516,,
https://cs.lkqd.net,COMPLETE,200,https,CONNECT,,/127.0.0.1,51151,cs.lkqd.net/146.20.132.151,443,,03 Jun 2019 14:32:28,,,03 Jun 2019 14:32:59,31111,8,10,188,,,,1.3867188,,,1322,0,396,42000,0,482,,
https://dt-secure.videohub.tv/v1/usync/kx?userId=,COMPLETE,303,https,GET,image/gif,/127.0.0.1,51129,dt-secure.videohub.tv/67.226.210.15,443,,03 Jun 2019 14:32:28,03 Jun 2019 14:32:28,03 Jun 2019 14:32:28,03 Jun 2019 14:32:28,10,,,,0,0,10,41.015625,0.0,0.0,,377,,,0,43,,
https://dt-secure.videohub.tv/v1/usync/al?userId=,COMPLETE,303,https,GET,image/gif,/127.0.0.1,51105,dt-secure.videohub.tv/67.226.210.15,443,,03 Jun 2019 14:32:28,03 Jun 2019 14:32:28,03 Jun 2019 14:32:28,03 Jun 2019 14:32:28,10,,,,0,0,10,41.015625,0.0,0.0,,377,,,0,43,,
https://dt-secure.videohub.tv/v1/usync/bk?userId=,COMPLETE,303,https,GET,image/gif,/127.0.0.1,51128,dt-secure.videohub.tv/67.226.210.15,443,,03 Jun 2019 14:32:28,03 Jun 2019 14:32:28,03 Jun 2019 14:32:28,03 Jun 2019 14:32:28,11,,,,0,0,11,37.286133,0.0,0.0,,377,,,0,43,,
https://dt-secure.videohub.tv/v1/usync/lr?userId=,COMPLETE,303,https,GET,image/gif,/127.0.0.1,51131,dt-secure.videohub.tv/67.226.210.15,443,,03 Jun 2019 14:32:28,03 Jun 2019 14:32:28,03 Jun 2019 14:32:28,03 Jun 2019 14:32:28,10,,,,0,0,10,41.015625,0.0,0.0,,377,,,0,43,,
https://dt-secure.videohub.tv/v1/usync/ns?userId=,COMPLETE,303,https,GET,image/gif,/127.0.0.1,51127,dt-secure.videohub.tv/67.226.210.15,443,,03 Jun 2019 14:32:28,03 Jun 2019 14:32:28,03 Jun 2019 14:32:28,03 Jun 2019 14:32:28,22,,,,1,0,21,18.642578,368.16406,0.0,,377,,,0,43,,
https://objects-secure.tremormedia.com/net/js/lr.js?partner_id=9a644e6ff8861716d630d7aedbb7fba8,COMPLETE,200,https,GET,application/javascript,/127.0.0.1,51098,objects-secure.tremormedia.com/104.117.3.9,443,,03 Jun 2019 14:32:28,03 Jun 2019 14:32:28,03 Jun 2019 14:32:28,03 Jun 2019 14:32:28,9,,,,0,0,9,130.3164,0.0,0.0,,423,,,0,778,,57.1%
https://bcp.crwdcntrl.net,COMPLETE,200,https,CONNECT,,/127.0.0.1,51155,bcp.crwdcntrl.net/34.203.25.73,443,,03 Jun 2019 14:32:28,,,03 Jun 2019 14:32:59,31062,42,8,172,,,,1.0761719,,,1484,0,797,31179,0,792,,
https://dpm.demdex.net,COMPLETE,200,https,CONNECT,,/127.0.0.1,51160,dpm.demdex.net/54.152.55.20,443,,03 Jun 2019 14:32:28,,,03 Jun 2019 14:32:59,31072,42,9,179,,,,0.6826172,,,1469,0,804,18303,0,1155,,
https://idpix.media6degrees.com,COMPLETE,200,https,CONNECT,,/127.0.0.1,51159,idpix.media6degrees.com/204.2.197.201,443,,03 Jun 2019 14:32:28,,,03 Jun 2019 14:32:29,297,62,4,162,,,,88.08789,,,1514,0,431,24075,0,770,,
https://loadm.exelator.com,COMPLETE,200,https,CONNECT,,/127.0.0.1,51158,loadm.exelator.com/147.75.39.192,443,,03 Jun 2019 14:32:28,,,03 Jun 2019 14:32:39,10467,72,2,176,,,,3.2421875,,,1122,0,816,31294,0,1525,,
https://sync.alphonso.tv,COMPLETE,200,https,CONNECT,,/127.0.0.1,51164,sync.alphonso.tv/104.129.168.238,443,,03 Jun 2019 14:32:28,,,03 Jun 2019 14:32:59,30912,37,5,192,,,,0.95410156,,,1479,0,391,27865,0,471,,
https://stags.bluekai.com,COMPLETE,200,https,CONNECT,,/127.0.0.1,51165,stags.bluekai.com/96.7.23.53,443,,03 Jun 2019 14:32:28,,,03 Jun 2019 14:32:59,31010,72,10,173,,,,0.7392578,,,1484,0,459,21254,0,295,,
https://p.adsymptotic.com,COMPLETE,200,https,CONNECT,,/127.0.0.1,51167,p.adsymptotic.com/52.73.223.21,443,,03 Jun 2019 14:32:28,,,03 Jun 2019 14:32:59,31010,87,11,157,,,,0.71191406,,,1484,0,944,19281,0,921,,
https://beacon.krxd.net,COMPLETE,200,https,CONNECT,,/127.0.0.1,51163,beacon.krxd.net/184.73.192.162,443,,03 Jun 2019 14:32:28,,,03 Jun 2019 14:32:59,30993,6,9,201,,,,1.0546875,,,1474,0,414,31113,0,482,,
https://idsync.rlcdn.com,COMPLETE,200,https,CONNECT,,/127.0.0.1,51166,idsync.rlcdn.com/34.95.92.78,443,,03 Jun 2019 14:32:28,,,03 Jun 2019 14:32:59,30918,4,2,187,,,,0.8779297,,,1347,0,838,24510,0,1107,,
https://aa.agkn.com,COMPLETE,200,https,CONNECT,,/127.0.0.1,51173,aa.agkn.com/63.251.88.56,443,,03 Jun 2019 14:32:29,,,03 Jun 2019 14:32:29,268,50,9,155,,,,84.271484,,,1454,0,402,20762,0,509,,
https://tps30.doubleverify.com/visit.jpg?ctx=42674&cmp=DV069178&sid=1111&plc=2018011501&advid=3819603&adsrv=0&tagtype=&dvtagver=6.1.img&DVP_PP_REP=1&DVP_IQM_ID=16&DVP_DV_TT=2&DVP_DV_CT=2&DVP_TR_SSP=&DVP_TR_PUB=[PUBLISHER_ID]&DVP_TR_SITE=[SUPPLY_ID]&DVP_TR_ADV=425726&DVP_TR_CMP=3502466&DVP_TR_PLC=3502466&turl=tremorvideodsp.com&DVP_PP_BUNDLE_ID=&DVP_TR_COST=,COMPLETE,200,https,GET,image/jpeg,/127.0.0.1,51180,tps30.doubleverify.com/204.154.111.128,443,,03 Jun 2019 14:32:29,03 Jun 2019 14:32:29,03 Jun 2019 14:32:29,03 Jun 2019 14:32:29,18,2,3,4,0,1,8,99.98828,0.0,458.0078,687,687,,327,0,142,,53.4%
https://bsw.digitru.st,COMPLETE,200,https,CONNECT,,/127.0.0.1,51182,bsw.digitru.st/104.196.173.4,443,,03 Jun 2019 14:32:29,,,03 Jun 2019 14:32:39,10225,3,20,73,,,,3.5664062,,,1142,0,405,35144,0,658,,
https://d.agkn.com,COMPLETE,200,https,CONNECT,,/127.0.0.1,51184,d.agkn.com/34.199.150.10,443,,03 Jun 2019 14:32:29,,,03 Jun 2019 14:32:59,30608,80,9,41,,,,0.875,,,1449,0,384,25023,0,572,,
https://pippio.com,COMPLETE,200,https,CONNECT,,/127.0.0.1,51185,pippio.com/107.178.254.65,443,,03 Jun 2019 14:32:29,,,03 Jun 2019 14:32:59,30681,1,2,20,,,,0.8642578,,,1317,0,751,23570,0,1536,,
https://us-east-sync.bidswitch.net,COMPLETE,200,https,CONNECT,,/127.0.0.1,51187,us-east-sync.bidswitch.net/35.185.1.218,443,,03 Jun 2019 14:32:29,,,03 Jun 2019 14:32:39,10267,38,20,69,,,,3.671875,,,1190,0,430,36284,0,700,,
https://cm.g.doubleclick.net,COMPLETE,200,https,CONNECT,,/127.0.0.1,51190,cm.g.doubleclick.net/172.217.9.226,443,,03 Jun 2019 14:32:29,,,03 Jun 2019 14:32:59,30604,37,2,52,,,,0.5449219,,,1367,0,424,14345,0,969,,
https://tag.apxlv.com,COMPLETE,200,https,CONNECT,,/127.0.0.1,51192,tag.apxlv.com/162.223.54.6,443,,03 Jun 2019 14:32:29,,,03 Jun 2019 14:32:59,30330,5,8,51,,,,0.90234375,,,1464,0,368,25553,0,647,,
https://tag.cogocast.net,COMPLETE,200,https,CONNECT,,/127.0.0.1,51194,tag.cogocast.net/34.200.38.46,443,,03 Jun 2019 14:32:29,,,03 Jun 2019 14:33:01,31434,70,9,37,,,,0.9033203,,,1479,0,502,26200,0,923,,
https://objects-secure.tremormedia.com/net/js/adchoicesappicon.min.js?iconPosition=top-left&optOut=&iconClick=&playerWidth=770&playerHeight=1026&sources=&country=us,COMPLETE,200,https,GET,application/javascript,/127.0.0.1,51098,objects-secure.tremormedia.com/104.117.3.9,443,,03 Jun 2019 14:32:29,03 Jun 2019 14:32:29,03 Jun 2019 14:32:29,03 Jun 2019 14:32:29,11,,,,0,2,9,1549.627,0.0,8311.035,,434,,,0,17021,,45.7%
https://gpush.cogocast.net,COMPLETE,200,https,CONNECT,,/127.0.0.1,51196,gpush.cogocast.net/162.223.54.16,443,,03 Jun 2019 14:32:29,,,03 Jun 2019 14:32:29,64,36,8,,,,,3.3105469,,,210,0,0,7,0,0,,
https://l0-secure.videohub.tv/ssframework/log/log.png?EC=40&a=logitemaction&nolog=1&ssPD=tremorvideodsp.com&Uzip=__postalCode__&CI=3502466&ADI=7871906&PRI=583bc017-94dd-47b6-95ec-7d5e7b6c4127&Udma=__dma__&ssMLVer=rml_app_1.9.0&Uctry=__country__&AVI=425726&ssASVer=2.0&PBI=3500226&RI=1&Ust=__state__&NI=1344&admode=preroll&ssDsC=mobiletablet&ssRnd=1650247148&EvaF=1&pctVw=0,COMPLETE,200,https,GET,image/gif,/127.0.0.1,51114,l0-secure.videohub.tv/67.226.210.12,443,,03 Jun 2019 14:32:30,03 Jun 2019 14:32:30,03 Jun 2019 14:32:30,03 Jun 2019 14:32:30,16,,,,0,1,15,45.348633,0.0,41.992188,,700,,,0,43,,
https://s.tremorvideodsp.com/q/qa.gif?param1=mobile_screen_click,COMPLETE,200,https,GET,image/gif,/127.0.0.1,51103,s.tremorvideodsp.com/23.48.36.205,443,,03 Jun 2019 14:32:31,03 Jun 2019 14:32:31,03 Jun 2019 14:32:31,03 Jun 2019 14:32:31,61,,,,0,1,60,6.963867,0.0,41.992188,,392,,,0,43,,
https://s.tremorvideodsp.com/q/qa.gif?param1=creative_click,COMPLETE,200,https,GET,image/gif,/127.0.0.1,51118,s.tremorvideodsp.com/23.48.36.205,443,,03 Jun 2019 14:32:31,03 Jun 2019 14:32:31,03 Jun 2019 14:32:31,03 Jun 2019 14:32:31,61,,,,1,1,59,6.883789,377.9297,41.992188,,387,,,0,43,,
https://l0-secure.videohub.tv/ssframework/log/log.png?EC=2&a=logitemaction&nolog=1&ssPD=tremorvideodsp.com&Uzip=__postalCode__&CI=3502466&ADI=7871906&PRI=583bc017-94dd-47b6-95ec-7d5e7b6c4127&Udma=__dma__&ssMLVer=rml_app_1.9.0&Uctry=__country__&AVI=425726&ssASVer=2.0&PBI=3500226&RI=1&Ust=__state__&NI=1344&admode=preroll&ssDsC=mobiletablet&ssRnd=497942445,COMPLETE,200,https,GET,image/gif,/127.0.0.1,51114,l0-secure.videohub.tv/67.226.210.12,443,,03 Jun 2019 14:32:31,03 Jun 2019 14:32:31,03 Jun 2019 14:32:31,03 Jun 2019 14:32:31,13,,,,1,0,12,54.53711,666.9922,0.0,,683,,,0,43,,
https://l0-secure.videohub.tv/ssframework/log/log.png?EC=4&a=logitemaction&nolog=1&ssPD=tremorvideodsp.com&Uzip=__postalCode__&CI=3502466&ADI=7871906&PRI=583bc017-94dd-47b6-95ec-7d5e7b6c4127&Udma=__dma__&ssMLVer=rml_app_1.9.0&Uctry=__country__&AVI=425726&ssASVer=2.0&PBI=3500226&RI=1&Ust=__state__&NI=1344&admode=preroll&ssDsC=mobiletablet&ssRnd=1508893235&EiN=1,COMPLETE,200,https,GET,image/gif,/127.0.0.1,51114,l0-secure.videohub.tv/67.226.210.12,443,,03 Jun 2019 14:32:31,03 Jun 2019 14:32:31,03 Jun 2019 14:32:32,03 Jun 2019 14:32:32,1040,,,,25,0,1015,0.6875,26.953125,0.0,,690,,,0,43,,
https://tremorvideodsp.com,COMPLETE,200,https,CONNECT,,/127.0.0.1,51198,tremorvideodsp.com/67.226.210.14,443,,03 Jun 2019 14:32:31,,,03 Jun 2019 14:32:31,204,65,10,58,,,,137.9961,,,1404,0,540,25979,0,904,,
https://dt.scanscout.com,COMPLETE,200,https,CONNECT,,/127.0.0.1,51200,dt.scanscout.com/67.226.210.15,443,,03 Jun 2019 14:32:31,,,03 Jun 2019 14:32:36,5080,2,14,37,,,,6.772461,,,3096,0,536,31298,0,302,,
https://www.tremorvideodsp.com,COMPLETE,200,https,CONNECT,,/127.0.0.1,51202,www.tremorvideodsp.com/52.45.248.161,443,,03 Jun 2019 14:32:31,,,03 Jun 2019 14:33:02,31209,149,7,36,,,,3.7763672,,,3024,0,1066,12406,0,104220,,
https://www.tremorvideodsp.com,COMPLETE,200,https,CONNECT,,/127.0.0.1,51205,www.tremorvideodsp.com/52.45.248.161,443,,03 Jun 2019 14:32:31,,,03 Jun 2019 14:33:02,30997,3,8,37,,,,0.45117188,,,1584,0,1690,10148,0,904,,
https://www.tremorvideodsp.com,COMPLETE,200,https,CONNECT,,/127.0.0.1,51204,www.tremorvideodsp.com/52.45.248.161,443,,03 Jun 2019 14:32:31,,,03 Jun 2019 14:33:02,30997,6,9,55,,,,0.4248047,,,1584,0,1177,10148,0,599,,
https://www.tremorvideodsp.com,COMPLETE,200,https,CONNECT,,/127.0.0.1,51206,www.tremorvideodsp.com/52.45.248.161,443,,03 Jun 2019 14:32:31,,,03 Jun 2019 14:33:02,30997,8,9,44,,,,0.42578125,,,1584,0,1205,10148,0,598,,
https://www.tremorvideodsp.com,COMPLETE,200,https,CONNECT,,/127.0.0.1,51210,www.tremorvideodsp.com/52.45.248.161,443,,03 Jun 2019 14:32:32,,,03 Jun 2019 14:33:02,30170,3,49,70,,,,0.4765625,,,1424,0,280,12301,0,744,,
https://s.tremorvideodsp.com/q/qa.gif?param1=mobile_screen_click,COMPLETE,200,https,GET,image/gif,/127.0.0.1,51103,s.tremorvideodsp.com/23.48.36.205,443,,03 Jun 2019 14:32:45,03 Jun 2019 14:32:45,03 Jun 2019 14:32:45,03 Jun 2019 14:32:45,33,,,,0,0,33,12.87207,0.0,0.0,,392,,,0,43,,
https://s.tremorvideodsp.com/q/qa.gif?param1=creative_click,COMPLETE,200,https,GET,image/gif,/127.0.0.1,51118,s.tremorvideodsp.com/23.48.36.205,443,,03 Jun 2019 14:32:45,03 Jun 2019 14:32:45,03 Jun 2019 14:32:45,03 Jun 2019 14:32:45,39,,,,0,0,39,10.766602,0.0,0.0,,387,,,0,43,,
https://l0-secure.videohub.tv/ssframework/log/log.png?EC=2&a=logitemaction&nolog=1&ssPD=tremorvideodsp.com&Uzip=__postalCode__&CI=3502466&ADI=7871906&PRI=583bc017-94dd-47b6-95ec-7d5e7b6c4127&Udma=__dma__&ssMLVer=rml_app_1.9.0&Uctry=__country__&AVI=425726&ssASVer=2.0&PBI=3500226&RI=1&Ust=__state__&NI=1344&admode=preroll&ssDsC=mobiletablet&ssRnd=497942445,COMPLETE,200,https,GET,image/gif,/127.0.0.1,51114,l0-secure.videohub.tv/67.226.210.12,443,,03 Jun 2019 14:32:45,03 Jun 2019 14:32:45,03 Jun 2019 14:32:45,03 Jun 2019 14:32:45,103,,11,33,47,0,12,262.10742,36.007812,0.0,1050,683,,25869,0,43,,
https://l0-secure.videohub.tv/ssframework/log/log.png?EC=7&a=logitemaction&nolog=1&ssPD=tremorvideodsp.com&Uzip=__postalCode__&CI=3502466&ADI=7871906&PRI=583bc017-94dd-47b6-95ec-7d5e7b6c4127&Udma=__dma__&ssMLVer=rml_app_1.9.0&Uctry=__country__&AVI=425726&ssASVer=2.0&PBI=3500226&RI=1&Ust=__state__&NI=1344&admode=preroll&ssDsC=mobiletablet&ssRnd=1325739601&Eipct=25&EiN=1,COMPLETE,200,https,GET,image/gif,/127.0.0.1,51114,l0-secure.videohub.tv/67.226.210.12,443,,03 Jun 2019 14:32:46,03 Jun 2019 14:32:46,03 Jun 2019 14:32:46,03 Jun 2019 14:32:46,37,,,,1,0,36,19.583984,682.6172,0.0,,699,,,0,43,,
https://s.tremorvideodsp.com/q/qa.gif?param1=mobile_screen_first_quartile,COMPLETE,200,https,GET,image/gif,/127.0.0.1,51103,s.tremorvideodsp.com/23.48.36.205,443,,03 Jun 2019 14:32:46,03 Jun 2019 14:32:46,03 Jun 2019 14:32:46,03 Jun 2019 14:32:46,40,,,,0,1,39,10.839844,0.0,41.992188,,401,,,0,43,,
https://s.tremorvideodsp.com/q/qa.gif?param1=creative_first_quartile,COMPLETE,200,https,GET,image/gif,/127.0.0.1,51118,s.tremorvideodsp.com/23.48.36.205,443,,03 Jun 2019 14:32:46,03 Jun 2019 14:32:46,03 Jun 2019 14:32:46,03 Jun 2019 14:32:46,41,,,,0,0,41,10.456055,0.0,0.0,,396,,,0,43,,
https://l0-secure.videohub.tv/ssframework/log/log.png?EC=7&a=logitemaction&nolog=1&ssPD=tremorvideodsp.com&Uzip=__postalCode__&CI=3502466&ADI=7871906&PRI=583bc017-94dd-47b6-95ec-7d5e7b6c4127&Udma=__dma__&ssMLVer=rml_app_1.9.0&Uctry=__country__&AVI=425726&ssASVer=2.0&PBI=3500226&RI=1&Ust=__state__&NI=1344&admode=preroll&ssDsC=mobiletablet&ssRnd=1827249309&Eipct=50&EiN=1,COMPLETE,200,https,GET,image/gif,/127.0.0.1,51114,l0-secure.videohub.tv/67.226.210.12,443,,03 Jun 2019 14:32:49,03 Jun 2019 14:32:49,03 Jun 2019 14:32:49,03 Jun 2019 14:32:49,12,,,,0,0,12,60.38379,0.0,0.0,,699,,,0,43,,
https://s.tremorvideodsp.com/q/qa.gif?param1=mobile_screen_second_quartile,COMPLETE,200,https,GET,image/gif,/127.0.0.1,51103,s.tremorvideodsp.com/23.48.36.205,443,,03 Jun 2019 14:32:49,03 Jun 2019 14:32:49,03 Jun 2019 14:32:49,03 Jun 2019 14:32:49,18,,,,0,0,18,24.142578,0.0,0.0,,402,,,0,43,,
https://s.tremorvideodsp.com/q/qa.gif?param1=creative_second_quartile,COMPLETE,200,https,GET,image/gif,/127.0.0.1,51118,s.tremorvideodsp.com/23.48.36.205,443,,03 Jun 2019 14:32:49,03 Jun 2019 14:32:49,03 Jun 2019 14:32:49,03 Jun 2019 14:32:49,19,,,,0,0,19,22.614258,0.0,0.0,,397,,,0,43,,
https://l0-secure.videohub.tv/ssframework/log/log.png?EC=7&a=logitemaction&nolog=1&ssPD=tremorvideodsp.com&Uzip=__postalCode__&CI=3502466&ADI=7871906&PRI=583bc017-94dd-47b6-95ec-7d5e7b6c4127&Udma=__dma__&ssMLVer=rml_app_1.9.0&Uctry=__country__&AVI=425726&ssASVer=2.0&PBI=3500226&RI=1&Ust=__state__&NI=1344&admode=preroll&ssDsC=mobiletablet&ssRnd=1961661141&Eipct=75&EiN=1,COMPLETE,200,https,GET,image/gif,/127.0.0.1,51114,l0-secure.videohub.tv/67.226.210.12,443,,03 Jun 2019 14:32:53,03 Jun 2019 14:32:53,03 Jun 2019 14:32:53,03 Jun 2019 14:32:53,12,,,,0,0,12,60.38379,0.0,0.0,,699,,,0,43,,
https://s.tremorvideodsp.com/q/qa.gif?param1=mobile_screen_third_quartile,COMPLETE,200,https,GET,image/gif,/127.0.0.1,51103,s.tremorvideodsp.com/23.48.36.205,443,,03 Jun 2019 14:32:53,03 Jun 2019 14:32:53,03 Jun 2019 14:32:53,03 Jun 2019 14:32:53,21,,,,0,1,20,20.646484,0.0,41.992188,,401,,,0,43,,
https://s.tremorvideodsp.com/q/qa.gif?param1=creative_third_quartile,COMPLETE,200,https,GET,image/gif,/127.0.0.1,51118,s.tremorvideodsp.com/23.48.36.205,443,,03 Jun 2019 14:32:53,03 Jun 2019 14:32:53,03 Jun 2019 14:32:53,03 Jun 2019 14:32:53,33,,,,0,0,33,12.991211,0.0,0.0,,396,,,0,43,,
https://l0-secure.videohub.tv/ssframework/log/log.png?EC=38&a=logitemaction&nolog=1&ssPD=tremorvideodsp.com&Uzip=__postalCode__&CI=3502466&ADI=7871906&PRI=583bc017-94dd-47b6-95ec-7d5e7b6c4127&Udma=__dma__&ssMLVer=rml_app_1.9.0&Uctry=__country__&AVI=425726&ssASVer=2.0&PBI=3500226&RI=1&Ust=__state__&NI=1344&admode=preroll&ssDsC=mobiletablet&ssRnd=486785341&EvaF=1&pctVw=100,COMPLETE,200,https,GET,image/gif,/127.0.0.1,51114,l0-secure.videohub.tv/67.226.210.12,443,,03 Jun 2019 14:32:56,03 Jun 2019 14:32:56,03 Jun 2019 14:32:56,03 Jun 2019 14:32:56,12,,,,0,0,12,60.546875,0.0,0.0,,701,,,0,43,,
https://s.tremorvideodsp.com/q/qa.gif?param1=viewable_completion,COMPLETE,200,https,GET,image/gif,/127.0.0.1,51103,s.tremorvideodsp.com/23.48.36.205,443,,03 Jun 2019 14:32:56,03 Jun 2019 14:32:56,03 Jun 2019 14:32:56,03 Jun 2019 14:32:56,18,,,,0,0,18,23.59961,0.0,0.0,,392,,,0,43,,
https://s.tremorvideodsp.com/q/qa.gif?param1=mobile_screen_completion,COMPLETE,200,https,GET,image/gif,/127.0.0.1,51103,s.tremorvideodsp.com/23.48.36.205,443,,03 Jun 2019 14:32:57,03 Jun 2019 14:32:57,03 Jun 2019 14:32:57,03 Jun 2019 14:32:57,20,,,,1,1,18,21.484375,387.6953,41.992188,,397,,,0,43,,
https://l0-secure.videohub.tv/ssframework/log/log.png?EC=7&a=logitemaction&nolog=1&ssPD=tremorvideodsp.com&Uzip=__postalCode__&CI=3502466&ADI=7871906&PRI=583bc017-94dd-47b6-95ec-7d5e7b6c4127&Udma=__dma__&ssMLVer=rml_app_1.9.0&Uctry=__country__&AVI=425726&ssASVer=2.0&PBI=3500226&RI=1&Ust=__state__&NI=1344&admode=preroll&ssDsC=mobiletablet&ssRnd=2049365527&Eipct=100&RcpF=1&EiN=1,COMPLETE,200,https,GET,image/gif,/127.0.0.1,51114,l0-secure.videohub.tv/67.226.210.12,443,,03 Jun 2019 14:32:57,03 Jun 2019 14:32:57,03 Jun 2019 14:32:57,03 Jun 2019 14:32:57,13,,,,2,0,11,56.339844,345.21484,0.0,,707,,,0,43,,
https://s.tremorvideodsp.com/q/qa.gif?param1=creative_completion,COMPLETE,200,https,GET,image/gif,/127.0.0.1,51118,s.tremorvideodsp.com/23.48.36.205,443,,03 Jun 2019 14:32:57,03 Jun 2019 14:32:57,03 Jun 2019 14:32:57,03 Jun 2019 14:32:57,18,,,,0,1,17,23.59961,0.0,41.992188,,392,,,0,43,,
https://s.tremorvideodsp.com/q/qa.gif?param1=completion,COMPLETE,200,https,GET,image/gif,/127.0.0.1,51120,s.tremorvideodsp.com/23.48.36.205,443,,03 Jun 2019 14:32:57,03 Jun 2019 14:32:57,03 Jun 2019 14:32:57,03 Jun 2019 14:32:57,36,,,,1,1,34,11.555664,374.02344,41.992188,,383,,,0,43,,
https://s.tremorvideodsp.com/q/video1_small.mp4,COMPLETE,206,https,GET,video/mp4,/127.0.0.1,51213,s.tremorvideodsp.com/23.48.36.205,443,,03 Jun 2019 14:32:57,03 Jun 2019 14:32:57,03 Jun 2019 14:32:57,03 Jun 2019 14:32:57,169,79,12,30,0,1,47,95.15332,0.0,14698.242,1058,358,,15049,0,2,,
https://s.tremorvideodsp.com/q/video1_small.mp4,COMPLETE,206,https,GET,video/mp4,/127.0.0.1,51213,s.tremorvideodsp.com/23.48.36.205,443,,03 Jun 2019 14:32:57,03 Jun 2019 14:32:57,03 Jun 2019 14:32:57,03 Jun 2019 14:32:57,45,,,,0,14,31,1430.0781,0.0,4571.4277,,362,,,0,65536,,
https://s.tremorvideodsp.com/q/video1_small.mp4,COMPLETE,206,https,GET,video/mp4,/127.0.0.1,51213,s.tremorvideodsp.com/23.48.36.205,443,,03 Jun 2019 14:32:57,03 Jun 2019 14:32:57,03 Jun 2019 14:32:57,03 Jun 2019 14:32:57,72,,,,0,43,29,893.8799,0.0,1488.3721,,368,,,0,65536,,
https://s.tremorvideodsp.com/q/video1_small.mp4,COMPLETE,206,https,GET,video/mp4,/127.0.0.1,51215,s.tremorvideodsp.com/23.48.36.205,443,,03 Jun 2019 14:32:57,03 Jun 2019 14:32:57,03 Jun 2019 14:32:57,03 Jun 2019 14:32:58,745,2,12,27,0,674,30,12986.199,0.0,14352.22,986,368,,14959,0,9890599,,
https://s.tremorvideodsp.com/q/video1_small.mp4,COMPLETE,206,https,GET,video/mp4,/127.0.0.1,51213,s.tremorvideodsp.com/23.48.36.205,443,,03 Jun 2019 14:32:57,03 Jun 2019 14:32:57,03 Jun 2019 14:32:57,03 Jun 2019 14:32:57,104,,,,0,4,100,618.83984,0.0,16000.0,,368,,,0,65536,,
https://jwpltx.com,COMPLETE,200,https,CONNECT,,/127.0.0.1,51217,jwpltx.com/34.236.4.254,443,,03 Jun 2019 14:32:58,,,03 Jun 2019 14:33:34,35704,8,10,40,,,,0.9472656,,,1449,0,1205,31731,0,264,,
https://www.tremorvideodsp.com,EXCEPTION,200,https,CONNECT,,/127.0.0.1,51219,www.tremorvideodsp.com/52.45.248.161,443,java.net.SocketException: Broken pipe (Write failed),03 Jun 2019 14:33:02,,,03 Jun 2019 14:33:02,301,2,8,51,,,,306.87988,,,1584,0,268,10148,0,82588,,
https://entitlements.jwplayer.com,COMPLETE,200,https,CONNECT,,/127.0.0.1,51221,entitlements.jwplayer.com/72.21.81.189,443,,03 Jun 2019 14:33:03,,,03 Jun 2019 14:33:34,31013,3,6,75,,,,0.9707031,,,1524,0,317,28535,0,464,,
https://s.tremorvideodsp.com/q/video1_small.mp4,COMPLETE,206,https,GET,video/mp4,/127.0.0.1,51223,s.tremorvideodsp.com/23.48.36.205,443,,03 Jun 2019 14:33:03,03 Jun 2019 14:33:03,03 Jun 2019 14:33:03,03 Jun 2019 14:33:03,80,3,12,32,0,0,33,201.0127,0.0,0.0,1058,358,,15049,0,2,,
https://s.tremorvideodsp.com/q/video1_small.mp4,COMPLETE,206,https,GET,video/mp4,/127.0.0.1,51223,s.tremorvideodsp.com/23.48.36.205,443,,03 Jun 2019 14:33:03,03 Jun 2019 14:33:03,03 Jun 2019 14:33:03,03 Jun 2019 14:33:03,40,,,,0,15,25,1608.8379,0.0,4266.666,,362,,,0,65536,,
https://s.tremorvideodsp.com/q/video1_small.mp4,COMPLETE,206,https,GET,video/mp4,/127.0.0.1,51223,s.tremorvideodsp.com/23.48.36.205,443,,03 Jun 2019 14:33:03,03 Jun 2019 14:33:03,03 Jun 2019 14:33:03,03 Jun 2019 14:33:03,42,,,,0,6,36,1532.3652,0.0,10666.666,,368,,,0,65536,,
https://s.tremorvideodsp.com/q/video1_small.mp4,COMPLETE,206,https,GET,video/mp4,/127.0.0.1,51225,s.tremorvideodsp.com/23.48.36.205,443,com.xk72.proxy.ProxyException: Client closed connection before receiving entire response,03 Jun 2019 14:33:03,03 Jun 2019 14:33:03,03 Jun 2019 14:33:03,03 Jun 2019 14:33:03,240,3,11,30,0,168,28,3701.6191,0.0,5280.1562,986,368,,14959,0,893397,,
https://s.tremorvideodsp.com/q/video1_small.mp4,COMPLETE,206,https,GET,video/mp4,/127.0.0.1,51223,s.tremorvideodsp.com/23.48.36.205,443,,03 Jun 2019 14:33:03,03 Jun 2019 14:33:03,03 Jun 2019 14:33:03,03 Jun 2019 14:33:03,31,,,,0,5,26,2076.1084,0.0,12800.0,,368,,,0,65536,,
