URL,Status,Response Code,Protocol,Method,Content-Type,Client Address,Client Port,Remote Address,Remote Port,Exception,Request Start Time,Request End Time,Response Start Time,Response End Time,Duration (ms),DNS Duration (ms),Connect Duration (ms),SSL Duration (ms),Request Duration (ms),Response Duration (ms),Latency (ms),Speed (KB/s),Request Speed (KB/s),Response Speed (KB/s),Request Handshake Size (bytes),Request Header Size (bytes),Request Body Size (bytes),Response Handshake Size (bytes),Response Header Size (bytes),Response Body Size (bytes),Request Compression,Response Compression
https://ts01-b.cloudsink.net,RECEIVING_REQUEST_BODY,200,https,CONNECT,,/127.0.0.1,58432,ts01-b.cloudsink.net/54.183.142.105,443,,04 Jun 2019 13:22:43,,,,2561545,5,73,173,,,,0.0859375,,,1246,0,170459,17474,0,38045,,
https://14.client-channel.google.com,RECEIVING_RESPONSE_BODY,200,https,CONNECT,,/127.0.0.1,58485,14.client-channel.google.com/74.125.141.189,443,,04 Jun 2019 13:23:54,,,,2490930,53,21,66,,,,0.016601562,,,1179,0,10595,15994,0,14767,,
https://ssl.gstatic.com,RECEIVING_REQUEST_BODY,200,https,CONNECT,,/127.0.0.1,59696,ssl.gstatic.com/172.217.12.195,443,,04 Jun 2019 13:55:06,,,,618344,1,2,3,,,,0.0068359375,,,1608,0,1136,372,0,1506,,
https://play.google.com,COMPLETE,200,https,CONNECT,,/127.0.0.1,59733,play.google.com/172.217.10.46,443,,04 Jun 2019 13:57:41,,,04 Jun 2019 14:02:08,266294,1,2,3,,,,0.02734375,,,2207,0,3410,372,0,,,
https://chat-pa.clients6.google.com,COMPLETE,200,https,CONNECT,,/127.0.0.1,59735,chat-pa.clients6.google.com/172.217.9.234,443,,04 Jun 2019 13:59:21,,,04 Jun 2019 14:03:22,240645,1,2,23,,,,0.099609375,,,2892,0,1389,19621,0,,,
https://chat-pa.clients6.google.com,COMPLETE,200,https,CONNECT,,/127.0.0.1,59737,chat-pa.clients6.google.com/172.217.9.234,443,,04 Jun 2019 13:59:21,,,04 Jun 2019 14:02:08,166254,1,3,24,,,,0.15820312,,,2892,0,2793,19625,0,,,
https://www.google-analytics.com,COMPLETE,200,https,CONNECT,,/127.0.0.1,59857,www.google-analytics.com/172.217.6.206,443,,04 Jun 2019 13:59:58,,,04 Jun 2019 14:03:58,240086,2,2,6,,,,0.015625,,,2207,0,755,372,0,524,,
https://stats.g.doubleclick.net,COMPLETE,200,https,CONNECT,,/127.0.0.1,59859,stats.g.doubleclick.net/173.194.206.157,443,,04 Jun 2019 13:59:58,,,04 Jun 2019 14:03:58,239930,22,17,48,,,,0.07421875,,,2892,0,616,14305,0,,,
https://www.google.com,COMPLETE,200,https,CONNECT,,/127.0.0.1,59861,www.google.com/172.217.11.36,443,,04 Jun 2019 13:59:58,,,04 Jun 2019 14:03:58,239804,2,3,3,,,,0.015625,,,2207,0,818,372,0,,,
https://entitlements.jwplayer.com,COMPLETE,200,https,CONNECT,,/127.0.0.1,59879,entitlements.jwplayer.com/72.21.81.189,443,,04 Jun 2019 14:02:37,,,04 Jun 2019 14:03:08,30335,19,2,48,,,,1.1582031,,,1684,0,317,33541,0,464,,
https://s.tremorvideodsp.com/q/video1_small.mp4,COMPLETE,206,https,GET,video/mp4,/127.0.0.1,59880,s.tremorvideodsp.com/23.48.39.112,443,,04 Jun 2019 14:02:37,04 Jun 2019 14:02:38,04 Jun 2019 14:02:38,04 Jun 2019 14:02:38,154,53,8,24,0,0,69,104.421875,0.0,0.0,1058,358,,15049,0,2,,
https://jwpltx.com,COMPLETE,200,https,CONNECT,,/127.0.0.1,59882,jwpltx.com/52.1.12.241,443,,04 Jun 2019 14:02:37,,,04 Jun 2019 14:03:08,30292,20,8,33,,,,1.0986328,,,1609,0,608,31731,0,132,,
https://s.tremorvideodsp.com/q/video1_small.mp4,COMPLETE,206,https,GET,video/mp4,/127.0.0.1,59880,s.tremorvideodsp.com/23.48.39.112,443,,04 Jun 2019 14:02:38,04 Jun 2019 14:02:38,04 Jun 2019 14:02:38,04 Jun 2019 14:02:38,49,,,,0,12,37,1313.3369,0.0,5333.333,,362,,,0,65536,,
https://s.tremorvideodsp.com/q/video1_small.mp4,COMPLETE,206,https,GET,video/mp4,/127.0.0.1,59880,s.tremorvideodsp.com/23.48.39.112,443,,04 Jun 2019 14:02:38,04 Jun 2019 14:02:38,04 Jun 2019 14:02:38,04 Jun 2019 14:02:38,39,,,,1,14,24,1650.2402,359.375,4571.4277,,368,,,0,65536,,
https://s.tremorvideodsp.com/q/video1_small.mp4,COMPLETE,206,https,GET,video/mp4,/127.0.0.1,59885,s.tremorvideodsp.com/23.48.39.112,443,,04 Jun 2019 14:02:38,04 Jun 2019 14:02:38,04 Jun 2019 14:02:38,04 Jun 2019 14:02:38,511,2,8,22,0,455,24,18932.914,0.0,21260.21,986,368,,14959,0,9890599,,
https://s.tremorvideodsp.com/q/video1_small.mp4,COMPLETE,206,https,GET,video/mp4,/127.0.0.1,59880,s.tremorvideodsp.com/23.48.39.112,443,,04 Jun 2019 14:02:38,04 Jun 2019 14:02:38,04 Jun 2019 14:02:38,04 Jun 2019 14:02:38,30,,,,0,4,26,2145.3125,0.0,16000.0,,368,,,0,65536,,
https://play.google.com,COMPLETE,200,https,CONNECT,,/127.0.0.1,59888,play.google.com/172.217.10.46,443,,04 Jun 2019 14:02:47,,,04 Jun 2019 14:05:23,156295,3,3,5,,,,0.029296875,,,2207,0,1381,372,0,733,,
https://adserver.videohub.tv/preview?RI=CIrRFf_R2urjPbztinGpwQ&screenType=mobiletablet&rml=true&Uctry=__country__&Ust=__state__&Udma=__dma__&Uzip=__postalCode__&Ucty=__city__&Uctnt=__continent__&Ulong=__longitude__&Ulat=__latitude__&Uacd=__areaCode__&position_ACP=__adChoicesPosition__&usedACP=__usedACP__&dspACP=__adChoicesProviders__&sig=11C131766249D2AF1F72989EF14CE148&ssRmlApp=1&isApp=y,COMPLETE,200,https,GET,application/xml; charset=utf-8,/127.0.0.1,59887,adserver.videohub.tv/67.226.210.10,443,,04 Jun 2019 14:02:47,04 Jun 2019 14:02:47,04 Jun 2019 14:02:47,04 Jun 2019 14:02:47,52,5,8,26,0,1,12,729.0596,0.0,36244.14,1046,661,,25605,0,11509,,
https://play.google.com,RECEIVING_REQUEST_BODY,200,https,CONNECT,,/127.0.0.1,59891,play.google.com/172.217.10.46,443,,04 Jun 2019 14:02:47,,,,158086,1,2,3,,,,0.038085938,,,1608,0,3341,372,0,962,,
https://objects-secure.videohub.tv/net/js/rml-app.min.js?adData=https%3A%2F%2Frtr.innovid.com%2Fr1.5a3fb440d9e383.13672718%3Bcb%3D756190628%3Fdipn%3Ddeviceid%26deviceid%3Dunknown%26ivc_deviceid_raw%3Dunknown,COMPLETE,200,https,GET,application/javascript,/127.0.0.1,59893,objects-secure.videohub.tv/104.110.215.249,443,,04 Jun 2019 14:02:47,04 Jun 2019 14:02:47,04 Jun 2019 14:02:47,04 Jun 2019 14:02:47,86,39,8,20,0,11,8,922.18066,0.0,7072.4424,1070,477,,16754,0,62910,,72.6%
https://rtr.innovid.com,COMPLETE,200,https,CONNECT,,/127.0.0.1,59895,rtr.innovid.com/52.22.184.183,443,,04 Jun 2019 14:02:47,,,04 Jun 2019 14:03:17,30679,43,10,37,,,,0.61621094,,,1474,0,375,16035,0,1485,,
https://objects-secure.tremormedia.com/net/js/io-polyfill-0.5.1.js,COMPLETE,200,https,GET,application/javascript,/127.0.0.1,59897,objects-secure.tremormedia.com/104.110.194.47,443,,04 Jun 2019 14:02:47,04 Jun 2019 14:02:47,04 Jun 2019 14:02:47,04 Jun 2019 14:02:47,79,39,8,22,1,1,8,303.72266,1388.6719,22605.469,1086,336,,16789,0,6359,,71.5%
https://s-static.innovid.com,COMPLETE,200,https,CONNECT,,/127.0.0.1,59899,s-static.innovid.com/184.28.89.78,443,,04 Jun 2019 14:02:47,,,04 Jun 2019 14:03:20,32785,63,24,67,,,,273.792,,,1499,0,8141,25242,0,9156820,,
https://spixel.adsafeprotected.com,COMPLETE,200,https,CONNECT,,/127.0.0.1,59901,spixel.adsafeprotected.com/199.166.0.26,443,,04 Jun 2019 14:02:47,,,04 Jun 2019 14:02:58,10726,20,2,96,,,,3.1611328,,,1397,0,1132,31537,0,662,,
https://s.innovid.com,COMPLETE,200,https,CONNECT,,/127.0.0.1,59902,s.innovid.com/54.164.100.66,443,,04 Jun 2019 14:02:47,,,04 Jun 2019 14:04:34,106102,197,8,43,,,,0.3154297,,,1464,0,7044,19365,0,6495,,
https://l0-secure.videohub.tv/ssframework/log/log.png?EC=7&a=logitemaction&nolog=1&ssPD=tremorvideodsp.com&Uzip=__postalCode__&ADI=7884626&PRI=b1a60823-3399-4167-9701-374bdb094d56&Udma=__dma__&ssMLVer=rml_app_1.9.0&Uctry=__country__&AVI=425726&ssASVer=2.0&RI=1&Ust=__state__&NI=1344&admode=preroll&ssDsC=mobiletablet&ssRnd=123347688&Eipct=0&EvaF=1&EiN=1,COMPLETE,200,https,GET,image/gif,/127.0.0.1,59904,l0-secure.videohub.tv/67.226.210.13,443,,04 Jun 2019 14:02:47,04 Jun 2019 14:02:48,04 Jun 2019 14:02:48,04 Jun 2019 14:02:48,54,1,10,31,2,0,10,499.90918,845.21484,0.0,1050,681,,25869,0,43,,
https://prd.jwpltx.com,COMPLETE,200,https,CONNECT,,/127.0.0.1,59906,prd.jwpltx.com/34.192.3.61,443,,04 Jun 2019 14:02:48,,,04 Jun 2019 14:03:18,30718,42,14,57,,,,1.0957031,,,1469,0,1145,31731,0,132,,
https://s-static.innovid.com,COMPLETE,200,https,CONNECT,,/127.0.0.1,59907,s-static.innovid.com/184.28.89.78,443,,04 Jun 2019 14:02:48,,,04 Jun 2019 14:03:19,31155,2,34,32,,,,0.23046875,,,975,0,754,515,0,5131,,
https://s-static.innovid.com,COMPLETE,200,https,CONNECT,,/127.0.0.1,59909,s-static.innovid.com/184.28.89.78,443,,04 Jun 2019 14:02:48,,,04 Jun 2019 14:03:19,31130,1,27,30,,,,0.57128906,,,975,0,837,515,0,15910,,
https://s-static.innovid.com,COMPLETE,200,https,CONNECT,,/127.0.0.1,59910,s-static.innovid.com/184.28.89.78,443,,04 Jun 2019 14:02:48,,,04 Jun 2019 14:03:19,31121,2,23,24,,,,0.17773438,,,975,0,843,515,0,3345,,
https://s-static.innovid.com,COMPLETE,200,https,CONNECT,,/127.0.0.1,59911,s-static.innovid.com/184.28.89.78,443,,04 Jun 2019 14:02:48,,,04 Jun 2019 14:03:19,31118,3,24,25,,,,0.095703125,,,975,0,421,515,0,1143,,
https://s-static.innovid.com,COMPLETE,200,https,CONNECT,,/127.0.0.1,59913,s-static.innovid.com/184.28.89.78,443,,04 Jun 2019 14:02:48,,,04 Jun 2019 14:03:19,31119,5,24,26,,,,0.09667969,,,975,0,423,515,0,1173,,
https://ag.innovid.com,COMPLETE,200,https,CONNECT,,/127.0.0.1,59919,ag.innovid.com/54.208.128.108,443,,04 Jun 2019 14:02:48,,,04 Jun 2019 14:04:34,105807,57,10,45,,,,0.2998047,,,1469,0,8778,19365,0,2970,,
https://dt-secure.videohub.tv/v1/usync/ironsource?userId=,COMPLETE,303,https,GET,image/gif,/127.0.0.1,59921,dt-secure.videohub.tv/67.226.210.15,443,,04 Jun 2019 14:02:48,04 Jun 2019 14:02:48,04 Jun 2019 14:02:48,04 Jun 2019 14:02:48,63,2,11,39,0,0,11,423.90527,0.0,0.0,1050,385,,25869,0,43,,
https://sync.doubleverify.com/query.gif?ctx=42674&cmp=2311460&DVP_CMPID=&DVP_PUBID=&dvp_red=http%3A%2F%2Fads.videohub.tv%2Fssframework%2Fdt%2Fbotid%3Fa%3Dset%26DUID%3D1,COMPLETE,200,https,GET,image/gif,/127.0.0.1,59923,sync.doubleverify.com/204.154.111.224,443,,04 Jun 2019 14:02:48,04 Jun 2019 14:02:48,04 Jun 2019 14:02:48,04 Jun 2019 14:02:48,13,3,2,3,0,0,5,182.54199,0.0,0.0,729,496,,345,0,860,,-6.6%
https://tags.bluekai.com/site/2954,COMPLETE,200,https,GET,image/gif,/127.0.0.1,59925,tags.bluekai.com/104.90.55.247,443,,04 Jun 2019 14:02:48,04 Jun 2019 14:02:48,04 Jun 2019 14:02:49,04 Jun 2019 14:02:49,182,60,12,28,0,2,80,81.92383,0.0,6775.3906,1030,362,,13814,0,62,,
https://l0-secure.videohub.tv/ssframework/log/log.png?EC=3&a=logitemaction&nolog=1&ssPD=tremorvideodsp.com&Uzip=__postalCode__&ADI=7884626&PRI=b1a60823-3399-4167-9701-374bdb094d56&Udma=__dma__&ssMLVer=rml_app_1.9.0&Uctry=__country__&AVI=425726&ssASVer=2.0&RI=1&Ust=__state__&NI=1344&admode=preroll&ssDsC=mobiletablet&ssRnd=1079604729&SfF=true&AmN=1&adFocus=true&RvN=1,COMPLETE,200,https,GET,image/gif,/127.0.0.1,59904,l0-secure.videohub.tv/67.226.210.13,443,,04 Jun 2019 14:02:48,04 Jun 2019 14:02:48,04 Jun 2019 14:02:48,04 Jun 2019 14:02:48,13,,,,0,0,13,55.438477,0.0,0.0,,695,,,0,43,,
https://tps30.doubleverify.com/visit.jpg?ctx=42674&cmp=2256325&sid=1111&plc=22563261&num=&adid=&advid=498259&adsrv=41&region=30&btreg=&btadsrv=&crt=&crtname=&chnl=&unit=&pid=&uid=&dvtagver=6.1.img&DVP_CMPID=&DVP_PUBID=&turl=tremorvideodsp.com,COMPLETE,200,https,GET,image/jpeg,/127.0.0.1,59924,tps30.doubleverify.com/204.154.111.112,443,,04 Jun 2019 14:02:48,04 Jun 2019 14:02:48,04 Jun 2019 14:02:48,04 Jun 2019 14:02:48,108,87,2,12,0,0,7,235.92969,0.0,0.0,1182,570,,24198,0,142,,53.4%
https://tp.videohub.tv/v1/topprop.png?domain=&ui=&pri=b1a60823-3399-4167-9701-374bdb094d56&ssRnd=950925932,COMPLETE,200,https,GET,image/png,/127.0.0.1,59927,tp.videohub.tv/67.226.210.14,443,,04 Jun 2019 14:02:48,04 Jun 2019 14:02:48,04 Jun 2019 14:02:48,04 Jun 2019 14:02:48,77,19,10,33,0,0,15,347.09766,0.0,0.0,1022,434,,25869,0,43,,
https://s.tremorvideodsp.com/q/qa.gif?param1=screen_impression,COMPLETE,200,https,GET,image/gif,/127.0.0.1,59928,s.tremorvideodsp.com/23.48.39.112,443,,04 Jun 2019 14:02:48,04 Jun 2019 14:02:48,04 Jun 2019 14:02:48,04 Jun 2019 14:02:48,107,3,8,31,1,0,64,150.84668,1402.3438,0.0,1046,390,,15049,0,43,,
https://s.innovid.com,COMPLETE,200,https,CONNECT,,/127.0.0.1,59931,s.innovid.com/54.164.100.66,443,,04 Jun 2019 14:02:48,,,04 Jun 2019 14:03:37,48958,4,10,14,,,,0.091796875,,,947,0,1724,339,0,1602,,
https://s.innovid.com,COMPLETE,200,https,CONNECT,,/127.0.0.1,59932,s.innovid.com/54.164.100.66,443,,04 Jun 2019 14:02:48,,,04 Jun 2019 14:03:19,30461,10,9,16,,,,0.099609375,,,947,0,861,515,0,800,,
https://ad.doubleclick.net,COMPLETE,200,https,CONNECT,,/127.0.0.1,59934,ad.doubleclick.net/172.217.3.102,443,,04 Jun 2019 14:02:48,,,04 Jun 2019 14:03:19,30454,5,2,177,,,,0.5996094,,,1357,0,474,16179,0,698,,
https://secure.insightexpressai.com,COMPLETE,200,https,CONNECT,,/127.0.0.1,59933,secure.insightexpressai.com/184.28.89.87,443,,04 Jun 2019 14:02:48,,,04 Jun 2019 14:03:20,31715,87,26,214,,,,0.8720703,,,1534,0,532,25515,0,746,,
https://dts.innovid.com,COMPLETE,200,https,CONNECT,,/127.0.0.1,59935,dts.innovid.com/52.45.165.36,443,,04 Jun 2019 14:02:48,,,04 Jun 2019 14:03:20,31673,135,9,187,,,,0.66503906,,,1474,0,376,19365,0,360,,
https://ag.innovid.com,COMPLETE,200,https,CONNECT,,/127.0.0.1,59942,ag.innovid.com/54.208.128.108,443,,04 Jun 2019 14:02:48,,,04 Jun 2019 14:03:19,30317,3,8,22,,,,0.08300781,,,951,0,863,515,0,270,,
https://sync.doubleverify.com/query.gif?ctx=42674&cmp=2256325&DVP_CMPID=&DVP_PUBID=&dvp_red=http%3A%2F%2Fapp.scanscout.com%2Fssframework%2Fdt%2Fbotid%3Fa%3Dset%26DUID%3D1,COMPLETE,200,https,GET,image/gif,/127.0.0.1,59943,sync.doubleverify.com/204.154.111.224,443,,04 Jun 2019 14:02:48,04 Jun 2019 14:02:49,04 Jun 2019 14:02:49,04 Jun 2019 14:02:49,11,1,2,3,1,0,4,211.91406,1154.2969,0.0,684,498,,345,0,860,,-6.6%
https://dt-secure.videohub.tv/v1/usync/bs?userId=,COMPLETE,303,https,GET,image/gif,/127.0.0.1,59946,dt-secure.videohub.tv/67.226.210.15,443,,04 Jun 2019 14:02:48,04 Jun 2019 14:02:49,04 Jun 2019 14:02:49,04 Jun 2019 14:02:49,49,1,8,30,0,0,10,543.666,0.0,0.0,990,377,,25869,0,43,,
https://dt-secure.videohub.tv/v1/usync/lkqd_direct?userId=,COMPLETE,303,https,GET,image/gif,/127.0.0.1,59947,dt-secure.videohub.tv/67.226.210.15,443,,04 Jun 2019 14:02:48,04 Jun 2019 14:02:49,04 Jun 2019 14:02:49,04 Jun 2019 14:02:49,47,1,8,28,1,0,9,566.9873,1343.75,0.0,990,386,,25869,0,43,,
https://dt-secure.videohub.tv/v1/usync/springserve?userId=,COMPLETE,303,https,GET,image/gif,/127.0.0.1,59950,dt-secure.videohub.tv/67.226.210.15,443,,04 Jun 2019 14:02:48,04 Jun 2019 14:02:49,04 Jun 2019 14:02:49,04 Jun 2019 14:02:49,49,2,9,28,0,0,10,543.8447,0.0,0.0,990,386,,25869,0,43,,
https://dt-secure.videohub.tv/v1/usync/pubmatic?userId=,COMPLETE,303,https,GET,image/gif,/127.0.0.1,59948,dt-secure.videohub.tv/67.226.210.15,443,,04 Jun 2019 14:02:48,04 Jun 2019 14:02:49,04 Jun 2019 14:02:49,04 Jun 2019 14:02:49,65,2,10,33,0,1,19,409.93066,0.0,25304.688,990,383,,25869,0,43,,
https://dt-secure.videohub.tv/v1/usync/rubicon?userId=,COMPLETE,303,https,GET,image/gif,/127.0.0.1,59949,dt-secure.videohub.tv/67.226.210.15,443,,04 Jun 2019 14:02:48,04 Jun 2019 14:02:49,04 Jun 2019 14:02:49,04 Jun 2019 14:02:49,69,3,9,34,0,0,23,386.15234,0.0,0.0,990,382,,25869,0,43,,
https://dt-secure.videohub.tv/v1/usync/spx?userId=,COMPLETE,303,https,GET,image/gif,/127.0.0.1,59921,dt-secure.videohub.tv/67.226.210.15,443,,04 Jun 2019 14:02:48,04 Jun 2019 14:02:48,04 Jun 2019 14:02:48,04 Jun 2019 14:02:48,12,,,,0,1,11,34.260742,0.0,41.992188,,378,,,0,43,,
https://s.tremorvideodsp.com/q/qa.gif?param1=creative_impression,COMPLETE,200,https,GET,image/gif,/127.0.0.1,59957,s.tremorvideodsp.com/23.48.39.112,443,,04 Jun 2019 14:02:48,04 Jun 2019 14:02:49,04 Jun 2019 14:02:49,04 Jun 2019 14:02:49,57,2,8,30,0,0,17,280.6328,0.0,0.0,986,392,,14959,0,43,,
https://cs.rtb-seller.com,COMPLETE,200,https,CONNECT,,/127.0.0.1,59958,cs.rtb-seller.com/52.200.27.187,443,,04 Jun 2019 14:02:49,,,04 Jun 2019 14:03:20,31430,4,11,108,,,,1.0429688,,,1484,0,388,31539,0,170,,
https://dt-secure.videohub.tv/v1/usync/rhythmone?userId=,COMPLETE,303,https,GET,image/gif,/127.0.0.1,59921,dt-secure.videohub.tv/67.226.210.15,443,,04 Jun 2019 14:02:49,04 Jun 2019 14:02:49,04 Jun 2019 14:02:49,04 Jun 2019 14:02:49,11,,,,0,0,11,37.908203,0.0,0.0,,384,,,0,43,,
https://tps30.doubleverify.com/visit.jpg?ctx=42674&cmp=DV069178&sid=1111&plc=2018011501&advid=3819603&adsrv=0&tagtype=&dvtagver=6.1.img&DVP_PP_REP=1&DVP_IQM_ID=16&DVP_DV_TT=2&DVP_DV_CT=2&DVP_TR_SSP=&DVP_TR_PUB=[PUBLISHER_ID]&DVP_TR_SITE=[SUPPLY_ID]&DVP_TR_ADV=425726&DVP_TR_CMP=&DVP_TR_PLC=&turl=tremorvideodsp.com&DVP_PP_BUNDLE_ID=&DVP_TR_COST=,COMPLETE,200,https,GET,image/jpeg,/127.0.0.1,59960,tps30.doubleverify.com/204.154.111.112,443,,04 Jun 2019 14:02:49,04 Jun 2019 14:02:49,04 Jun 2019 14:02:49,04 Jun 2019 14:02:49,17,5,2,3,0,1,6,105.06641,0.0,458.0078,687,673,,327,0,142,,53.4%
https://dt-secure.videohub.tv/v1/usync/tr?userId=,COMPLETE,303,https,GET,image/gif,/127.0.0.1,59921,dt-secure.videohub.tv/67.226.210.15,443,,04 Jun 2019 14:02:49,04 Jun 2019 14:02:49,04 Jun 2019 14:02:49,04 Jun 2019 14:02:49,13,,,,0,3,10,31.549805,0.0,13.99707,,377,,,0,43,,
https://sync.search.spotxchange.com,COMPLETE,200,https,CONNECT,,/127.0.0.1,59963,sync.search.spotxchange.com/192.35.249.120,443,,04 Jun 2019 14:02:49,,,04 Jun 2019 14:03:20,31326,57,11,118,,,,0.625,,,1534,0,886,16383,0,1260,,
https://dt-secure.videohub.tv/ssframework/tvuid?a=set&UI=,COMPLETE,400,https,GET,image/gif,/127.0.0.1,59946,dt-secure.videohub.tv/67.226.210.15,443,,04 Jun 2019 14:02:49,04 Jun 2019 14:02:49,04 Jun 2019 14:02:49,04 Jun 2019 14:02:49,10,,,,1,1,8,41.796875,375.97656,41.992188,,385,,,0,43,,
https://sync.1rx.io,COMPLETE,200,https,CONNECT,,/127.0.0.1,59964,sync.1rx.io/8.41.222.152,443,,04 Jun 2019 14:02:49,,,04 Jun 2019 14:03:20,31278,4,3,71,,,,0.8652344,,,1094,0,796,24907,0,936,,
https://x.bidswitch.net,COMPLETE,200,https,CONNECT,,/127.0.0.1,59965,x.bidswitch.net/104.196.182.53,443,,04 Jun 2019 14:02:49,,,04 Jun 2019 14:02:59,10286,68,20,119,,,,3.7001953,,,1546,0,405,36284,0,743,,
https://sync.springserve.com,COMPLETE,200,https,CONNECT,,/127.0.0.1,59968,sync.springserve.com/52.22.92.230,443,,04 Jun 2019 14:02:49,,,04 Jun 2019 14:03:20,31306,27,9,109,,,,1.0527344,,,1499,0,397,31653,0,212,,
https://partners.tremorhub.com,COMPLETE,200,https,CONNECT,,/127.0.0.1,59969,partners.tremorhub.com/54.164.220.86,443,,04 Jun 2019 14:02:49,,,04 Jun 2019 14:03:20,31305,21,9,107,,,,0.90527344,,,1509,0,387,26630,0,516,,
https://cs.lkqd.net,COMPLETE,200,https,CONNECT,,/127.0.0.1,59967,cs.lkqd.net/146.20.132.132,443,,04 Jun 2019 14:02:49,,,04 Jun 2019 14:03:20,31242,7,10,121,,,,1.3808594,,,1322,0,396,42000,0,482,,
https://simage2.pubmatic.com,COMPLETE,200,https,CONNECT,,/127.0.0.1,59971,simage2.pubmatic.com/162.248.19.147,443,,04 Jun 2019 14:02:49,,,04 Jun 2019 14:03:20,31283,22,2,107,,,,0.6875,,,1499,0,455,19257,0,827,,
https://pixel.rubiconproject.com,COMPLETE,200,https,CONNECT,,/127.0.0.1,59972,pixel.rubiconproject.com/8.43.72.21,443,,04 Jun 2019 14:02:49,,,04 Jun 2019 14:03:03,14252,2,10,116,,,,1.3632812,,,1170,0,890,16516,0,1322,,
https://bsw.digitru.st,COMPLETE,200,https,CONNECT,,/127.0.0.1,59979,bsw.digitru.st/104.196.182.53,443,,04 Jun 2019 14:02:49,,,04 Jun 2019 14:02:59,10122,3,20,54,,,,3.6416016,,,1541,0,405,35144,0,658,,
https://us-east-sync.bidswitch.net,COMPLETE,200,https,CONNECT,,/127.0.0.1,59981,us-east-sync.bidswitch.net/35.190.175.111,443,,04 Jun 2019 14:02:49,,,04 Jun 2019 14:02:59,10236,6,21,61,,,,3.7216797,,,1601,0,430,36284,0,700,,
https://l0-secure.videohub.tv/ssframework/log/log.png?EC=40&a=logitemaction&nolog=1&ssPD=tremorvideodsp.com&Uzip=__postalCode__&ADI=7884626&PRI=b1a60823-3399-4167-9701-374bdb094d56&Udma=__dma__&ssMLVer=rml_app_1.9.0&Uctry=__country__&AVI=425726&ssASVer=2.0&RI=1&Ust=__state__&NI=1344&admode=preroll&ssDsC=mobiletablet&ssRnd=1228882183&EvaF=1&pctVw=0,COMPLETE,200,https,GET,image/gif,/127.0.0.1,59904,l0-secure.videohub.tv/67.226.210.13,443,,04 Jun 2019 14:02:49,04 Jun 2019 14:02:49,04 Jun 2019 14:02:50,04 Jun 2019 14:02:50,11,,,,0,1,10,63.91992,0.0,41.992188,,677,,,0,43,,
https://objects-secure.tremormedia.com/net/js/adchoicesappicon.min.js?iconPosition=top-left&optOut=&iconClick=&playerWidth=770&playerHeight=1026&sources=&country=us,COMPLETE,200,https,GET,application/javascript,/127.0.0.1,59897,objects-secure.tremormedia.com/104.110.194.47,443,,04 Jun 2019 14:02:50,04 Jun 2019 14:02:50,04 Jun 2019 14:02:50,04 Jun 2019 14:02:50,21,,,,1,11,9,811.709,423.82812,1511.0967,,434,,,0,17021,,45.7%
https://s-cdn.innovid.com,COMPLETE,200,https,CONNECT,,/127.0.0.1,59983,s-cdn.innovid.com/184.28.89.78,443,,04 Jun 2019 14:02:53,,,04 Jun 2019 14:03:23,30506,19,26,84,,,,1.2392578,,,1484,0,376,21421,0,15449,,
https://l0-secure.videohub.tv/ssframework/log/log.png?EC=7&a=logitemaction&nolog=1&ssPD=tremorvideodsp.com&Uzip=__postalCode__&ADI=7884626&PRI=b1a60823-3399-4167-9701-374bdb094d56&Udma=__dma__&ssMLVer=rml_app_1.9.0&Uctry=__country__&AVI=425726&ssASVer=2.0&RI=1&Ust=__state__&NI=1344&admode=preroll&ssDsC=mobiletablet&ssRnd=1794337999&Eipct=25&EiN=1,COMPLETE,200,https,GET,image/gif,/127.0.0.1,59904,l0-secure.videohub.tv/67.226.210.13,443,,04 Jun 2019 14:03:07,04 Jun 2019 14:03:07,04 Jun 2019 14:03:07,04 Jun 2019 14:03:07,122,,11,34,45,0,32,221.23047,37.456055,0.0,1050,676,,25869,0,43,,
https://s.tremorvideodsp.com/q/qa.gif?param1=screen_first_quartile,COMPLETE,200,https,GET,image/gif,/127.0.0.1,59928,s.tremorvideodsp.com/23.48.39.112,443,,04 Jun 2019 14:03:07,04 Jun 2019 14:03:07,04 Jun 2019 14:03:07,04 Jun 2019 14:03:07,31,,,,0,0,31,13.765625,0.0,0.0,,394,,,0,43,,
https://s.tremorvideodsp.com/q/qa.gif?param1=creative_first_quartile,COMPLETE,200,https,GET,image/gif,/127.0.0.1,59957,s.tremorvideodsp.com/23.48.39.112,443,,04 Jun 2019 14:03:07,04 Jun 2019 14:03:07,04 Jun 2019 14:03:07,04 Jun 2019 14:03:07,36,,,,0,0,36,11.908203,0.0,0.0,,396,,,0,43,,
https://l0-secure.videohub.tv/ssframework/log/log.png?EC=7&a=logitemaction&nolog=1&ssPD=tremorvideodsp.com&Uzip=__postalCode__&ADI=7884626&PRI=b1a60823-3399-4167-9701-374bdb094d56&Udma=__dma__&ssMLVer=rml_app_1.9.0&Uctry=__country__&AVI=425726&ssASVer=2.0&RI=1&Ust=__state__&NI=1344&admode=preroll&ssDsC=mobiletablet&ssRnd=1707154166&Eipct=50&EiN=1,COMPLETE,200,https,GET,image/gif,/127.0.0.1,59904,l0-secure.videohub.tv/67.226.210.13,443,,04 Jun 2019 14:03:26,04 Jun 2019 14:03:26,04 Jun 2019 14:03:26,04 Jun 2019 14:03:26,115,,9,39,49,0,18,234.69727,34.398438,0.0,1050,676,,25869,0,43,,
https://s.tremorvideodsp.com/q/qa.gif?param1=screen_second_quartile,COMPLETE,200,https,GET,image/gif,/127.0.0.1,59928,s.tremorvideodsp.com/23.48.39.112,443,,04 Jun 2019 14:03:26,04 Jun 2019 14:03:26,04 Jun 2019 14:03:26,04 Jun 2019 14:03:26,22,,,,0,0,22,19.442383,0.0,0.0,,395,,,0,43,,
https://s.tremorvideodsp.com/q/qa.gif?param1=creative_second_quartile,COMPLETE,200,https,GET,image/gif,/127.0.0.1,59957,s.tremorvideodsp.com/23.48.39.112,443,,04 Jun 2019 14:03:26,04 Jun 2019 14:03:26,04 Jun 2019 14:03:26,04 Jun 2019 14:03:26,30,,,,0,1,29,14.322266,0.0,41.992188,,397,,,0,43,,
https://ag.innovid.com,COMPLETE,200,https,CONNECT,,/127.0.0.1,59987,ag.innovid.com/52.1.196.17,443,,04 Jun 2019 14:03:26,,,04 Jun 2019 14:03:57,31045,23,9,35,,,,0.5800781,,,1294,0,863,16035,0,270,,
https://l0-secure.videohub.tv/ssframework/log/log.png?EC=7&a=logitemaction&nolog=1&ssPD=tremorvideodsp.com&Uzip=__postalCode__&ADI=7884626&PRI=b1a60823-3399-4167-9701-374bdb094d56&Udma=__dma__&ssMLVer=rml_app_1.9.0&Uctry=__country__&AVI=425726&ssASVer=2.0&RI=1&Ust=__state__&NI=1344&admode=preroll&ssDsC=mobiletablet&ssRnd=1551220412&Eipct=75&EiN=1,COMPLETE,200,https,GET,image/gif,/127.0.0.1,59904,l0-secure.videohub.tv/67.226.210.13,443,,04 Jun 2019 14:03:44,04 Jun 2019 14:03:44,04 Jun 2019 14:03:44,04 Jun 2019 14:03:44,108,,9,35,53,0,11,249.90918,31.802734,0.0,1050,676,,25869,0,43,,
https://s.tremorvideodsp.com/q/qa.gif?param1=screen_third_quartile,COMPLETE,200,https,GET,image/gif,/127.0.0.1,59928,s.tremorvideodsp.com/23.48.39.112,443,,04 Jun 2019 14:03:44,04 Jun 2019 14:03:44,04 Jun 2019 14:03:45,04 Jun 2019 14:03:45,161,,,,0,0,161,2.6503906,0.0,0.0,,394,,,0,43,,
https://s.tremorvideodsp.com/q/qa.gif?param1=creative_third_quartile,COMPLETE,200,https,GET,image/gif,/127.0.0.1,59957,s.tremorvideodsp.com/23.48.39.112,443,,04 Jun 2019 14:03:44,04 Jun 2019 14:03:44,04 Jun 2019 14:03:45,04 Jun 2019 14:03:45,160,,,,0,1,159,2.678711,0.0,41.992188,,396,,,0,43,,
https://s.innovid.com,COMPLETE,200,https,CONNECT,,/127.0.0.1,59990,s.innovid.com/34.225.182.250,443,,04 Jun 2019 14:03:44,,,04 Jun 2019 14:04:34,49148,161,9,40,,,,0.41015625,,,1289,0,1724,16035,0,1602,,
https://s-static.innovid.com,COMPLETE,200,https,CONNECT,,/127.0.0.1,59992,s-static.innovid.com/184.28.89.78,443,,04 Jun 2019 14:03:59,,,04 Jun 2019 14:04:29,30578,63,25,73,,,,0.78515625,,,1499,0,364,21421,0,1331,,
https://l0-secure.videohub.tv/ssframework/log/log.png?EC=38&a=logitemaction&nolog=1&ssPD=tremorvideodsp.com&Uzip=__postalCode__&ADI=7884626&PRI=b1a60823-3399-4167-9701-374bdb094d56&Udma=__dma__&ssMLVer=rml_app_1.9.0&Uctry=__country__&AVI=425726&ssASVer=2.0&RI=1&Ust=__state__&NI=1344&admode=preroll&ssDsC=mobiletablet&ssRnd=38467478&EvaF=1&pctVw=100,COMPLETE,200,https,GET,image/gif,/127.0.0.1,59904,l0-secure.videohub.tv/67.226.210.13,443,,04 Jun 2019 14:04:00,04 Jun 2019 14:04:00,04 Jun 2019 14:04:00,04 Jun 2019 14:04:00,101,,15,29,45,0,12,267.23926,37.47754,0.0,1050,677,,25869,0,43,,
https://l0-secure.videohub.tv/ssframework/log/log.png?EC=7&a=logitemaction&nolog=1&ssPD=tremorvideodsp.com&Uzip=__postalCode__&ADI=7884626&PRI=b1a60823-3399-4167-9701-374bdb094d56&Udma=__dma__&ssMLVer=rml_app_1.9.0&Uctry=__country__&AVI=425726&ssASVer=2.0&RI=1&Ust=__state__&NI=1344&admode=preroll&ssDsC=mobiletablet&ssRnd=889224659&Eipct=100&RcpF=1&EiN=1,COMPLETE,200,https,GET,image/gif,/127.0.0.1,59904,l0-secure.videohub.tv/67.226.210.13,443,,04 Jun 2019 14:04:03,04 Jun 2019 14:04:03,04 Jun 2019 14:04:03,04 Jun 2019 14:04:03,12,,,,0,0,12,59.08203,0.0,0.0,,683,,,0,43,,
https://s.tremorvideodsp.com/q/qa.gif?param1=screen_completion,COMPLETE,200,https,GET,image/gif,/127.0.0.1,59928,s.tremorvideodsp.com/23.48.39.112,443,,04 Jun 2019 14:04:03,04 Jun 2019 14:04:03,04 Jun 2019 14:04:03,04 Jun 2019 14:04:03,54,,,,0,0,54,7.830078,0.0,0.0,,390,,,0,43,,
https://s.tremorvideodsp.com/q/qa.gif?param1=creative_completion,COMPLETE,200,https,GET,image/gif,/127.0.0.1,59957,s.tremorvideodsp.com/23.48.39.112,443,,04 Jun 2019 14:04:03,04 Jun 2019 14:04:03,04 Jun 2019 14:04:03,04 Jun 2019 14:04:03,49,,,,0,0,49,8.668945,0.0,0.0,,392,,,0,43,,
https://ag.innovid.com,COMPLETE,200,https,CONNECT,,/127.0.0.1,59995,ag.innovid.com/52.1.196.17,443,,04 Jun 2019 14:04:03,,,04 Jun 2019 14:04:34,30386,22,9,9,,,,0.08300781,,,951,0,863,515,0,270,,
https://s.tremorvideodsp.com/q/video1_small.mp4,COMPLETE,206,https,GET,video/mp4,/127.0.0.1,59997,s.tremorvideodsp.com/23.48.39.112,443,,04 Jun 2019 14:04:04,04 Jun 2019 14:04:04,04 Jun 2019 14:04:04,04 Jun 2019 14:04:04,147,87,8,29,0,0,23,109.39453,0.0,0.0,1058,358,,15049,0,2,,
https://s.tremorvideodsp.com/q/video1_small.mp4,COMPLETE,206,https,GET,video/mp4,/127.0.0.1,59997,s.tremorvideodsp.com/23.48.39.112,443,,04 Jun 2019 14:04:04,04 Jun 2019 14:04:04,04 Jun 2019 14:04:04,04 Jun 2019 14:04:04,38,,,,0,13,25,1693.5127,0.0,4923.076,,362,,,0,65536,,
https://s.tremorvideodsp.com/q/video1_small.mp4,COMPLETE,206,https,GET,video/mp4,/127.0.0.1,59997,s.tremorvideodsp.com/23.48.39.112,443,,04 Jun 2019 14:04:04,04 Jun 2019 14:04:04,04 Jun 2019 14:04:04,04 Jun 2019 14:04:04,32,,,,1,6,25,2011.2305,359.375,10666.666,,368,,,0,65536,,
https://s.tremorvideodsp.com/q/video1_small.mp4,COMPLETE,206,https,GET,video/mp4,/127.0.0.1,59999,s.tremorvideodsp.com/23.48.39.112,443,,04 Jun 2019 14:04:04,04 Jun 2019 14:04:04,04 Jun 2019 14:04:04,04 Jun 2019 14:04:05,813,2,8,22,1,756,24,11900.022,1322.2656,12795.497,986,368,,14959,0,9890599,,
https://s.tremorvideodsp.com/q/video1_small.mp4,COMPLETE,206,https,GET,video/mp4,/127.0.0.1,59997,s.tremorvideodsp.com/23.48.39.112,443,,04 Jun 2019 14:04:04,04 Jun 2019 14:04:04,04 Jun 2019 14:04:04,04 Jun 2019 14:04:04,31,,,,0,6,25,2076.1084,0.0,10666.666,,368,,,0,65536,,
https://jwpltx.com,COMPLETE,200,https,CONNECT,,/127.0.0.1,60001,jwpltx.com/52.1.141.105,443,,04 Jun 2019 14:04:05,,,04 Jun 2019 14:04:35,30827,12,12,67,,,,1.0732422,,,1449,0,595,31731,0,132,,
https://prd.jwpltx.com,COMPLETE,200,https,CONNECT,,/127.0.0.1,60002,prd.jwpltx.com/52.1.12.241,443,,04 Jun 2019 14:04:05,,,04 Jun 2019 14:04:35,30529,75,11,51,,,,1.09375,,,1469,0,887,31731,0,132,,
https://ssl.p.jwpcdn.com,COMPLETE,200,https,CONNECT,,/127.0.0.1,60005,ssl.p.jwpcdn.com/72.21.81.48,443,,04 Jun 2019 14:04:40,,,04 Jun 2019 14:05:11,31049,18,2,62,,,,1.1513672,,,1479,0,411,34395,0,322,,
https://entitlements.jwplayer.com,COMPLETE,200,https,CONNECT,,/127.0.0.1,60007,entitlements.jwplayer.com/72.21.81.189,443,,04 Jun 2019 14:04:40,,,04 Jun 2019 14:05:11,30983,2,3,33,,,,1.1289062,,,1524,0,317,33541,0,464,,
https://s.tremorvideodsp.com/q/video1_small.mp4,COMPLETE,206,https,GET,video/mp4,/127.0.0.1,60009,s.tremorvideodsp.com/23.48.36.180,443,,04 Jun 2019 14:04:40,04 Jun 2019 14:04:40,04 Jun 2019 14:04:41,04 Jun 2019 14:04:41,125,45,10,27,0,0,43,128.64844,0.0,0.0,1058,358,,15049,0,2,,
https://jwpltx.com,COMPLETE,200,https,CONNECT,,/127.0.0.1,60010,jwpltx.com/52.1.141.105,443,,04 Jun 2019 14:04:40,,,04 Jun 2019 14:05:11,30897,2,9,11,,,,0.07324219,,,1075,0,608,515,0,132,,
https://s.tremorvideodsp.com/q/video1_small.mp4,COMPLETE,206,https,GET,video/mp4,/127.0.0.1,60009,s.tremorvideodsp.com/23.48.36.180,443,,04 Jun 2019 14:04:41,04 Jun 2019 14:04:41,04 Jun 2019 14:04:41,04 Jun 2019 14:04:41,63,,,,0,16,47,1021.4844,0.0,4000.0,,362,,,0,65536,,
https://s.tremorvideodsp.com/q/video1_small.mp4,COMPLETE,206,https,GET,video/mp4,/127.0.0.1,60009,s.tremorvideodsp.com/23.48.36.180,443,,04 Jun 2019 14:04:41,04 Jun 2019 14:04:41,04 Jun 2019 14:04:41,04 Jun 2019 14:04:41,33,,,,1,7,25,1950.2832,359.375,9142.856,,368,,,0,65536,,
https://s.tremorvideodsp.com/q/video1_small.mp4,COMPLETE,206,https,GET,video/mp4,/127.0.0.1,60013,s.tremorvideodsp.com/23.48.36.180,443,com.xk72.proxy.ProxyException: Client closed connection before receiving entire response,04 Jun 2019 14:04:41,04 Jun 2019 14:04:41,04 Jun 2019 14:04:41,04 Jun 2019 14:04:41,217,2,47,28,0,113,27,5347.161,0.0,10256.74,986,368,,14959,0,1171869,,
https://s.tremorvideodsp.com/q/video1_small.mp4,COMPLETE,206,https,GET,video/mp4,/127.0.0.1,60009,s.tremorvideodsp.com/23.48.36.180,443,,04 Jun 2019 14:04:41,04 Jun 2019 14:04:41,04 Jun 2019 14:04:41,04 Jun 2019 14:04:41,64,,,,0,18,46,1005.61523,0.0,3555.5547,,368,,,0,65536,,
