URL,Status,Response Code,Protocol,Method,Content-Type,Client Address,Client Port,Remote Address,Remote Port,Exception,Request Start Time,Request End Time,Response Start Time,Response End Time,Duration (ms),DNS Duration (ms),Connect Duration (ms),SSL Duration (ms),Request Duration (ms),Response Duration (ms),Latency (ms),Speed (KB/s),Request Speed (KB/s),Response Speed (KB/s),Request Handshake Size (bytes),Request Header Size (bytes),Request Body Size (bytes),Response Handshake Size (bytes),Response Header Size (bytes),Response Body Size (bytes),Request Compression,Response Compression
https://ssl.gstatic.com,RECEIVING_REQUEST_BODY,200,https,CONNECT,,/127.0.0.1,58085,ssl.gstatic.com/172.217.12.195,443,,04 Jun 2019 12:52:06,,,,2508366,2,2,4,,,,0.00390625,,,1608,0,3216,372,0,5150,,
https://ts01-b.cloudsink.net,RECEIVING_REQUEST_BODY,200,https,CONNECT,,/127.0.0.1,58432,ts01-b.cloudsink.net/54.183.142.105,443,,04 Jun 2019 13:22:43,,,,671613,5,73,173,,,,0.15625,,,1246,0,71395,17474,0,18004,,
https://14.client-channel.google.com,RECEIVING_RESPONSE_BODY,200,https,CONNECT,,/127.0.0.1,58485,14.client-channel.google.com/74.125.141.189,443,,04 Jun 2019 13:23:54,,,,600998,53,21,66,,,,0.041015625,,,1179,0,3076,15994,0,5088,,
https://chat-pa.clients6.google.com,COMPLETE,200,https,CONNECT,,/127.0.0.1,58809,chat-pa.clients6.google.com/172.217.10.10,443,,04 Jun 2019 13:28:41,,,04 Jun 2019 13:32:02,200082,21,4,30,,,,0.11816406,,,2892,0,1216,19617,0,,,
https://chat-pa.clients6.google.com,COMPLETE,200,https,CONNECT,,/127.0.0.1,58814,chat-pa.clients6.google.com/172.217.10.10,443,,04 Jun 2019 13:28:42,,,04 Jun 2019 13:31:59,197484,6,2,25,,,,0.12597656,,,2892,0,1903,19625,0,,,
https://mail.google.com,RECEIVING_REQUEST_BODY,200,https,CONNECT,,/127.0.0.1,58864,mail.google.com/172.217.6.229,443,,04 Jun 2019 13:30:35,,,,199369,2,2,,,,,0.001953125,,,517,0,0,,0,0,,
https://ogs.google.com,RECEIVING_REQUEST_BODY,200,https,CONNECT,,/127.0.0.1,58868,ogs.google.com/172.217.11.14,443,,04 Jun 2019 13:31:17,,,,158227,36,2,,,,,9.765625E-4,,,235,0,0,,0,0,,
https://play.google.com,RECEIVING_REQUEST_BODY,200,https,CONNECT,,/127.0.0.1,58870,play.google.com/172.217.10.46,443,,04 Jun 2019 13:31:17,,,,158049,2,2,,,,,0.0029296875,,,517,0,0,,0,0,,
https://play.google.com,RECEIVING_REQUEST_BODY,200,https,CONNECT,,/127.0.0.1,58872,play.google.com/172.217.10.46,443,,04 Jun 2019 13:31:17,,,,158018,1,2,2,,,,0.038085938,,,1608,0,3332,372,0,1005,,
https://ssl.p.jwpcdn.com,COMPLETE,200,https,CONNECT,,/127.0.0.1,58874,ssl.p.jwpcdn.com/72.21.81.48,443,,04 Jun 2019 13:31:41,,,04 Jun 2019 13:32:11,30120,19,1,21,,,,1.0205078,,,1479,0,411,29267,0,322,,
https://entitlements.jwplayer.com,COMPLETE,200,https,CONNECT,,/127.0.0.1,58875,entitlements.jwplayer.com/72.21.81.189,443,,04 Jun 2019 13:31:41,,,04 Jun 2019 13:32:12,30861,26,2,72,,,,1.1386719,,,1684,0,317,33541,0,464,,
https://s.tremorvideodsp.com/q/video1_small.mp4,COMPLETE,206,https,GET,video/mp4,/127.0.0.1,58878,s.tremorvideodsp.com/23.48.36.180,443,,04 Jun 2019 13:31:41,04 Jun 2019 13:31:41,04 Jun 2019 13:31:41,04 Jun 2019 13:31:41,136,54,11,31,0,1,39,118.24219,0.0,14698.242,1058,358,,15049,0,2,,
https://jwpltx.com,COMPLETE,200,https,CONNECT,,/127.0.0.1,58879,jwpltx.com/52.1.20.79,443,,04 Jun 2019 13:31:41,,,04 Jun 2019 13:32:12,30784,5,10,43,,,,0.9091797,,,1609,0,609,26340,0,132,,
https://s.tremorvideodsp.com/q/video1_small.mp4,COMPLETE,206,https,GET,video/mp4,/127.0.0.1,58878,s.tremorvideodsp.com/23.48.36.180,443,,04 Jun 2019 13:31:41,04 Jun 2019 13:31:41,04 Jun 2019 13:31:41,04 Jun 2019 13:31:41,65,,,,0,15,50,990.0537,0.0,4266.666,,362,,,0,65536,,
https://s.tremorvideodsp.com/q/video1_small.mp4,COMPLETE,206,https,GET,video/mp4,/127.0.0.1,58878,s.tremorvideodsp.com/23.48.36.180,443,,04 Jun 2019 13:31:41,04 Jun 2019 13:31:41,04 Jun 2019 13:31:41,04 Jun 2019 13:31:41,34,,,,0,8,26,1892.9219,0.0,8000.0,,368,,,0,65536,,
https://s.tremorvideodsp.com/q/video1_small.mp4,COMPLETE,206,https,GET,video/mp4,/127.0.0.1,58882,s.tremorvideodsp.com/23.48.36.180,443,,04 Jun 2019 13:31:41,04 Jun 2019 13:31:41,04 Jun 2019 13:31:41,04 Jun 2019 13:31:42,564,2,12,31,1,488,30,17153.756,1322.2656,19822.533,986,368,,14959,0,9890599,,
https://s.tremorvideodsp.com/q/video1_small.mp4,COMPLETE,206,https,GET,video/mp4,/127.0.0.1,58878,s.tremorvideodsp.com/23.48.36.180,443,,04 Jun 2019 13:31:41,04 Jun 2019 13:31:41,04 Jun 2019 13:31:41,04 Jun 2019 13:31:41,34,,,,0,6,28,1892.9219,0.0,10666.666,,368,,,0,65536,,
https://adserver.videohub.tv/preview?RI=h_AcAeyFREpDRXBay8d1aQ&screenType=mobiletablet&rml=true&Uctry=__country__&Ust=__state__&Udma=__dma__&Uzip=__postalCode__&Ucty=__city__&Uctnt=__continent__&Ulong=__longitude__&Ulat=__latitude__&Uacd=__areaCode__&position_ACP=__adChoicesPosition__&usedACP=__usedACP__&dspACP=__adChoicesProviders__&sig=2446D8A455EC81CE2B372F2D2FAD9745&dmps=y&ssRmlApp=1&isApp=y,COMPLETE,200,https,GET,application/xml; charset=utf-8,/127.0.0.1,58884,adserver.videohub.tv/67.226.210.8,443,,04 Jun 2019 13:31:50,04 Jun 2019 13:31:50,04 Jun 2019 13:31:50,04 Jun 2019 13:31:50,213,20,34,84,0,35,40,184.65723,0.0,1075.9482,1046,668,,25605,0,12957,,
https://objects-secure.videohub.tv/net/js/rml-app.min.js?adData=https%3A%2F%2Fs.tremorvideodsp.com%2Fq%2Fmp4_60sec.xml,COMPLETE,200,https,GET,application/javascript,/127.0.0.1,58886,objects-secure.videohub.tv/104.110.215.249,443,,04 Jun 2019 13:31:50,04 Jun 2019 13:31:50,04 Jun 2019 13:31:50,04 Jun 2019 13:31:50,99,46,9,23,0,12,9,800.209,0.0,6483.0723,1070,388,,16754,0,62910,,72.6%
https://s.tremorvideodsp.com/q/mp4_60sec.xml,COMPLETE,200,https,GET,application/xml,/127.0.0.1,58888,s.tremorvideodsp.com/23.48.36.180,443,,04 Jun 2019 13:31:50,04 Jun 2019 13:31:50,04 Jun 2019 13:31:51,04 Jun 2019 13:31:51,196,2,11,32,0,1,150,85.31445,0.0,15393.555,1046,314,,15049,0,714,,
https://objects-secure.tremormedia.com/net/js/io-polyfill-0.5.1.js,COMPLETE,200,https,GET,application/javascript,/127.0.0.1,58890,objects-secure.tremormedia.com/104.110.194.47,443,,04 Jun 2019 13:31:51,04 Jun 2019 13:31:51,04 Jun 2019 13:31:51,04 Jun 2019 13:31:51,64,28,7,20,0,1,8,374.9082,0.0,22605.469,1086,336,,16789,0,6359,,71.5%
https://s.tremorvideodsp.com/q/mp4_60sec.mp4,COMPLETE,206,https,GET,video/mp4,/127.0.0.1,58888,s.tremorvideodsp.com/23.48.36.180,443,,04 Jun 2019 13:31:51,04 Jun 2019 13:31:51,04 Jun 2019 13:31:51,04 Jun 2019 13:31:51,96,,,,0,1,95,3.9257812,0.0,1.953125,,384,,,0,2,,
https://s.tremorvideodsp.com/q/mp4_60sec.mp4,COMPLETE,206,https,GET,video/mp4,/127.0.0.1,58888,s.tremorvideodsp.com/23.48.36.180,443,,04 Jun 2019 13:31:51,04 Jun 2019 13:31:51,04 Jun 2019 13:31:51,04 Jun 2019 13:31:51,73,,,,0,16,57,881.90234,0.0,4000.0,,388,,,0,65536,,
https://s.tremorvideodsp.com/q/mp4_60sec.mp4,COMPLETE,206,https,GET,video/mp4,/127.0.0.1,58888,s.tremorvideodsp.com/23.48.36.180,443,,04 Jun 2019 13:31:51,04 Jun 2019 13:31:51,04 Jun 2019 13:31:51,04 Jun 2019 13:31:51,42,,,,0,7,35,1532.9473,0.0,9142.856,,393,,,0,65536,,
https://s.tremorvideodsp.com/q/mp4_60sec.mp4,COMPLETE,206,https,GET,video/mp4,/127.0.0.1,58888,s.tremorvideodsp.com/23.48.36.180,443,,04 Jun 2019 13:31:51,04 Jun 2019 13:31:51,04 Jun 2019 13:31:51,04 Jun 2019 13:31:54,2621,,,,0,2535,86,11839.725,0.0,12241.235,,396,,,0,31776290,,
https://prd.jwpltx.com,COMPLETE,200,https,CONNECT,,/127.0.0.1,58892,prd.jwpltx.com/52.200.42.178,443,,04 Jun 2019 13:31:52,,,04 Jun 2019 13:32:39,47456,36,18,80,,,,0.7480469,,,1469,0,2759,31731,0,396,,
https://dt-secure.videohub.tv/v1/usync/ironsource?userId=,COMPLETE,303,https,GET,image/gif,/127.0.0.1,58893,dt-secure.videohub.tv/67.226.210.13,443,,04 Jun 2019 13:31:52,04 Jun 2019 13:31:52,04 Jun 2019 13:31:52,04 Jun 2019 13:31:52,173,2,42,89,0,1,39,154.37012,0.0,25304.688,1050,385,,25869,0,43,,
https://sync.doubleverify.com/query.gif?ctx=42674&cmp=2311460&DVP_CMPID=&DVP_PUBID=&dvp_red=http%3A%2F%2Fads.videohub.tv%2Fssframework%2Fdt%2Fbotid%3Fa%3Dset%26DUID%3D1,COMPLETE,200,https,GET,image/gif,/127.0.0.1,58895,sync.doubleverify.com/204.154.111.224,443,,04 Jun 2019 13:31:52,04 Jun 2019 13:31:52,04 Jun 2019 13:31:52,04 Jun 2019 13:31:52,12,1,3,3,0,0,5,197.7539,0.0,0.0,729,496,,345,0,860,,-6.6%
https://tps30.doubleverify.com/visit.jpg?ctx=42674&cmp=2256325&sid=1111&plc=22563261&num=&adid=&advid=498259&adsrv=41&region=30&btreg=&btadsrv=&crt=&crtname=&chnl=&unit=&pid=&uid=&dvtagver=6.1.img&DVP_CMPID=&DVP_PUBID=&turl=tremorvideodsp.com,COMPLETE,200,https,GET,image/jpeg,/127.0.0.1,58897,tps30.doubleverify.com/204.154.111.127,443,,04 Jun 2019 13:31:52,04 Jun 2019 13:31:52,04 Jun 2019 13:31:52,04 Jun 2019 13:31:52,184,159,2,14,0,0,9,138.48047,0.0,0.0,1182,570,,24198,0,142,,53.4%
https://tags.bluekai.com/site/2954,COMPLETE,200,https,GET,image/gif,/127.0.0.1,58898,tags.bluekai.com/104.90.55.247,443,,04 Jun 2019 13:31:52,04 Jun 2019 13:31:52,04 Jun 2019 13:31:52,04 Jun 2019 13:31:52,150,49,8,31,0,1,61,99.42676,0.0,13554.6875,1030,362,,13818,0,62,,
https://tp.videohub.tv/v1/topprop.png?domain=&ui=&pri=70e31ded-8181-4515-addf-88662b95bf7a&ssRnd=1374527717,COMPLETE,200,https,GET,image/png,/127.0.0.1,58900,tp.videohub.tv/67.226.210.14,443,,04 Jun 2019 13:31:52,04 Jun 2019 13:31:52,04 Jun 2019 13:31:52,04 Jun 2019 13:31:52,191,20,40,87,0,0,44,139.93457,0.0,0.0,1022,435,,25869,0,43,,
https://s.tremorvideodsp.com/q/qa.gif?param1=creative_impression,COMPLETE,200,https,GET,image/gif,/127.0.0.1,58902,s.tremorvideodsp.com/23.48.36.180,443,,04 Jun 2019 13:31:52,04 Jun 2019 13:31:52,04 Jun 2019 13:31:52,04 Jun 2019 13:31:52,60,3,10,28,0,0,19,266.60156,0.0,0.0,986,392,,14959,0,43,,
https://s.tremorvideodsp.com/q/qa.gif?param1=screen_impression,COMPLETE,200,https,GET,image/gif,/127.0.0.1,58901,s.tremorvideodsp.com/23.48.36.180,443,,04 Jun 2019 13:31:52,04 Jun 2019 13:31:52,04 Jun 2019 13:31:52,04 Jun 2019 13:31:52,63,2,14,28,0,1,18,253.875,0.0,14650.391,986,390,,14959,0,43,,
https://l0-secure.videohub.tv/ssframework/log/log.png?EC=3&a=logitemaction&nolog=1&ssPD=tremorvideodsp.com&Uzip=__postalCode__&ADI=7879076&PRI=70e31ded-8181-4515-addf-88662b95bf7a&Udma=__dma__&ssMLVer=rml_app_1.9.0&Uctry=__country__&AVI=425726&ssASVer=2.0&RI=1&Ust=__state__&NI=1344&admode=preroll&ssDsC=mobiletablet&ssRnd=1558723664&SfF=true&AmN=1&adFocus=true&RvN=1,COMPLETE,200,https,GET,image/gif,/127.0.0.1,58903,l0-secure.videohub.tv/67.226.210.12,443,,04 Jun 2019 13:31:52,04 Jun 2019 13:31:52,04 Jun 2019 13:31:52,04 Jun 2019 13:31:52,185,18,38,89,0,0,40,145.99316,0.0,0.0,1050,695,,25869,0,43,,
https://sync.doubleverify.com/query.gif?ctx=42674&cmp=2256325&DVP_CMPID=&DVP_PUBID=&dvp_red=http%3A%2F%2Fapp.scanscout.com%2Fssframework%2Fdt%2Fbotid%3Fa%3Dset%26DUID%3D1,COMPLETE,200,https,GET,image/gif,/127.0.0.1,58909,sync.doubleverify.com/204.154.111.224,443,,04 Jun 2019 13:31:52,04 Jun 2019 13:31:52,04 Jun 2019 13:31:52,04 Jun 2019 13:31:52,13,4,2,3,0,0,4,179.31152,0.0,0.0,684,498,,345,0,860,,-6.6%
https://dt-secure.videohub.tv/v1/usync/bs?userId=,COMPLETE,303,https,GET,image/gif,/127.0.0.1,58912,dt-secure.videohub.tv/67.226.210.13,443,,04 Jun 2019 13:31:52,04 Jun 2019 13:31:52,04 Jun 2019 13:31:52,04 Jun 2019 13:31:52,179,2,35,107,0,0,35,148.82422,0.0,0.0,990,377,,25869,0,43,,
https://dt-secure.videohub.tv/v1/usync/lkqd_direct?userId=,COMPLETE,303,https,GET,image/gif,/127.0.0.1,58913,dt-secure.videohub.tv/67.226.210.13,443,,04 Jun 2019 13:31:52,04 Jun 2019 13:31:52,04 Jun 2019 13:31:52,04 Jun 2019 13:31:52,162,5,38,82,0,0,37,164.4961,0.0,0.0,990,386,,25869,0,43,,
https://dt-secure.videohub.tv/v1/usync/pubmatic?userId=,COMPLETE,303,https,GET,image/gif,/127.0.0.1,58914,dt-secure.videohub.tv/67.226.210.13,443,,04 Jun 2019 13:31:52,04 Jun 2019 13:31:52,04 Jun 2019 13:31:52,04 Jun 2019 13:31:52,162,1,39,84,0,1,37,164.47754,0.0,25304.688,990,383,,25869,0,43,,
https://dt-secure.videohub.tv/v1/usync/rubicon?userId=,COMPLETE,303,https,GET,image/gif,/127.0.0.1,58915,dt-secure.videohub.tv/67.226.210.13,443,,04 Jun 2019 13:31:52,04 Jun 2019 13:31:52,04 Jun 2019 13:31:52,04 Jun 2019 13:31:52,167,5,39,86,0,1,36,159.54785,0.0,25304.688,990,382,,25869,0,43,,
https://dt-secure.videohub.tv/v1/usync/springserve?userId=,COMPLETE,303,https,GET,image/gif,/127.0.0.1,58916,dt-secure.videohub.tv/67.226.210.13,443,,04 Jun 2019 13:31:52,04 Jun 2019 13:31:52,04 Jun 2019 13:31:52,04 Jun 2019 13:31:52,174,4,38,92,0,0,40,153.15137,0.0,0.0,990,386,,25869,0,43,,
https://l0-secure.videohub.tv/ssframework/log/log.png?EC=7&a=logitemaction&nolog=1&ssPD=tremorvideodsp.com&Uzip=__postalCode__&ADI=7879076&PRI=70e31ded-8181-4515-addf-88662b95bf7a&Udma=__dma__&ssMLVer=rml_app_1.9.0&Uctry=__country__&AVI=425726&ssASVer=2.0&RI=1&Ust=__state__&NI=1344&admode=preroll&ssDsC=mobiletablet&ssRnd=87651252&Eipct=0&EvaF=1&EiN=1,COMPLETE,200,https,GET,image/gif,/127.0.0.1,58921,l0-secure.videohub.tv/67.226.210.12,443,,04 Jun 2019 13:31:52,04 Jun 2019 13:31:52,04 Jun 2019 13:31:52,04 Jun 2019 13:31:52,157,1,38,80,1,0,37,171.56348,1630.8594,0.0,990,680,,25869,0,43,,
https://dt-secure.videohub.tv/v1/usync/spx?userId=,COMPLETE,303,https,GET,image/gif,/127.0.0.1,58893,dt-secure.videohub.tv/67.226.210.13,443,,04 Jun 2019 13:31:52,04 Jun 2019 13:31:52,04 Jun 2019 13:31:52,04 Jun 2019 13:31:52,41,,,,0,1,40,10.027344,0.0,41.992188,,378,,,0,43,,
https://cs.rtb-seller.com,COMPLETE,200,https,CONNECT,,/127.0.0.1,58924,cs.rtb-seller.com/52.7.138.160,443,,04 Jun 2019 13:31:52,,,04 Jun 2019 13:32:22,30314,4,9,116,,,,1.0810547,,,1484,0,388,31539,0,170,,
https://tps30.doubleverify.com/visit.jpg?ctx=42674&cmp=DV069178&sid=1111&plc=2018011501&advid=3819603&adsrv=0&tagtype=&dvtagver=6.1.img&DVP_PP_REP=1&DVP_IQM_ID=16&DVP_DV_TT=2&DVP_DV_CT=2&DVP_TR_SSP=&DVP_TR_PUB=[PUBLISHER_ID]&DVP_TR_SITE=[SUPPLY_ID]&DVP_TR_ADV=425726&DVP_TR_CMP=&DVP_TR_PLC=&turl=tremorvideodsp.com&DVP_PP_BUNDLE_ID=&DVP_TR_COST=,COMPLETE,200,https,GET,image/jpeg,/127.0.0.1,58926,tps30.doubleverify.com/204.154.111.127,443,,04 Jun 2019 13:31:52,04 Jun 2019 13:31:52,04 Jun 2019 13:31:52,04 Jun 2019 13:31:52,262,2,3,7,0,1,249,6.8164062,0.0,458.0078,687,673,,327,0,142,,53.4%
https://dt-secure.videohub.tv/v1/usync/rhythmone?userId=,COMPLETE,303,https,GET,image/gif,/127.0.0.1,58893,dt-secure.videohub.tv/67.226.210.13,443,,04 Jun 2019 13:31:52,04 Jun 2019 13:31:52,04 Jun 2019 13:31:52,04 Jun 2019 13:31:52,42,,,,0,1,41,9.927734,0.0,41.992188,,384,,,0,43,,
https://sync.search.spotxchange.com,COMPLETE,200,https,CONNECT,,/127.0.0.1,58928,sync.search.spotxchange.com/192.35.249.120,443,,04 Jun 2019 13:31:52,,,04 Jun 2019 13:32:24,31396,3,10,86,,,,0.62402344,,,1534,0,886,16383,0,1260,,
https://dt-secure.videohub.tv/v1/usync/tr?userId=,COMPLETE,303,https,GET,image/gif,/127.0.0.1,58893,dt-secure.videohub.tv/67.226.210.13,443,,04 Jun 2019 13:31:52,04 Jun 2019 13:31:52,04 Jun 2019 13:31:52,04 Jun 2019 13:31:52,51,,,,0,0,51,8.041992,0.0,0.0,,377,,,0,43,,
https://sync.1rx.io,COMPLETE,200,https,CONNECT,,/127.0.0.1,58930,sync.1rx.io/8.41.222.150,443,,04 Jun 2019 13:31:52,,,04 Jun 2019 13:32:25,32445,18,1204,23,,,,0.8339844,,,1094,0,796,24907,0,936,,
https://dt-secure.videohub.tv/v1/usync/lo?userId=,COMPLETE,303,https,GET,image/gif,/127.0.0.1,58912,dt-secure.videohub.tv/67.226.210.13,443,,04 Jun 2019 13:31:52,04 Jun 2019 13:31:52,04 Jun 2019 13:31:52,04 Jun 2019 13:31:52,36,,,,0,0,36,11.392578,0.0,0.0,,377,,,0,43,,
https://dt-secure.videohub.tv/v1/usync/ex?userId=,COMPLETE,303,https,GET,image/gif,/127.0.0.1,58914,dt-secure.videohub.tv/67.226.210.13,443,,04 Jun 2019 13:31:52,04 Jun 2019 13:31:52,04 Jun 2019 13:31:52,04 Jun 2019 13:31:52,43,,,,0,0,43,9.538086,0.0,0.0,,377,,,0,43,,
https://dt-secure.videohub.tv/ssframework/tvuid?a=set&UI=,COMPLETE,400,https,GET,image/gif,/127.0.0.1,58893,dt-secure.videohub.tv/67.226.210.13,443,,04 Jun 2019 13:31:52,04 Jun 2019 13:31:52,04 Jun 2019 13:31:52,04 Jun 2019 13:31:52,37,,,,0,0,37,11.295898,0.0,0.0,,385,,,0,43,,
https://dt-secure.videohub.tv/v1/usync/dd?userId=,COMPLETE,303,https,GET,image/gif,/127.0.0.1,58913,dt-secure.videohub.tv/67.226.210.13,443,,04 Jun 2019 13:31:52,04 Jun 2019 13:31:52,04 Jun 2019 13:31:52,04 Jun 2019 13:31:52,37,,,,0,0,37,11.084961,0.0,0.0,,377,,,0,43,,
https://partners.tremorhub.com,COMPLETE,200,https,CONNECT,,/127.0.0.1,58932,partners.tremorhub.com/54.152.204.147,443,,04 Jun 2019 13:31:52,,,04 Jun 2019 13:32:24,31275,23,7,172,,,,1.0761719,,,1509,0,387,32079,0,516,,
https://x.bidswitch.net,COMPLETE,200,https,CONNECT,,/127.0.0.1,58934,x.bidswitch.net/104.196.190.141,443,,04 Jun 2019 13:31:52,,,04 Jun 2019 13:32:03,10436,5,19,153,,,,3.609375,,,1146,0,405,36284,0,743,,
https://simage2.pubmatic.com,COMPLETE,200,https,CONNECT,,/127.0.0.1,58933,simage2.pubmatic.com/162.248.19.147,443,,04 Jun 2019 13:31:52,,,04 Jun 2019 13:32:24,31273,6,2,124,,,,0.6875,,,1499,0,455,19257,0,827,,
https://dt-secure.videohub.tv/v1/usync/ds?userId=,COMPLETE,303,https,GET,image/gif,/127.0.0.1,58915,dt-secure.videohub.tv/67.226.210.13,443,,04 Jun 2019 13:31:52,04 Jun 2019 13:31:52,04 Jun 2019 13:31:52,04 Jun 2019 13:31:52,42,,,,0,0,42,9.765625,0.0,0.0,,377,,,0,43,,
https://cs.lkqd.net,COMPLETE,200,https,CONNECT,,/127.0.0.1,58935,cs.lkqd.net/146.20.133.1,443,,04 Jun 2019 13:31:52,,,04 Jun 2019 13:32:24,31267,22,10,196,,,,1.3798828,,,1322,0,396,42000,0,482,,
https://pixel.rubiconproject.com,COMPLETE,200,https,CONNECT,,/127.0.0.1,58938,pixel.rubiconproject.com/8.43.72.21,443,,04 Jun 2019 13:31:52,,,04 Jun 2019 13:32:04,12029,3,9,188,,,,1.6152344,,,1170,0,890,16516,0,1322,,
https://dt-secure.videohub.tv/v1/usync/lrjs?userId=,COMPLETE,303,https,GET,image/gif,/127.0.0.1,58916,dt-secure.videohub.tv/67.226.210.13,443,,04 Jun 2019 13:31:52,04 Jun 2019 13:31:52,04 Jun 2019 13:31:52,04 Jun 2019 13:31:52,35,,,,0,0,35,11.774414,0.0,0.0,,379,,,0,43,,
https://dt-secure.videohub.tv/v1/usync/db?userId=&deviceId=unknown&screenType=mobiletablet&osType=iOS&rand=1658281758,COMPLETE,303,https,GET,image/gif,/127.0.0.1,58912,dt-secure.videohub.tv/67.226.210.13,443,,04 Jun 2019 13:31:52,04 Jun 2019 13:31:52,04 Jun 2019 13:31:52,04 Jun 2019 13:31:52,35,,,,1,0,34,13.615234,434.5703,0.0,,445,,,0,43,,
https://dt-secure.videohub.tv/v1/usync/kx?userId=,COMPLETE,303,https,GET,image/gif,/127.0.0.1,58893,dt-secure.videohub.tv/67.226.210.13,443,,04 Jun 2019 13:31:52,04 Jun 2019 13:31:52,04 Jun 2019 13:31:52,04 Jun 2019 13:31:52,36,,,,0,1,35,11.392578,0.0,41.992188,,377,,,0,43,,
https://dt-secure.videohub.tv/v1/usync/al?userId=,COMPLETE,303,https,GET,image/gif,/127.0.0.1,58914,dt-secure.videohub.tv/67.226.210.13,443,,04 Jun 2019 13:31:52,04 Jun 2019 13:31:52,04 Jun 2019 13:31:52,04 Jun 2019 13:31:52,36,,,,0,1,35,11.392578,0.0,41.992188,,377,,,0,43,,
https://sync.springserve.com,COMPLETE,200,https,CONNECT,,/127.0.0.1,58942,sync.springserve.com/52.22.92.230,443,,04 Jun 2019 13:31:52,,,04 Jun 2019 13:32:24,31222,36,9,198,,,,1.0556641,,,1499,0,397,31653,0,212,,
https://bcp.crwdcntrl.net,COMPLETE,200,https,CONNECT,,/127.0.0.1,58943,bcp.crwdcntrl.net/52.0.28.154,443,,04 Jun 2019 13:31:52,,,04 Jun 2019 13:32:24,31221,20,9,188,,,,1.0712891,,,1484,0,797,31179,0,790,,
https://dt-secure.videohub.tv/v1/usync/bk?userId=,COMPLETE,303,https,GET,image/gif,/127.0.0.1,58913,dt-secure.videohub.tv/67.226.210.13,443,,04 Jun 2019 13:31:52,04 Jun 2019 13:31:52,04 Jun 2019 13:31:52,04 Jun 2019 13:31:52,37,,,,0,0,37,11.084961,0.0,0.0,,377,,,0,43,,
https://loadm.exelator.com,COMPLETE,200,https,CONNECT,,/127.0.0.1,58944,loadm.exelator.com/147.75.39.192,443,,04 Jun 2019 13:31:52,,,04 Jun 2019 13:32:03,10474,30,2,191,,,,3.2402344,,,1122,0,816,31294,0,1521,,
https://dt-secure.videohub.tv/v1/usync/lr?userId=,COMPLETE,303,https,GET,image/gif,/127.0.0.1,58915,dt-secure.videohub.tv/67.226.210.13,443,,04 Jun 2019 13:31:52,04 Jun 2019 13:31:52,04 Jun 2019 13:31:52,04 Jun 2019 13:31:52,39,,,,0,0,39,10.516602,0.0,0.0,,377,,,0,43,,
https://dt-secure.videohub.tv/v1/usync/ns?userId=,COMPLETE,303,https,GET,image/gif,/127.0.0.1,58916,dt-secure.videohub.tv/67.226.210.13,443,,04 Jun 2019 13:31:52,04 Jun 2019 13:31:52,04 Jun 2019 13:31:52,04 Jun 2019 13:31:52,40,,,,0,0,40,10.253906,0.0,0.0,,377,,,0,43,,
https://objects-secure.tremormedia.com/net/js/lr.js?partner_id=ffbe671cfc43cfbdd8bf59d22bb1886a,COMPLETE,200,https,GET,application/javascript,/127.0.0.1,58890,objects-secure.tremormedia.com/104.110.194.47,443,,04 Jun 2019 13:31:52,04 Jun 2019 13:31:52,04 Jun 2019 13:31:52,04 Jun 2019 13:31:52,8,,,,0,0,8,146.60645,0.0,0.0,,423,,,0,778,,57.1%
https://dpm.demdex.net,COMPLETE,200,https,CONNECT,,/127.0.0.1,58946,dpm.demdex.net/52.206.102.68,443,,04 Jun 2019 13:31:52,,,04 Jun 2019 13:32:24,31176,10,8,177,,,,0.68066406,,,1469,0,804,18303,0,1155,,
https://idpix.media6degrees.com,COMPLETE,200,https,CONNECT,,/127.0.0.1,58949,idpix.media6degrees.com/204.2.197.211,443,,04 Jun 2019 13:31:52,,,04 Jun 2019 13:31:53,290,24,3,168,,,,90.21387,,,1514,0,431,24075,0,770,,
https://beacon.krxd.net,COMPLETE,200,https,CONNECT,,/127.0.0.1,58952,beacon.krxd.net/23.21.255.169,443,,04 Jun 2019 13:31:52,,,04 Jun 2019 13:32:24,31146,6,9,139,,,,1.0498047,,,1474,0,414,31113,0,482,,
https://p.adsymptotic.com,COMPLETE,200,https,CONNECT,,/127.0.0.1,58950,p.adsymptotic.com/52.0.136.218,443,,04 Jun 2019 13:31:52,,,04 Jun 2019 13:32:24,31146,57,9,129,,,,0.7089844,,,1484,0,944,19281,0,921,,
https://sync.alphonso.tv,COMPLETE,200,https,CONNECT,,/127.0.0.1,58954,sync.alphonso.tv/104.129.168.238,443,,04 Jun 2019 13:31:53,,,04 Jun 2019 13:32:24,31115,19,5,134,,,,0.9472656,,,1479,0,391,27865,0,471,,
https://stags.bluekai.com,COMPLETE,200,https,CONNECT,,/127.0.0.1,58958,stags.bluekai.com/104.90.55.247,443,,04 Jun 2019 13:31:53,,,04 Jun 2019 13:32:24,31050,2,9,145,,,,0.75390625,,,1484,0,459,21259,0,782,,
https://idsync.rlcdn.com,COMPLETE,200,https,CONNECT,,/127.0.0.1,58959,idsync.rlcdn.com/34.95.92.78,443,,04 Jun 2019 13:31:53,,,04 Jun 2019 13:32:24,31044,20,2,122,,,,0.87402344,,,1347,0,838,24510,0,1107,,
https://aa.agkn.com,COMPLETE,200,https,CONNECT,,/127.0.0.1,58961,aa.agkn.com/63.251.88.56,443,,04 Jun 2019 13:31:53,,,04 Jun 2019 13:31:53,180,31,8,99,,,,125.47168,,,1454,0,402,20762,0,509,,
https://bsw.digitru.st,COMPLETE,200,https,CONNECT,,/127.0.0.1,58964,bsw.digitru.st/104.196.190.141,443,,04 Jun 2019 13:31:53,,,04 Jun 2019 13:32:03,10329,4,21,94,,,,3.5302734,,,1142,0,405,35144,0,658,,
https://d.agkn.com,COMPLETE,200,https,CONNECT,,/127.0.0.1,58966,d.agkn.com/54.85.113.113,443,,04 Jun 2019 13:31:53,,,04 Jun 2019 13:32:23,30497,22,9,46,,,,0.8779297,,,1449,0,384,25023,0,574,,
https://dt-secure.videohub.tv/v1/uid?UIBK=NcimB2Jv999R7djz,COMPLETE,200,https,GET,image/gif,/127.0.0.1,58893,dt-secure.videohub.tv/67.226.210.13,443,,04 Jun 2019 13:31:53,04 Jun 2019 13:31:53,04 Jun 2019 13:31:53,04 Jun 2019 13:31:53,44,,,,0,0,44,9.521484,0.0,0.0,,386,,,0,43,,
https://pippio.com,COMPLETE,200,https,CONNECT,,/127.0.0.1,58968,pippio.com/107.178.254.65,443,,04 Jun 2019 13:31:53,,,04 Jun 2019 13:32:25,31894,1,2,27,,,,0.83203125,,,1317,0,751,23570,0,1536,,
https://us-east-sync.bidswitch.net,COMPLETE,200,https,CONNECT,,/127.0.0.1,58970,us-east-sync.bidswitch.net/104.196.25.73,443,,04 Jun 2019 13:31:53,,,04 Jun 2019 13:32:03,10414,2,21,207,,,,3.6191406,,,1190,0,430,36284,0,700,,
https://cm.g.doubleclick.net,COMPLETE,200,https,CONNECT,,/127.0.0.1,58972,cm.g.doubleclick.net/172.217.6.194,443,,04 Jun 2019 13:31:53,,,04 Jun 2019 13:32:24,30494,21,2,30,,,,0.546875,,,1367,0,424,14337,0,969,,
https://objects-secure.tremormedia.com/net/js/adchoicesappicon.min.js?iconPosition=top-left&optOut=&iconClick=&playerWidth=770&playerHeight=1026&sources=&country=us,COMPLETE,200,https,GET,application/javascript,/127.0.0.1,58890,objects-secure.tremormedia.com/104.110.194.47,443,,04 Jun 2019 13:31:53,04 Jun 2019 13:31:53,04 Jun 2019 13:31:53,04 Jun 2019 13:31:53,29,,,,0,2,27,587.78906,0.0,8311.035,,434,,,0,17021,,45.7%
https://tag.apxlv.com,COMPLETE,200,https,CONNECT,,/127.0.0.1,58974,tag.apxlv.com/162.223.54.6,443,,04 Jun 2019 13:31:54,,,04 Jun 2019 13:32:25,31174,5,8,46,,,,0.86621094,,,1102,0,368,25553,0,647,,
https://tag.cogocast.net,COMPLETE,200,https,CONNECT,,/127.0.0.1,58976,tag.cogocast.net/52.4.133.146,443,,04 Jun 2019 13:31:54,,,04 Jun 2019 13:32:25,31100,5,9,35,,,,1.0820312,,,1479,0,502,31563,0,923,,
https://gpush.cogocast.net,COMPLETE,200,https,CONNECT,,/127.0.0.1,58978,gpush.cogocast.net/162.223.54.16,443,,04 Jun 2019 13:31:54,,,04 Jun 2019 13:31:54,46,18,8,,,,,4.6064453,,,210,0,0,7,0,0,,
https://l0-secure.videohub.tv/ssframework/log/log.png?EC=40&a=logitemaction&nolog=1&ssPD=tremorvideodsp.com&Uzip=__postalCode__&ADI=7879076&PRI=70e31ded-8181-4515-addf-88662b95bf7a&Udma=__dma__&ssMLVer=rml_app_1.9.0&Uctry=__country__&AVI=425726&ssASVer=2.0&RI=1&Ust=__state__&NI=1344&admode=preroll&ssDsC=mobiletablet&ssRnd=1234519206&EvaF=1&pctVw=0,COMPLETE,200,https,GET,image/gif,/127.0.0.1,58903,l0-secure.videohub.tv/67.226.210.12,443,,04 Jun 2019 13:31:54,04 Jun 2019 13:31:54,04 Jun 2019 13:31:54,04 Jun 2019 13:31:54,45,,,,1,0,44,15.625,661.1328,0.0,,677,,,0,43,,
https://s.tremorvideodsp.com/q/qa.gif?param1=screen_click,COMPLETE,200,https,GET,image/gif,/127.0.0.1,58888,s.tremorvideodsp.com/23.48.36.180,443,,04 Jun 2019 13:31:55,04 Jun 2019 13:31:55,04 Jun 2019 13:31:55,04 Jun 2019 13:31:55,19,,,,0,1,18,21.998047,0.0,41.992188,,385,,,0,43,,
https://s.tremorvideodsp.com/q/qa.gif?param1=creative_click,COMPLETE,200,https,GET,image/gif,/127.0.0.1,58902,s.tremorvideodsp.com/23.48.36.180,443,,04 Jun 2019 13:31:55,04 Jun 2019 13:31:55,04 Jun 2019 13:31:55,04 Jun 2019 13:31:55,36,,,,0,0,36,11.6640625,0.0,0.0,,387,,,0,43,,
https://l0-secure.videohub.tv/ssframework/log/log.png?EC=2&a=logitemaction&nolog=1&ssPD=tremorvideodsp.com&Uzip=__postalCode__&ADI=7879076&PRI=70e31ded-8181-4515-addf-88662b95bf7a&Udma=__dma__&ssMLVer=rml_app_1.9.0&Uctry=__country__&AVI=425726&ssASVer=2.0&RI=1&Ust=__state__&NI=1344&admode=preroll&ssDsC=mobiletablet&ssRnd=1487419209,COMPLETE,200,https,GET,image/gif,/127.0.0.1,58903,l0-secure.videohub.tv/67.226.210.12,443,,04 Jun 2019 13:31:55,04 Jun 2019 13:31:55,04 Jun 2019 13:31:55,04 Jun 2019 13:31:55,30,,,,0,1,29,22.916016,0.0,41.992188,,661,,,0,43,,
https://l0-secure.videohub.tv/ssframework/log/log.png?EC=4&a=logitemaction&nolog=1&ssPD=tremorvideodsp.com&Uzip=__postalCode__&ADI=7879076&PRI=70e31ded-8181-4515-addf-88662b95bf7a&Udma=__dma__&ssMLVer=rml_app_1.9.0&Uctry=__country__&AVI=425726&ssASVer=2.0&RI=1&Ust=__state__&NI=1344&admode=preroll&ssDsC=mobiletablet&ssRnd=691306265&EiN=1,COMPLETE,200,https,GET,image/gif,/127.0.0.1,58921,l0-secure.videohub.tv/67.226.210.12,443,,04 Jun 2019 13:31:55,04 Jun 2019 13:31:55,04 Jun 2019 13:31:55,04 Jun 2019 13:31:55,96,,,,0,0,96,7.211914,0.0,0.0,,666,,,0,43,,
https://tremorvideodsp.com,COMPLETE,200,https,CONNECT,,/127.0.0.1,58980,tremorvideodsp.com/67.226.210.14,443,,04 Jun 2019 13:31:55,,,04 Jun 2019 13:31:55,325,84,31,88,,,,86.61914,,,1404,0,540,25979,0,904,,
https://dt.scanscout.com,COMPLETE,200,https,CONNECT,,/127.0.0.1,58982,dt.scanscout.com/67.226.210.13,443,,04 Jun 2019 13:31:55,,,04 Jun 2019 13:32:00,5172,2,34,107,,,,6.6523438,,,3096,0,536,31298,0,302,,
https://tremorvideodsp.com,COMPLETE,200,https,CONNECT,,/127.0.0.1,58985,tremorvideodsp.com/67.226.210.14,443,,04 Jun 2019 13:31:55,,,04 Jun 2019 13:32:00,5231,6,33,159,,,,6.6123047,,,3096,0,508,31388,0,429,,
https://www.tremorvideodsp.com,COMPLETE,200,https,CONNECT,,/127.0.0.1,58984,www.tremorvideodsp.com/52.71.139.107,443,,04 Jun 2019 13:31:55,,,04 Jun 2019 13:32:26,31142,49,9,43,,,,0.6171875,,,3024,0,2849,12406,0,1415,,
https://www.tremorvideodsp.com,COMPLETE,200,https,CONNECT,,/127.0.0.1,58988,www.tremorvideodsp.com/52.71.139.107,443,,04 Jun 2019 13:31:55,,,04 Jun 2019 13:32:26,30969,3,8,49,,,,0.46484375,,,1584,0,566,12301,0,301,,
https://www.tremorvideodsp.com,COMPLETE,200,https,CONNECT,,/127.0.0.1,58989,www.tremorvideodsp.com/52.71.139.107,443,,04 Jun 2019 13:31:55,,,04 Jun 2019 13:32:26,30969,7,8,52,,,,0.39648438,,,1584,0,567,10148,0,301,,
https://www.tremorvideodsp.com,COMPLETE,200,https,CONNECT,,/127.0.0.1,58990,www.tremorvideodsp.com/52.71.139.107,443,,04 Jun 2019 13:31:55,,,04 Jun 2019 13:32:26,30968,4,8,49,,,,0.4267578,,,1584,0,1210,10148,0,600,,
https://www.tremorvideodsp.com,COMPLETE,200,https,CONNECT,,/127.0.0.1,58994,www.tremorvideodsp.com/52.71.139.107,443,,04 Jun 2019 13:31:56,,,04 Jun 2019 13:32:26,30097,2,8,57,,,,0.47851562,,,1424,0,280,12301,0,744,,
https://www.google-analytics.com,RECEIVED_RESPONSE_HEADER,200,https,CONNECT,,/127.0.0.1,58996,www.google-analytics.com/172.217.6.206,443,,04 Jun 2019 13:31:56,,,,118733,27,3,,,,,0.00390625,,,517,0,0,,0,0,,
https://stats.g.doubleclick.net,RECEIVED_RESPONSE_HEADER,200,https,CONNECT,,/127.0.0.1,58998,stats.g.doubleclick.net/173.194.206.156,443,,04 Jun 2019 13:31:56,,,,118636,23,16,,,,,0.00390625,,,517,0,0,,0,0,,
https://www.google.com,RECEIVED_RESPONSE_HEADER,200,https,CONNECT,,/127.0.0.1,59000,www.google.com/172.217.10.68,443,,04 Jun 2019 13:31:56,,,,118513,18,3,,,,,0.00390625,,,517,0,0,,0,0,,
https://s.tremorvideodsp.com/q/qa.gif?param1=screen_click,COMPLETE,200,https,GET,image/gif,/127.0.0.1,58888,s.tremorvideodsp.com/23.48.36.180,443,,04 Jun 2019 13:32:09,04 Jun 2019 13:32:09,04 Jun 2019 13:32:09,04 Jun 2019 13:32:09,35,,,,0,0,35,11.941406,0.0,0.0,,385,,,0,43,,
https://s.tremorvideodsp.com/q/qa.gif?param1=creative_click,COMPLETE,200,https,GET,image/gif,/127.0.0.1,58902,s.tremorvideodsp.com/23.48.36.180,443,,04 Jun 2019 13:32:09,04 Jun 2019 13:32:09,04 Jun 2019 13:32:09,04 Jun 2019 13:32:09,37,,,,0,0,37,11.348633,0.0,0.0,,387,,,0,43,,
https://l0-secure.videohub.tv/ssframework/log/log.png?EC=2&a=logitemaction&nolog=1&ssPD=tremorvideodsp.com&Uzip=__postalCode__&ADI=7879076&PRI=70e31ded-8181-4515-addf-88662b95bf7a&Udma=__dma__&ssMLVer=rml_app_1.9.0&Uctry=__country__&AVI=425726&ssASVer=2.0&RI=1&Ust=__state__&NI=1344&admode=preroll&ssDsC=mobiletablet&ssRnd=1487419209,COMPLETE,200,https,GET,image/gif,/127.0.0.1,58903,l0-secure.videohub.tv/67.226.210.12,443,,04 Jun 2019 13:32:09,04 Jun 2019 13:32:09,04 Jun 2019 13:32:09,04 Jun 2019 13:32:09,132,,11,40,52,1,28,204.36035,32.131836,25304.688,1050,661,,25869,0,43,,
https://l0-secure.videohub.tv/ssframework/log/log.png?EC=7&a=logitemaction&nolog=1&ssPD=tremorvideodsp.com&Uzip=__postalCode__&ADI=7879076&PRI=70e31ded-8181-4515-addf-88662b95bf7a&Udma=__dma__&ssMLVer=rml_app_1.9.0&Uctry=__country__&AVI=425726&ssASVer=2.0&RI=1&Ust=__state__&NI=1344&admode=preroll&ssDsC=mobiletablet&ssRnd=841379824&Eipct=25&EiN=1,COMPLETE,200,https,GET,image/gif,/127.0.0.1,58903,l0-secure.videohub.tv/67.226.210.12,443,,04 Jun 2019 13:32:21,04 Jun 2019 13:32:21,04 Jun 2019 13:32:21,04 Jun 2019 13:32:21,174,,10,65,77,0,22,155.11035,21.876953,0.0,1050,675,,25869,0,43,,
https://s.tremorvideodsp.com/q/qa.gif?param1=screen_first_quartile,COMPLETE,200,https,GET,image/gif,/127.0.0.1,58888,s.tremorvideodsp.com/23.48.36.180,443,,04 Jun 2019 13:32:21,04 Jun 2019 13:32:21,04 Jun 2019 13:32:21,04 Jun 2019 13:32:21,74,,,,0,3,71,5.7666016,0.0,13.99707,,394,,,0,43,,
https://s.tremorvideodsp.com/q/qa.gif?param1=creative_first_quartile,COMPLETE,200,https,GET,image/gif,/127.0.0.1,58902,s.tremorvideodsp.com/23.48.36.180,443,,04 Jun 2019 13:32:21,04 Jun 2019 13:32:21,04 Jun 2019 13:32:21,04 Jun 2019 13:32:21,71,,,,0,1,70,6.038086,0.0,41.992188,,396,,,0,43,,
https://www.tremorvideodsp.com,COMPLETE,200,https,CONNECT,,/127.0.0.1,59004,www.tremorvideodsp.com/52.71.139.107,443,,04 Jun 2019 13:32:26,,,04 Jun 2019 13:32:26,220,3,9,58,,,,342.9287,,,1584,0,268,10148,0,65255,,
https://configuration.apple.com,COMPLETE,200,https,CONNECT,,/127.0.0.1,59006,configuration.apple.com/23.2.145.78,443,,04 Jun 2019 13:32:28,,,04 Jun 2019 13:32:59,30744,46,9,66,,,,1.1943359,,,1709,0,331,35035,0,529,,
https://l0-secure.videohub.tv/ssframework/log/log.png?EC=7&a=logitemaction&nolog=1&ssPD=tremorvideodsp.com&Uzip=__postalCode__&ADI=7879076&PRI=70e31ded-8181-4515-addf-88662b95bf7a&Udma=__dma__&ssMLVer=rml_app_1.9.0&Uctry=__country__&AVI=425726&ssASVer=2.0&RI=1&Ust=__state__&NI=1344&admode=preroll&ssDsC=mobiletablet&ssRnd=674790987&Eipct=50&EiN=1,COMPLETE,200,https,GET,image/gif,/127.0.0.1,58903,l0-secure.videohub.tv/67.226.210.12,443,,04 Jun 2019 13:32:36,04 Jun 2019 13:32:36,04 Jun 2019 13:32:36,04 Jun 2019 13:32:36,104,,9,37,48,0,10,259.51172,35.094727,0.0,1050,675,,25869,0,43,,
https://s.tremorvideodsp.com/q/qa.gif?param1=screen_second_quartile,COMPLETE,200,https,GET,image/gif,/127.0.0.1,58888,s.tremorvideodsp.com/23.48.36.180,443,,04 Jun 2019 13:32:36,04 Jun 2019 13:32:36,04 Jun 2019 13:32:36,04 Jun 2019 13:32:36,48,,,,0,1,47,8.911133,0.0,41.992188,,395,,,0,43,,
https://s.tremorvideodsp.com/q/qa.gif?param1=creative_second_quartile,COMPLETE,200,https,GET,image/gif,/127.0.0.1,58902,s.tremorvideodsp.com/23.48.36.180,443,,04 Jun 2019 13:32:36,04 Jun 2019 13:32:36,04 Jun 2019 13:32:36,04 Jun 2019 13:32:36,46,,,,0,5,41,9.34082,0.0,8.3984375,,397,,,0,43,,
https://clients4.google.com,RECEIVING_REQUEST_BODY,200,https,CONNECT,,/127.0.0.1,59009,clients4.google.com/172.217.10.238,443,,04 Jun 2019 13:32:42,,,,72502,21,3,,,,,0.0068359375,,,517,0,0,,0,0,,
https://l0-secure.videohub.tv/ssframework/log/log.png?EC=7&a=logitemaction&nolog=1&ssPD=tremorvideodsp.com&Uzip=__postalCode__&ADI=7879076&PRI=70e31ded-8181-4515-addf-88662b95bf7a&Udma=__dma__&ssMLVer=rml_app_1.9.0&Uctry=__country__&AVI=425726&ssASVer=2.0&RI=1&Ust=__state__&NI=1344&admode=preroll&ssDsC=mobiletablet&ssRnd=279107935&Eipct=75&EiN=1,COMPLETE,200,https,GET,image/gif,/127.0.0.1,58903,l0-secure.videohub.tv/67.226.210.12,443,,04 Jun 2019 13:32:51,04 Jun 2019 13:32:51,04 Jun 2019 13:32:51,04 Jun 2019 13:32:51,86,,9,28,38,0,11,313.82812,44.33008,0.0,1050,675,,25869,0,43,,
https://s.tremorvideodsp.com/q/qa.gif?param1=screen_third_quartile,COMPLETE,200,https,GET,image/gif,/127.0.0.1,58888,s.tremorvideodsp.com/23.48.36.180,443,,04 Jun 2019 13:32:51,04 Jun 2019 13:32:51,04 Jun 2019 13:32:51,04 Jun 2019 13:32:51,47,,,,0,0,47,9.079102,0.0,0.0,,394,,,0,43,,
https://s.tremorvideodsp.com/q/qa.gif?param1=creative_third_quartile,COMPLETE,200,https,GET,image/gif,/127.0.0.1,58902,s.tremorvideodsp.com/23.48.36.180,443,,04 Jun 2019 13:32:51,04 Jun 2019 13:32:51,04 Jun 2019 13:32:51,04 Jun 2019 13:32:51,35,,,,0,0,35,12.248047,0.0,0.0,,396,,,0,43,,
https://l0-secure.videohub.tv/ssframework/log/log.png?EC=38&a=logitemaction&nolog=1&ssPD=tremorvideodsp.com&Uzip=__postalCode__&ADI=7879076&PRI=70e31ded-8181-4515-addf-88662b95bf7a&Udma=__dma__&ssMLVer=rml_app_1.9.0&Uctry=__country__&AVI=425726&ssASVer=2.0&RI=1&Ust=__state__&NI=1344&admode=preroll&ssDsC=mobiletablet&ssRnd=1424428343&EvaF=1&pctVw=100,COMPLETE,200,https,GET,image/gif,/127.0.0.1,58903,l0-secure.videohub.tv/67.226.210.12,443,,04 Jun 2019 13:33:04,04 Jun 2019 13:33:04,04 Jun 2019 13:33:04,04 Jun 2019 13:33:04,103,,10,35,45,0,13,262.06934,37.521484,0.0,1050,679,,25869,0,43,,
https://l0-secure.videohub.tv/ssframework/log/log.png?EC=7&a=logitemaction&nolog=1&ssPD=tremorvideodsp.com&Uzip=__postalCode__&ADI=7879076&PRI=70e31ded-8181-4515-addf-88662b95bf7a&Udma=__dma__&ssMLVer=rml_app_1.9.0&Uctry=__country__&AVI=425726&ssASVer=2.0&RI=1&Ust=__state__&NI=1344&admode=preroll&ssDsC=mobiletablet&ssRnd=1134054452&Eipct=100&RcpF=1&EiN=1,COMPLETE,200,https,GET,image/gif,/127.0.0.1,58903,l0-secure.videohub.tv/67.226.210.12,443,,04 Jun 2019 13:33:06,04 Jun 2019 13:33:06,04 Jun 2019 13:33:06,04 Jun 2019 13:33:06,12,,,,0,0,12,59.163086,0.0,0.0,,684,,,0,43,,
https://s.tremorvideodsp.com/q/qa.gif?param1=screen_completion,COMPLETE,200,https,GET,image/gif,/127.0.0.1,58888,s.tremorvideodsp.com/23.48.36.180,443,,04 Jun 2019 13:33:06,04 Jun 2019 13:33:06,04 Jun 2019 13:33:06,04 Jun 2019 13:33:06,37,,,,0,1,36,11.427734,0.0,41.992188,,390,,,0,43,,
https://s.tremorvideodsp.com/q/qa.gif?param1=creative_completion,COMPLETE,200,https,GET,image/gif,/127.0.0.1,58902,s.tremorvideodsp.com/23.48.36.180,443,,04 Jun 2019 13:33:06,04 Jun 2019 13:33:06,04 Jun 2019 13:33:06,04 Jun 2019 13:33:06,25,,,,1,1,23,16.992188,382.8125,41.992188,,392,,,0,43,,
https://s.tremorvideodsp.com/q/video1_small.mp4,COMPLETE,206,https,GET,video/mp4,/127.0.0.1,59013,s.tremorvideodsp.com/23.48.39.112,443,,04 Jun 2019 13:33:06,04 Jun 2019 13:33:06,04 Jun 2019 13:33:07,04 Jun 2019 13:33:07,112,43,9,24,0,0,36,143.58008,0.0,0.0,1058,358,,15049,0,2,,
https://s.tremorvideodsp.com/q/video1_small.mp4,COMPLETE,206,https,GET,video/mp4,/127.0.0.1,59013,s.tremorvideodsp.com/23.48.39.112,443,,04 Jun 2019 13:33:07,04 Jun 2019 13:33:07,04 Jun 2019 13:33:07,04 Jun 2019 13:33:07,71,,,,0,52,19,906.3867,0.0,1230.7686,,362,,,0,65536,,
https://s.tremorvideodsp.com/q/video1_small.mp4,COMPLETE,206,https,GET,video/mp4,/127.0.0.1,59013,s.tremorvideodsp.com/23.48.39.112,443,,04 Jun 2019 13:33:07,04 Jun 2019 13:33:07,04 Jun 2019 13:33:07,04 Jun 2019 13:33:07,26,,,,0,6,20,2475.3604,0.0,10666.666,,368,,,0,65536,,
https://s.tremorvideodsp.com/q/video1_small.mp4,COMPLETE,206,https,GET,video/mp4,/127.0.0.1,59015,s.tremorvideodsp.com/23.48.39.112,443,,04 Jun 2019 13:33:07,04 Jun 2019 13:33:07,04 Jun 2019 13:33:07,04 Jun 2019 13:33:07,774,2,8,23,0,722,19,12499.636,0.0,13398.056,986,368,,14959,0,9890599,,
https://s.tremorvideodsp.com/q/video1_small.mp4,COMPLETE,206,https,GET,video/mp4,/127.0.0.1,59013,s.tremorvideodsp.com/23.48.39.112,443,,04 Jun 2019 13:33:07,04 Jun 2019 13:33:07,04 Jun 2019 13:33:07,04 Jun 2019 13:33:07,26,,,,0,7,19,2475.3604,0.0,9142.856,,368,,,0,65536,,
https://jwpltx.com,COMPLETE,200,https,CONNECT,,/127.0.0.1,59017,jwpltx.com/34.195.231.192,443,,04 Jun 2019 13:33:07,,,04 Jun 2019 13:33:40,33307,12,8,42,,,,1.015625,,,1449,0,1204,31731,0,264,,
https://prd.jwpltx.com,COMPLETE,200,https,CONNECT,,/127.0.0.1,59018,prd.jwpltx.com/34.227.137.128,443,,04 Jun 2019 13:33:07,,,04 Jun 2019 13:33:37,30251,49,9,42,,,,0.9296875,,,1469,0,887,26340,0,132,,
https://entitlements.jwplayer.com,COMPLETE,200,https,CONNECT,,/127.0.0.1,59021,entitlements.jwplayer.com/72.21.81.189,443,,04 Jun 2019 13:33:10,,,04 Jun 2019 13:33:41,30880,2,2,77,,,,0.9746094,,,1524,0,317,28535,0,464,,
https://s.tremorvideodsp.com/q/video1_small.mp4,COMPLETE,206,https,GET,video/mp4,/127.0.0.1,59023,s.tremorvideodsp.com/23.48.39.112,443,,04 Jun 2019 13:33:10,04 Jun 2019 13:33:10,04 Jun 2019 13:33:10,04 Jun 2019 13:33:10,60,2,8,22,0,0,28,268.01758,0.0,0.0,1058,358,,15049,0,2,,
https://s.tremorvideodsp.com/q/video1_small.mp4,COMPLETE,206,https,GET,video/mp4,/127.0.0.1,59023,s.tremorvideodsp.com/23.48.39.112,443,,04 Jun 2019 13:33:10,04 Jun 2019 13:33:10,04 Jun 2019 13:33:10,04 Jun 2019 13:33:10,35,,,,0,12,23,1838.6719,0.0,5333.333,,362,,,0,65536,,
https://s.tremorvideodsp.com/q/video1_small.mp4,COMPLETE,206,https,GET,video/mp4,/127.0.0.1,59023,s.tremorvideodsp.com/23.48.39.112,443,,04 Jun 2019 13:33:10,04 Jun 2019 13:33:10,04 Jun 2019 13:33:10,04 Jun 2019 13:33:10,26,,,,0,6,20,2475.3604,0.0,10666.666,,368,,,0,65536,,
https://s.tremorvideodsp.com/q/video1_small.mp4,COMPLETE,206,https,GET,video/mp4,/127.0.0.1,59025,s.tremorvideodsp.com/23.48.39.112,443,com.xk72.proxy.ProxyException: Client closed connection before receiving entire response,04 Jun 2019 13:33:10,04 Jun 2019 13:33:10,04 Jun 2019 13:33:10,04 Jun 2019 13:33:10,216,3,8,25,0,95,85,6520.0645,0.0,14810.649,986,368,,14959,0,1425821,,
https://s.tremorvideodsp.com/q/video1_small.mp4,COMPLETE,206,https,GET,video/mp4,/127.0.0.1,59023,s.tremorvideodsp.com/23.48.39.112,443,,04 Jun 2019 13:33:10,04 Jun 2019 13:33:10,04 Jun 2019 13:33:10,04 Jun 2019 13:33:10,68,,,,0,3,65,946.46094,0.0,21333.332,,368,,,0,65536,,
https://chat-pa.clients6.google.com,RECEIVING_REQUEST_BODY,200,https,CONNECT,,/127.0.0.1,59029,chat-pa.clients6.google.com/172.217.7.10,443,,04 Jun 2019 13:33:41,,,,13434,1,2,,,,,0.037109375,,,517,0,0,,0,0,,
https://chat-pa.clients6.google.com,RECEIVING_REQUEST_BODY,200,https,CONNECT,,/127.0.0.1,59031,chat-pa.clients6.google.com/172.217.7.10,443,,04 Jun 2019 13:33:41,,,,13381,1,3,,,,,0.037109375,,,517,0,0,,0,0,,
