URL,Status,Response Code,Protocol,Method,Content-Type,Client Address,Client Port,Remote Address,Remote Port,Exception,Request Start Time,Request End Time,Response Start Time,Response End Time,Duration (ms),DNS Duration (ms),Connect Duration (ms),SSL Duration (ms),Request Duration (ms),Response Duration (ms),Latency (ms),Speed (KB/s),Request Speed (KB/s),Response Speed (KB/s),Request Handshake Size (bytes),Request Header Size (bytes),Request Body Size (bytes),Response Handshake Size (bytes),Response Header Size (bytes),Response Body Size (bytes),Request Compression,Response Compression
https://ssl.gstatic.com,RECEIVING_REQUEST_BODY,200,https,CONNECT,,/127.0.0.1,58085,ssl.gstatic.com/172.217.12.195,443,,04 Jun 2019 12:52:06,,,,3076044,2,2,4,,,,0.0029296875,,,1608,0,3905,372,0,6368,,
https://ts01-b.cloudsink.net,RECEIVING_REQUEST_BODY,200,https,CONNECT,,/127.0.0.1,58432,ts01-b.cloudsink.net/54.183.142.105,443,,04 Jun 2019 13:22:43,,,,1239291,5,73,173,,,,0.13671875,,,1246,0,125413,17474,0,29730,,
https://14.client-channel.google.com,RECEIVING_RESPONSE_BODY,200,https,CONNECT,,/127.0.0.1,58485,14.client-channel.google.com/74.125.141.189,443,,04 Jun 2019 13:23:54,,,,1168676,53,21,66,,,,0.025390625,,,1179,0,6014,15994,0,8145,,
https://safebrowsing.googleapis.com,COMPLETE,200,https,CONNECT,,/127.0.0.1,59185,safebrowsing.googleapis.com/172.217.10.74,443,,04 Jun 2019 13:39:03,,,04 Jun 2019 13:43:03,240073,2,2,51,,,,0.09667969,,,2892,0,593,19621,0,,,
https://play.google.com,RECEIVING_REQUEST_BODY,200,https,CONNECT,,/127.0.0.1,59217,play.google.com/172.217.10.46,443,,04 Jun 2019 13:41:41,,,,101147,2,2,,,,,0.0048828125,,,517,0,0,,0,0,,
https://play.google.com,RECEIVED_RESPONSE_HEADER,200,https,CONNECT,,/127.0.0.1,59219,play.google.com/172.217.10.46,443,,04 Jun 2019 13:41:41,,,,101118,1,2,,,,,0.0048828125,,,517,0,0,,0,0,,
https://entitlements.jwplayer.com,COMPLETE,200,https,CONNECT,,/127.0.0.1,59221,entitlements.jwplayer.com/72.21.81.189,443,,04 Jun 2019 13:41:51,,,04 Jun 2019 13:42:22,30977,18,2,39,,,,1.1347656,,,1684,0,317,33541,0,464,,
https://s.tremorvideodsp.com/q/video1_small.mp4,COMPLETE,206,https,GET,video/mp4,/127.0.0.1,59222,s.tremorvideodsp.com/23.48.39.121,443,,04 Jun 2019 13:41:51,04 Jun 2019 13:41:51,04 Jun 2019 13:41:51,04 Jun 2019 13:41:51,157,89,9,23,0,0,36,102.42676,0.0,0.0,1058,358,,15049,0,2,,
https://jwpltx.com,COMPLETE,200,https,CONNECT,,/127.0.0.1,59224,jwpltx.com/54.174.103.247,443,,04 Jun 2019 13:41:51,,,04 Jun 2019 13:42:32,41126,6,10,41,,,,0.8261719,,,1609,0,1205,31731,0,264,,
https://s.tremorvideodsp.com/q/video1_small.mp4,COMPLETE,206,https,GET,video/mp4,/127.0.0.1,59222,s.tremorvideodsp.com/23.48.39.121,443,,04 Jun 2019 13:41:51,04 Jun 2019 13:41:51,04 Jun 2019 13:41:51,04 Jun 2019 13:41:51,32,,,,0,11,21,2011.0469,0.0,5818.1816,,362,,,0,65536,,
https://s.tremorvideodsp.com/q/video1_small.mp4,COMPLETE,206,https,GET,video/mp4,/127.0.0.1,59222,s.tremorvideodsp.com/23.48.39.121,443,,04 Jun 2019 13:41:51,04 Jun 2019 13:41:51,04 Jun 2019 13:41:51,04 Jun 2019 13:41:51,28,,,,0,7,21,2298.5488,0.0,9142.856,,368,,,0,65536,,
https://s.tremorvideodsp.com/q/video1_small.mp4,COMPLETE,206,https,GET,video/mp4,/127.0.0.1,59227,s.tremorvideodsp.com/23.48.39.121,443,,04 Jun 2019 13:41:51,04 Jun 2019 13:41:51,04 Jun 2019 13:41:51,04 Jun 2019 13:41:52,524,2,9,24,1,464,24,18463.203,1322.2656,20847.836,986,368,,14959,0,9890599,,
https://s.tremorvideodsp.com/q/video1_small.mp4,COMPLETE,206,https,GET,video/mp4,/127.0.0.1,59222,s.tremorvideodsp.com/23.48.39.121,443,,04 Jun 2019 13:41:51,04 Jun 2019 13:41:51,04 Jun 2019 13:41:51,04 Jun 2019 13:41:51,27,,,,0,6,21,2383.6797,0.0,10666.666,,368,,,0,65536,,
https://adserver.videohub.tv/preview?RI=3ZhjgheYMyplS7aRL2ZxLA&screenType=mobiletablet&rml=true&Uctry=__country__&Ust=__state__&Udma=__dma__&Uzip=__postalCode__&Ucty=__city__&Uctnt=__continent__&Ulong=__longitude__&Ulat=__latitude__&Uacd=__areaCode__&position_ACP=__adChoicesPosition__&usedACP=__usedACP__&dspACP=__adChoicesProviders__&sig=5036761F1F487491C124DE18F691998B&dmps=y&ssRmlApp=1&isApp=y,COMPLETE,200,https,GET,application/xml; charset=utf-8,/127.0.0.1,59229,adserver.videohub.tv/67.226.210.9,443,,04 Jun 2019 13:42:00,04 Jun 2019 13:42:00,04 Jun 2019 13:42:00,04 Jun 2019 13:42:00,52,4,9,25,0,2,12,720.7031,0.0,17901.367,1046,668,,25605,0,11057,,
https://objects-secure.videohub.tv/net/js/rml-app.min.js?adData=https%3A%2F%2Fadserver.videohub.tv%2Fadresponse%3Fkey%3D2f14655e-d06d-4e56-98c5-bea418f7cf24,COMPLETE,200,https,GET,application/javascript,/127.0.0.1,59231,objects-secure.videohub.tv/104.110.215.249,443,,04 Jun 2019 13:42:00,04 Jun 2019 13:42:00,04 Jun 2019 13:42:00,04 Jun 2019 13:42:00,79,29,7,23,0,12,8,1003.2627,0.0,6483.0723,1070,426,,16754,0,62910,,72.6%
https://adserver.videohub.tv/adresponse?key=2f14655e-d06d-4e56-98c5-bea418f7cf24,COMPLETE,200,https,GET,application/xml; charset=utf-8,/127.0.0.1,59229,adserver.videohub.tv/67.226.210.9,443,,04 Jun 2019 13:42:00,04 Jun 2019 13:42:00,04 Jun 2019 13:42:00,04 Jun 2019 13:42:00,13,,,,0,0,13,100.58594,0.0,0.0,,350,,,0,989,,
https://objects-secure.tremormedia.com/net/js/io-polyfill-0.5.1.js,COMPLETE,200,https,GET,application/javascript,/127.0.0.1,59233,objects-secure.tremormedia.com/104.110.194.47,443,,04 Jun 2019 13:42:00,04 Jun 2019 13:42:00,04 Jun 2019 13:42:00,04 Jun 2019 13:42:00,101,59,9,24,0,0,9,237.56543,0.0,0.0,1086,336,,16789,0,6359,,71.5%
https://static-secure.scanscout.com,COMPLETE,200,https,CONNECT,,/127.0.0.1,59235,static-secure.scanscout.com/184.28.89.61,443,,04 Jun 2019 13:42:01,,,04 Jun 2019 13:42:31,30519,53,25,71,,,,1.46875,,,1534,0,900,26243,0,17243,,
https://s.tremorvideodsp.com/q/video1_small.mp4,COMPLETE,206,https,GET,video/mp4,/127.0.0.1,59237,s.tremorvideodsp.com/23.48.39.121,443,,04 Jun 2019 13:42:01,04 Jun 2019 13:42:01,04 Jun 2019 13:42:01,04 Jun 2019 13:42:01,67,1,8,22,0,0,36,240.01562,0.0,0.0,1058,358,,15049,0,2,,
https://s.tremorvideodsp.com/q/video1_small.mp4,COMPLETE,206,https,GET,video/mp4,/127.0.0.1,59237,s.tremorvideodsp.com/23.48.39.121,443,,04 Jun 2019 13:42:01,04 Jun 2019 13:42:01,04 Jun 2019 13:42:01,04 Jun 2019 13:42:01,32,,,,0,11,21,2011.0469,0.0,5818.1816,,362,,,0,65536,,
https://s.tremorvideodsp.com/q/video1_small.mp4,COMPLETE,206,https,GET,video/mp4,/127.0.0.1,59237,s.tremorvideodsp.com/23.48.39.121,443,,04 Jun 2019 13:42:01,04 Jun 2019 13:42:01,04 Jun 2019 13:42:01,04 Jun 2019 13:42:01,24,,,,0,5,19,2681.6406,0.0,12800.0,,368,,,0,65536,,
https://s.tremorvideodsp.com/q/video1_small.mp4,COMPLETE,206,https,GET,video/mp4,/127.0.0.1,59239,s.tremorvideodsp.com/23.48.39.121,443,,04 Jun 2019 13:42:01,04 Jun 2019 13:42:01,04 Jun 2019 13:42:01,04 Jun 2019 13:42:02,605,3,8,21,0,547,26,15991.2705,0.0,17684.453,986,368,,14959,0,9890599,,
https://s.tremorvideodsp.com/q/video1_small.mp4,COMPLETE,206,https,GET,video/mp4,/127.0.0.1,59237,s.tremorvideodsp.com/23.48.39.121,443,,04 Jun 2019 13:42:01,04 Jun 2019 13:42:01,04 Jun 2019 13:42:01,04 Jun 2019 13:42:01,43,,,,0,3,40,1496.7295,0.0,21333.332,,368,,,0,65536,,
https://prd.jwpltx.com,COMPLETE,200,https,CONNECT,,/127.0.0.1,59241,prd.jwpltx.com/34.192.30.112,443,,04 Jun 2019 13:42:02,,,04 Jun 2019 13:42:32,30380,59,9,35,,,,1.1044922,,,1629,0,885,31731,0,132,,
https://entitlements.jwplayer.com,COMPLETE,200,https,CONNECT,,/127.0.0.1,59243,entitlements.jwplayer.com/72.21.81.189,443,,04 Jun 2019 13:42:37,,,04 Jun 2019 13:43:08,30897,2,2,68,,,,1.1376953,,,1684,0,317,33541,0,464,,
https://s.tremorvideodsp.com/q/video1_small.mp4,COMPLETE,206,https,GET,video/mp4,/127.0.0.1,59245,s.tremorvideodsp.com/23.48.39.112,443,,04 Jun 2019 13:42:38,04 Jun 2019 13:42:38,04 Jun 2019 13:42:38,04 Jun 2019 13:42:38,117,51,8,23,0,1,34,137.44434,0.0,14698.242,1058,358,,15049,0,2,,
https://jwpltx.com,COMPLETE,200,https,CONNECT,,/127.0.0.1,59246,jwpltx.com/54.174.103.247,443,,04 Jun 2019 13:42:38,,,04 Jun 2019 13:43:08,30844,2,8,9,,,,0.07324219,,,1075,0,609,515,0,132,,
https://s.tremorvideodsp.com/q/video1_small.mp4,COMPLETE,206,https,GET,video/mp4,/127.0.0.1,59245,s.tremorvideodsp.com/23.48.39.112,443,,04 Jun 2019 13:42:38,04 Jun 2019 13:42:38,04 Jun 2019 13:42:38,04 Jun 2019 13:42:38,38,,,,0,12,26,1693.5127,0.0,5333.333,,362,,,0,65536,,
https://s.tremorvideodsp.com/q/video1_small.mp4,COMPLETE,206,https,GET,video/mp4,/127.0.0.1,59245,s.tremorvideodsp.com/23.48.39.112,443,,04 Jun 2019 13:42:38,04 Jun 2019 13:42:38,04 Jun 2019 13:42:38,04 Jun 2019 13:42:38,31,,,,0,8,23,2076.1084,0.0,8000.0,,368,,,0,65536,,
https://s.tremorvideodsp.com/q/video1_small.mp4,COMPLETE,206,https,GET,video/mp4,/127.0.0.1,59249,s.tremorvideodsp.com/23.48.39.112,443,com.xk72.proxy.ProxyException: Client closed connection before receiving entire response,04 Jun 2019 13:42:38,04 Jun 2019 13:42:38,04 Jun 2019 13:42:38,04 Jun 2019 13:42:38,178,2,8,27,0,119,22,6479.4043,0.0,9680.7705,986,368,,14959,0,1164701,,
https://s.tremorvideodsp.com/q/video1_small.mp4,COMPLETE,206,https,GET,video/mp4,/127.0.0.1,59245,s.tremorvideodsp.com/23.48.39.112,443,,04 Jun 2019 13:42:38,04 Jun 2019 13:42:38,04 Jun 2019 13:42:38,04 Jun 2019 13:42:38,33,,,,0,8,25,1950.2832,0.0,8000.0,,368,,,0,65536,,
