URL,Status,Response Code,Protocol,Method,Content-Type,Client Address,Client Port,Remote Address,Remote Port,Exception,Request Start Time,Request End Time,Response Start Time,Response End Time,Duration (ms),DNS Duration (ms),Connect Duration (ms),SSL Duration (ms),Request Duration (ms),Response Duration (ms),Latency (ms),Speed (KB/s),Request Speed (KB/s),Response Speed (KB/s),Request Handshake Size (bytes),Request Header Size (bytes),Request Body Size (bytes),Response Handshake Size (bytes),Response Header Size (bytes),Response Body Size (bytes),Request Compression,Response Compression
https://ssl.gstatic.com,COMPLETE,200,https,CONNECT,,/127.0.0.1,49865,ssl.gstatic.com/172.217.12.195,443,,03 Jun 2019 13:26:30,,,03 Jun 2019 14:27:47,3677821,2,2,53,,,,0.009765625,,,1487,0,6253,18780,0,11122,,
https://14.client-channel.google.com,COMPLETE,200,https,CONNECT,,/127.0.0.1,49902,14.client-channel.google.com/74.125.192.189,443,,03 Jun 2019 13:26:34,,,03 Jun 2019 14:27:42,3667549,65,39,96,,,,0.017578125,,,1552,0,22171,16009,0,27946,,
https://ts01-b.cloudsink.net,COMPLETE,200,https,CONNECT,,/127.0.0.1,50767,ts01-b.cloudsink.net/54.183.142.105,443,,03 Jun 2019 14:19:31,,,03 Jun 2019 14:27:53,502024,113,72,174,,,,0.14550781,,,1246,0,43732,17474,0,12418,,
https://mail.google.com,COMPLETE,200,https,CONNECT,,/127.0.0.1,50784,mail.google.com/172.217.10.37,443,,03 Jun 2019 14:26:31,,,03 Jun 2019 14:28:44,132752,1,2,3,,,,0.2109375,,,2207,0,2895,372,0,,,
https://clients6.google.com,COMPLETE,200,https,CONNECT,,/127.0.0.1,50786,clients6.google.com/172.217.10.14,443,,03 Jun 2019 14:26:33,,,03 Jun 2019 14:28:34,120970,35,2,40,,,,0.18945312,,,2892,0,1212,18780,0,,,
https://clients6.google.com,COMPLETE,200,https,CONNECT,,/127.0.0.1,50788,clients6.google.com/172.217.10.14,443,,03 Jun 2019 14:26:33,,,03 Jun 2019 14:28:44,130568,1,2,41,,,,0.1796875,,,2892,0,1750,18784,0,,,
https://people-pa.clients6.google.com,COMPLETE,200,https,CONNECT,,/127.0.0.1,50790,people-pa.clients6.google.com/172.217.10.10,443,,03 Jun 2019 14:26:33,,,03 Jun 2019 14:28:34,120704,36,2,44,,,,0.19628906,,,2892,0,1194,19625,0,,,
https://people-pa.clients6.google.com,COMPLETE,200,https,CONNECT,,/127.0.0.1,50792,people-pa.clients6.google.com/172.217.10.10,443,,03 Jun 2019 14:26:33,,,03 Jun 2019 14:28:44,130296,1,2,40,,,,0.19042969,,,2892,0,1980,19625,0,,,
https://play.google.com,COMPLETE,200,https,CONNECT,,/127.0.0.1,50794,play.google.com/172.217.10.46,443,,03 Jun 2019 14:26:45,,,03 Jun 2019 14:30:35,229465,2,2,3,,,,0.017578125,,,2207,0,1165,372,0,,,
https://play.google.com,COMPLETE,200,https,CONNECT,,/127.0.0.1,50796,play.google.com/172.217.10.46,443,,03 Jun 2019 14:26:45,,,03 Jun 2019 14:30:44,238918,1,2,2,,,,0.0390625,,,2207,0,4401,372,0,2626,,
https://14.client-channel.google.com,RECEIVING_RESPONSE_BODY,200,https,CONNECT,,/127.0.0.1,50798,14.client-channel.google.com/74.125.192.189,443,,03 Jun 2019 14:27:42,,,,188340,38,33,34,,,,0.033203125,,,1608,0,1439,372,0,3033,,
https://chat-pa.clients6.google.com,RECEIVING_REQUEST_BODY,200,https,CONNECT,,/127.0.0.1,50800,chat-pa.clients6.google.com/172.217.12.202,443,,03 Jun 2019 14:27:47,,,,182828,56,2,41,,,,0.12597656,,,2251,0,1272,19621,0,574,,
https://adserver.videohub.tv/preview?RI=0qVDB4RQ6XxaPtPJ6LvNPw&screenType=mobiletablet&rml=true&Uctry=__country__&Ust=__state__&Udma=__dma__&Uzip=__postalCode__&Ucty=__city__&Uctnt=__continent__&Ulong=__longitude__&Ulat=__latitude__&Uacd=__areaCode__&position_ACP=__adChoicesPosition__&usedACP=__usedACP__&dspACP=__adChoicesProviders__&sig=EB3C0E79452040BDF67C3F14F44A81FE&CI=EQRLslwxeX0ah-b4ofuB8A&dmps=y&ssRmlApp=1&isApp=y,COMPLETE,200,https,GET,application/xml; charset=utf-8,/127.0.0.1,50801,adserver.videohub.tv/67.226.210.10,443,,03 Jun 2019 14:27:47,03 Jun 2019 14:27:48,03 Jun 2019 14:27:48,03 Jun 2019 14:27:48,134,63,10,31,0,11,19,309.86133,0.0,3620.205,1046,694,,25605,0,15173,,
https://chat-pa.clients6.google.com,RECEIVING_REQUEST_BODY,200,https,CONNECT,,/127.0.0.1,50804,chat-pa.clients6.google.com/172.217.12.202,443,,03 Jun 2019 14:27:48,,,,182691,1,3,41,,,,0.13769531,,,2251,0,2671,19621,0,1267,,
https://objects-secure.videohub.tv/net/js/rml-app.min.js?adData=https%3A%2F%2Fadserver.videohub.tv%2Fadresponse%3Fkey%3Dbbfad26a-9a07-4a01-a667-5a56783525a5,COMPLETE,200,https,GET,application/javascript,/127.0.0.1,50806,objects-secure.videohub.tv/104.110.215.249,443,,03 Jun 2019 14:27:48,03 Jun 2019 14:27:48,03 Jun 2019 14:27:48,03 Jun 2019 14:27:48,119,63,9,25,0,13,9,666.03125,0.0,5984.375,1070,426,,16754,0,62910,,72.6%
https://adserver.videohub.tv/adresponse?key=bbfad26a-9a07-4a01-a667-5a56783525a5,COMPLETE,200,https,GET,application/xml; charset=utf-8,/127.0.0.1,50801,adserver.videohub.tv/67.226.210.10,443,,03 Jun 2019 14:27:48,03 Jun 2019 14:27:48,03 Jun 2019 14:27:48,03 Jun 2019 14:27:48,17,,,,0,1,16,76.86035,0.0,964.84375,,350,,,0,988,,
https://objects-secure.tremormedia.com/net/js/io-polyfill-0.5.1.js,COMPLETE,200,https,GET,application/javascript,/127.0.0.1,50808,objects-secure.tremormedia.com/104.110.194.47,443,,03 Jun 2019 14:27:48,03 Jun 2019 14:27:48,03 Jun 2019 14:27:48,03 Jun 2019 14:27:48,143,102,9,23,0,0,9,167.79102,0.0,0.0,1086,336,,16789,0,6359,,71.5%
https://static-secure.scanscout.com,COMPLETE,200,https,CONNECT,,/127.0.0.1,50810,static-secure.scanscout.com/184.28.89.61,443,,03 Jun 2019 14:27:48,,,03 Jun 2019 14:28:01,12773,88,26,73,,,,177.51562,,,1158,0,1810,22279,0,2296583,,
https://static-secure.scanscout.com,COMPLETE,200,https,CONNECT,,/127.0.0.1,50812,static-secure.scanscout.com/184.28.89.61,443,,03 Jun 2019 14:27:49,,,03 Jun 2019 14:28:01,12278,2,26,28,,,,1.4580078,,,705,0,455,339,0,16835,,
https://prd.jwpltx.com,COMPLETE,200,https,CONNECT,,/127.0.0.1,50814,prd.jwpltx.com/54.174.103.247,443,,03 Jun 2019 14:27:49,,,03 Jun 2019 14:28:01,12097,36,9,75,,,,2.3134766,,,1106,0,1082,26340,0,132,,
https://s.tremorvideodsp.com/q/qa1.js?param1=creative_impression,COMPLETE,200,https,GET,application/x-javascript,/127.0.0.1,50815,s.tremorvideodsp.com/208.185.118.154,443,,03 Jun 2019 14:27:49,03 Jun 2019 14:27:49,03 Jun 2019 14:27:49,03 Jun 2019 14:27:49,106,3,10,27,0,0,66,153.86328,0.0,0.0,1046,334,,15049,0,272,,
https://dt-secure.videohub.tv/v1/usync/ironsource?userId=,COMPLETE,303,https,GET,image/gif,/127.0.0.1,50817,dt-secure.videohub.tv/67.226.210.15,443,,03 Jun 2019 14:27:49,03 Jun 2019 14:27:49,03 Jun 2019 14:27:49,03 Jun 2019 14:27:49,74,5,10,47,0,1,11,360.89258,0.0,25304.688,1050,385,,25869,0,43,,
https://sync.doubleverify.com/query.gif?ctx=42674&cmp=2311460&DVP_CMPID=3502466&DVP_PUBID=&dvp_red=http%3A%2F%2Fads.videohub.tv%2Fssframework%2Fdt%2Fbotid%3Fa%3Dset%26DUID%3D1,COMPLETE,200,https,GET,image/gif,/127.0.0.1,50818,sync.doubleverify.com/204.154.111.224,443,,03 Jun 2019 14:27:49,03 Jun 2019 14:27:49,03 Jun 2019 14:27:49,03 Jun 2019 14:27:49,48,36,2,3,1,0,6,49.58008,1203.125,0.0,729,503,,345,0,860,,-6.6%
https://tps30.doubleverify.com/visit.jpg?ctx=42674&cmp=2256325&sid=1111&plc=22563261&num=&adid=&advid=498259&adsrv=41&region=30&btreg=&btadsrv=&crt=&crtname=&chnl=&unit=&pid=&uid=&dvtagver=6.1.img&DVP_CMPID=3502466&DVP_PUBID=&turl=tremorvideodsp.com,COMPLETE,200,https,GET,image/jpeg,/127.0.0.1,50820,tps30.doubleverify.com/204.154.111.120,443,,03 Jun 2019 14:27:49,03 Jun 2019 14:27:49,03 Jun 2019 14:27:50,03 Jun 2019 14:27:50,686,216,2,10,0,121,337,37.15332,0.0,196.44238,1182,577,,24198,0,142,,53.4%
https://tags.bluekai.com/site/2954,COMPLETE,200,https,GET,,/127.0.0.1,50821,tags.bluekai.com/96.7.23.53,443,,03 Jun 2019 14:27:49,03 Jun 2019 14:27:49,03 Jun 2019 14:27:49,03 Jun 2019 14:27:49,209,87,11,33,0,0,78,71.069336,0.0,0.0,1030,362,,13818,0,0,,
https://tp.videohub.tv/v1/topprop.png?domain=&ui=&pri=28beb472-f301-4398-9e80-614c247f8f68&ssRnd=1739091001,COMPLETE,200,https,GET,image/png,/127.0.0.1,50823,tp.videohub.tv/67.226.210.12,443,,03 Jun 2019 14:27:49,03 Jun 2019 14:27:49,03 Jun 2019 14:27:49,03 Jun 2019 14:27:49,86,36,8,30,0,0,12,310.78516,0.0,0.0,1022,435,,25869,0,43,,
"https://secure-gl.imrworldwide.com/cgi-bin/m?ci=nlsnapi12535&am=4&ep=1&at=view&rt=banner&st=image&ca=3500226_000&cr=&pc=3502466&r=658995844&c7=osgrp,iOS&c8=devgrp,TAB&c9=devid,unknown&c10=plt,MBL&c12=apv,12.1&c13=asid,PF85C1805-9397-D9CB-E040-070AAD31777E&c14=osver,12.1",COMPLETE,200,https,GET,image/gif,/127.0.0.1,50824,secure-gl.imrworldwide.com/99.84.127.41,443,,03 Jun 2019 14:27:49,03 Jun 2019 14:27:49,03 Jun 2019 14:27:49,03 Jun 2019 14:27:49,104,71,1,10,0,0,22,169.90234,0.0,0.0,1070,598,,16382,0,44,,
https://l0-secure.videohub.tv/ssframework/log/log.png?EC=3&a=logitemaction&nolog=1&ssPD=tremorvideodsp.com&Uzip=__postalCode__&CI=3502466&ADI=7871906&PRI=28beb472-f301-4398-9e80-614c247f8f68&Udma=__dma__&ssMLVer=rml_app_1.9.0&Uctry=__country__&AVI=425726&ssASVer=2.0&PBI=3500226&RI=1&Ust=__state__&NI=1344&admode=preroll&ssDsC=mobiletablet&ssRnd=1446400020&SfF=true&dspPartnerFee=vi-moatgroupm:0.0001500000;rp-nielsen:0.0099800000&AmN=1&ssBe=1&adFocus=true&RvN=1,COMPLETE,200,https,GET,image/gif,/127.0.0.1,50826,l0-secure.videohub.tv/67.226.210.15,443,,03 Jun 2019 14:27:49,03 Jun 2019 14:27:49,03 Jun 2019 14:27:49,03 Jun 2019 14:27:49,87,35,10,29,1,1,11,311.51172,1796.875,25304.688,1050,790,,25869,0,43,,
https://s.tremorvideodsp.com/q/qa.gif?param1=mobile_screen_impression,COMPLETE,200,https,GET,image/gif,/127.0.0.1,50829,s.tremorvideodsp.com/208.185.118.154,443,,03 Jun 2019 14:27:49,03 Jun 2019 14:27:49,03 Jun 2019 14:27:49,03 Jun 2019 14:27:49,85,2,10,30,0,1,42,188.2461,0.0,14650.391,986,397,,14959,0,43,,
https://s.tremorvideodsp.com/q/qa.gif?param1=creative_impression,COMPLETE,200,https,GET,image/gif,/127.0.0.1,50830,s.tremorvideodsp.com/208.185.118.154,443,,03 Jun 2019 14:27:49,03 Jun 2019 14:27:49,03 Jun 2019 14:27:49,03 Jun 2019 14:27:49,91,4,10,30,0,0,47,175.78125,0.0,0.0,986,392,,14959,0,43,,
https://s.tremorvideodsp.com/q/qa1.js?param1=impression,COMPLETE,200,https,GET,application/x-javascript,/127.0.0.1,50832,s.tremorvideodsp.com/208.185.118.154,443,,03 Jun 2019 14:27:49,03 Jun 2019 14:27:49,03 Jun 2019 14:27:49,03 Jun 2019 14:27:49,83,1,10,29,1,1,41,195.3125,1336.9141,14874.023,986,383,,14959,0,272,,
https://s.tremorvideodsp.com/q/qa.gif?param1=impression,COMPLETE,200,https,GET,image/gif,/127.0.0.1,50831,s.tremorvideodsp.com/208.185.118.154,443,,03 Jun 2019 14:27:49,03 Jun 2019 14:27:49,03 Jun 2019 14:27:49,03 Jun 2019 14:27:49,77,3,9,27,0,0,38,207.62695,0.0,0.0,986,383,,14959,0,43,,
https://dt-secure.videohub.tv/v1/usync/bs?userId=,COMPLETE,303,https,GET,image/gif,/127.0.0.1,50840,dt-secure.videohub.tv/67.226.210.15,443,,03 Jun 2019 14:27:49,03 Jun 2019 14:27:49,03 Jun 2019 14:27:49,03 Jun 2019 14:27:49,46,1,9,26,0,0,10,579.1221,0.0,0.0,990,377,,25869,0,43,,
https://dt-secure.videohub.tv/v1/usync/rubicon?userId=,COMPLETE,303,https,GET,image/gif,/127.0.0.1,50843,dt-secure.videohub.tv/67.226.210.15,443,,03 Jun 2019 14:27:49,03 Jun 2019 14:27:49,03 Jun 2019 14:27:49,03 Jun 2019 14:27:49,56,2,9,32,0,0,13,475.79492,0.0,0.0,990,382,,25869,0,43,,
https://dt-secure.videohub.tv/v1/usync/lkqd_direct?userId=,COMPLETE,303,https,GET,image/gif,/127.0.0.1,50841,dt-secure.videohub.tv/67.226.210.15,443,,03 Jun 2019 14:27:49,03 Jun 2019 14:27:49,03 Jun 2019 14:27:49,03 Jun 2019 14:27:49,65,3,10,40,0,0,12,409.9756,0.0,0.0,990,386,,25869,0,43,,
https://dt-secure.videohub.tv/v1/usync/springserve?userId=,COMPLETE,303,https,GET,image/gif,/127.0.0.1,50844,dt-secure.videohub.tv/67.226.210.15,443,,03 Jun 2019 14:27:49,03 Jun 2019 14:27:49,03 Jun 2019 14:27:49,03 Jun 2019 14:27:49,69,4,9,41,0,0,15,386.20898,0.0,0.0,990,386,,25869,0,43,,
https://sync.doubleverify.com/query.gif?ctx=42674&cmp=2256325&DVP_CMPID=3502466&DVP_PUBID=&dvp_red=http%3A%2F%2Fapp.scanscout.com%2Fssframework%2Fdt%2Fbotid%3Fa%3Dset%26DUID%3D1,COMPLETE,200,https,GET,image/gif,/127.0.0.1,50839,sync.doubleverify.com/204.154.111.224,443,,03 Jun 2019 14:27:49,03 Jun 2019 14:27:49,03 Jun 2019 14:27:49,03 Jun 2019 14:27:49,12,1,3,3,0,1,4,194.82422,0.0,1176.7578,684,505,,345,0,860,,-6.6%
https://dt-secure.videohub.tv/v1/usync/pubmatic?userId=,COMPLETE,303,https,GET,image/gif,/127.0.0.1,50842,dt-secure.videohub.tv/67.226.210.15,443,,03 Jun 2019 14:27:49,03 Jun 2019 14:27:49,03 Jun 2019 14:27:49,03 Jun 2019 14:27:49,69,1,11,41,0,0,16,386.16602,0.0,0.0,990,383,,25869,0,43,,
https://dt-secure.videohub.tv/v1/usync/spx?userId=,COMPLETE,303,https,GET,image/gif,/127.0.0.1,50817,dt-secure.videohub.tv/67.226.210.15,443,,03 Jun 2019 14:27:49,03 Jun 2019 14:27:49,03 Jun 2019 14:27:49,03 Jun 2019 14:27:49,12,,,,0,1,11,34.260742,0.0,41.992188,,378,,,0,43,,
https://dt-secure.videohub.tv/v1/usync/rhythmone?userId=,COMPLETE,303,https,GET,image/gif,/127.0.0.1,50817,dt-secure.videohub.tv/67.226.210.15,443,,03 Jun 2019 14:27:49,03 Jun 2019 14:27:49,03 Jun 2019 14:27:49,03 Jun 2019 14:27:49,11,,,,0,0,11,37.908203,0.0,0.0,,384,,,0,43,,
https://cs.rtb-seller.com,COMPLETE,200,https,CONNECT,,/127.0.0.1,50852,cs.rtb-seller.com/34.235.49.76,443,,03 Jun 2019 14:27:49,,,03 Jun 2019 14:28:01,11709,5,9,152,,,,2.3232422,,,1118,0,388,26180,0,170,,
https://sync.search.spotxchange.com,COMPLETE,200,https,CONNECT,,/127.0.0.1,50854,sync.search.spotxchange.com/192.35.249.120,443,,03 Jun 2019 14:27:49,,,03 Jun 2019 14:28:01,11750,87,10,202,,,,1.6357422,,,1158,0,886,16383,0,1260,,
https://dt-secure.videohub.tv/v1/usync/tr?userId=,COMPLETE,303,https,GET,image/gif,/127.0.0.1,50817,dt-secure.videohub.tv/67.226.210.15,443,,03 Jun 2019 14:27:49,03 Jun 2019 14:27:49,03 Jun 2019 14:27:49,03 Jun 2019 14:27:49,10,,,,0,0,10,41.015625,0.0,0.0,,377,,,0,43,,
https://dt-secure.videohub.tv/ssframework/tvuid?a=set&UI=,COMPLETE,400,https,GET,image/gif,/127.0.0.1,50840,dt-secure.videohub.tv/67.226.210.15,443,,03 Jun 2019 14:27:49,03 Jun 2019 14:27:49,03 Jun 2019 14:27:49,03 Jun 2019 14:27:49,12,,,,0,0,12,34.83008,0.0,0.0,,385,,,0,43,,
https://dt-secure.videohub.tv/v1/usync/ex?userId=,COMPLETE,303,https,GET,image/gif,/127.0.0.1,50843,dt-secure.videohub.tv/67.226.210.15,443,,03 Jun 2019 14:27:49,03 Jun 2019 14:27:49,03 Jun 2019 14:27:49,03 Jun 2019 14:27:49,12,,,,0,0,12,34.179688,0.0,0.0,,377,,,0,43,,
https://l0-secure.videohub.tv/ssframework/log/log.png?EC=7&a=logitemaction&nolog=1&ssPD=tremorvideodsp.com&Uzip=__postalCode__&CI=3502466&ADI=7871906&PRI=28beb472-f301-4398-9e80-614c247f8f68&Udma=__dma__&ssMLVer=rml_app_1.9.0&Uctry=__country__&AVI=425726&ssASVer=2.0&PBI=3500226&RI=1&Ust=__state__&NI=1344&admode=preroll&ssDsC=mobiletablet&ssRnd=1278596127&Eipct=0&EvaF=1&EiN=1,COMPLETE,200,https,GET,image/gif,/127.0.0.1,50855,l0-secure.videohub.tv/67.226.210.15,443,,03 Jun 2019 14:27:49,03 Jun 2019 14:27:49,03 Jun 2019 14:27:49,03 Jun 2019 14:27:49,52,1,9,31,0,0,11,518.45996,0.0,0.0,990,705,,25869,0,43,,
https://dt-secure.videohub.tv/v1/usync/lo?userId=,COMPLETE,303,https,GET,image/gif,/127.0.0.1,50842,dt-secure.videohub.tv/67.226.210.15,443,,03 Jun 2019 14:27:49,03 Jun 2019 14:27:49,03 Jun 2019 14:27:49,03 Jun 2019 14:27:49,13,,,,0,1,12,31.549805,0.0,41.992188,,377,,,0,43,,
https://dt-secure.videohub.tv/v1/usync/dd?userId=,COMPLETE,303,https,GET,image/gif,/127.0.0.1,50817,dt-secure.videohub.tv/67.226.210.15,443,,03 Jun 2019 14:27:49,03 Jun 2019 14:27:49,03 Jun 2019 14:27:49,03 Jun 2019 14:27:49,10,,,,0,0,10,41.015625,0.0,0.0,,377,,,0,43,,
https://sync.1rx.io,COMPLETE,200,https,CONNECT,,/127.0.0.1,50856,sync.1rx.io/8.41.222.150,443,,03 Jun 2019 14:27:49,,,03 Jun 2019 14:28:01,11689,35,2,179,,,,2.3164062,,,1094,0,796,24907,0,936,,
https://dt-secure.videohub.tv/v1/usync/ds?userId=,COMPLETE,303,https,GET,image/gif,/127.0.0.1,50841,dt-secure.videohub.tv/67.226.210.15,443,,03 Jun 2019 14:27:49,03 Jun 2019 14:27:49,03 Jun 2019 14:27:49,03 Jun 2019 14:27:49,12,,,,0,0,12,34.179688,0.0,0.0,,377,,,0,43,,
https://pixel.rubiconproject.com,COMPLETE,200,https,CONNECT,,/127.0.0.1,50859,pixel.rubiconproject.com/8.43.72.97,443,,03 Jun 2019 14:27:49,,,03 Jun 2019 14:28:01,11591,113,9,201,,,,1.6757812,,,1170,0,890,16516,0,1322,,
https://dt-secure.videohub.tv/v1/usync/lrjs?userId=,COMPLETE,303,https,GET,image/gif,/127.0.0.1,50844,dt-secure.videohub.tv/67.226.210.15,443,,03 Jun 2019 14:27:49,03 Jun 2019 14:27:49,03 Jun 2019 14:27:49,03 Jun 2019 14:27:49,14,,,,0,0,14,29.435547,0.0,0.0,,379,,,0,43,,
https://x.bidswitch.net,COMPLETE,200,https,CONNECT,,/127.0.0.1,50858,x.bidswitch.net/35.190.162.35,443,,03 Jun 2019 14:27:49,,,03 Jun 2019 14:28:00,10661,260,21,157,,,,3.5332031,,,1146,0,405,36284,0,743,,
https://dt-secure.videohub.tv/v1/usync/db?userId=&deviceId=unknown&screenType=mobiletablet&osType=iOS&rand=658995844,COMPLETE,303,https,GET,image/gif,/127.0.0.1,50840,dt-secure.videohub.tv/67.226.210.15,443,,03 Jun 2019 14:27:49,03 Jun 2019 14:27:49,03 Jun 2019 14:27:49,03 Jun 2019 14:27:49,10,,,,0,1,9,47.558594,0.0,41.992188,,444,,,0,43,,
https://cs.lkqd.net,COMPLETE,200,https,CONNECT,,/127.0.0.1,50863,cs.lkqd.net/146.20.129.41,443,,03 Jun 2019 14:27:49,,,03 Jun 2019 14:28:01,11564,9,10,189,,,,3.7041016,,,995,0,396,42000,0,482,,
https://simage2.pubmatic.com,COMPLETE,200,https,CONNECT,,/127.0.0.1,50860,simage2.pubmatic.com/162.248.19.147,443,,03 Jun 2019 14:27:49,,,03 Jun 2019 14:28:01,11564,49,2,206,,,,1.8291016,,,1130,0,455,19257,0,827,,
https://dt-secure.videohub.tv/v1/usync/kx?userId=,COMPLETE,303,https,GET,image/gif,/127.0.0.1,50843,dt-secure.videohub.tv/67.226.210.15,443,,03 Jun 2019 14:27:49,03 Jun 2019 14:27:49,03 Jun 2019 14:27:49,03 Jun 2019 14:27:49,16,,,,0,0,16,25.634766,0.0,0.0,,377,,,0,43,,
https://partners.tremorhub.com,COMPLETE,200,https,CONNECT,,/127.0.0.1,50861,partners.tremorhub.com/107.21.43.184,443,,03 Jun 2019 14:27:49,,,03 Jun 2019 14:28:01,11555,9,9,188,,,,2.4228516,,,1138,0,387,26630,0,516,,
https://dt-secure.videohub.tv/v1/usync/bk?userId=,COMPLETE,303,https,GET,image/gif,/127.0.0.1,50817,dt-secure.videohub.tv/67.226.210.15,443,,03 Jun 2019 14:27:49,03 Jun 2019 14:27:49,03 Jun 2019 14:27:49,03 Jun 2019 14:27:49,11,,,,0,0,11,37.286133,0.0,0.0,,377,,,0,43,,
https://dt-secure.videohub.tv/v1/usync/lr?userId=,COMPLETE,303,https,GET,image/gif,/127.0.0.1,50842,dt-secure.videohub.tv/67.226.210.15,443,,03 Jun 2019 14:27:49,03 Jun 2019 14:27:49,03 Jun 2019 14:27:49,03 Jun 2019 14:27:49,15,,,,0,0,15,27.34375,0.0,0.0,,377,,,0,43,,
https://dt-secure.videohub.tv/v1/usync/al?userId=,COMPLETE,303,https,GET,image/gif,/127.0.0.1,50841,dt-secure.videohub.tv/67.226.210.15,443,,03 Jun 2019 14:27:49,03 Jun 2019 14:27:49,03 Jun 2019 14:27:49,03 Jun 2019 14:27:49,12,,,,0,1,11,34.179688,0.0,41.992188,,377,,,0,43,,
https://sync.springserve.com,COMPLETE,200,https,CONNECT,,/127.0.0.1,50865,sync.springserve.com/18.214.171.42,443,,03 Jun 2019 14:27:49,,,03 Jun 2019 14:28:01,11543,59,9,183,,,,2.3691406,,,1130,0,397,26275,0,212,,
https://dt-secure.videohub.tv/v1/usync/ns?userId=,COMPLETE,303,https,GET,image/gif,/127.0.0.1,50844,dt-secure.videohub.tv/67.226.210.15,443,,03 Jun 2019 14:27:49,03 Jun 2019 14:27:49,03 Jun 2019 14:27:49,03 Jun 2019 14:27:49,15,,,,0,0,15,27.34375,0.0,0.0,,377,,,0,43,,
https://tps30.doubleverify.com/visit.jpg?ctx=42674&cmp=DV069178&sid=1111&plc=2018011501&advid=3819603&adsrv=0&tagtype=&dvtagver=6.1.img&DVP_PP_REP=1&DVP_IQM_ID=16&DVP_DV_TT=2&DVP_DV_CT=2&DVP_TR_SSP=&DVP_TR_PUB=[PUBLISHER_ID]&DVP_TR_SITE=[SUPPLY_ID]&DVP_TR_ADV=425726&DVP_TR_CMP=3502466&DVP_TR_PLC=3502466&turl=tremorvideodsp.com&DVP_PP_BUNDLE_ID=&DVP_TR_COST=,COMPLETE,200,https,GET,image/jpeg,/127.0.0.1,50867,tps30.doubleverify.com/204.154.111.120,443,,03 Jun 2019 14:27:49,03 Jun 2019 14:27:49,03 Jun 2019 14:27:50,03 Jun 2019 14:27:50,461,1,2,3,0,87,368,3.9033203,0.0,5.263672,687,687,,327,0,142,,53.4%
https://idpix.media6degrees.com,COMPLETE,200,https,CONNECT,,/127.0.0.1,50870,idpix.media6degrees.com/204.2.197.211,443,,03 Jun 2019 14:27:49,,,03 Jun 2019 14:27:50,314,61,2,182,,,,83.31836,,,1514,0,431,24075,0,770,,
https://objects-secure.tremormedia.com/net/js/lr.js?partner_id=7e95e49f1618480281adf73d50d02d03,COMPLETE,200,https,GET,application/javascript,/127.0.0.1,50808,objects-secure.tremormedia.com/104.110.194.47,443,,03 Jun 2019 14:27:49,03 Jun 2019 14:27:49,03 Jun 2019 14:27:49,03 Jun 2019 14:27:49,9,,,,0,0,9,130.3164,0.0,0.0,,423,,,0,778,,57.1%
https://dpm.demdex.net,COMPLETE,200,https,CONNECT,,/127.0.0.1,50871,dpm.demdex.net/34.203.183.189,443,,03 Jun 2019 14:27:49,,,03 Jun 2019 14:28:01,11506,9,9,190,,,,1.5458984,,,1106,0,804,15150,0,1155,,
https://bcp.crwdcntrl.net,COMPLETE,200,https,CONNECT,,/127.0.0.1,50872,bcp.crwdcntrl.net/54.88.194.238,443,,03 Jun 2019 14:27:49,,,03 Jun 2019 14:28:01,11506,42,9,171,,,,2.4257812,,,1118,0,797,25880,0,792,,
https://loadm.exelator.com,COMPLETE,200,https,CONNECT,,/127.0.0.1,50869,loadm.exelator.com/147.75.39.192,443,,03 Jun 2019 14:27:49,,,03 Jun 2019 14:28:00,10498,67,2,190,,,,3.2314453,,,1122,0,816,31294,0,1513,,
https://p.adsymptotic.com,COMPLETE,200,https,CONNECT,,/127.0.0.1,50876,p.adsymptotic.com/52.54.127.128,443,,03 Jun 2019 14:27:49,,,03 Jun 2019 14:28:01,11539,75,9,174,,,,1.6025391,,,1118,0,942,15965,0,920,,
https://idsync.rlcdn.com,COMPLETE,200,https,CONNECT,,/127.0.0.1,50880,idsync.rlcdn.com/34.95.92.78,443,,03 Jun 2019 14:27:49,,,03 Jun 2019 14:28:01,11435,6,2,182,,,,2.3457031,,,1015,0,838,24510,0,1107,,
https://beacon.krxd.net,COMPLETE,200,https,CONNECT,,/127.0.0.1,50881,beacon.krxd.net/54.243.110.121,443,,03 Jun 2019 14:27:49,,,03 Jun 2019 14:28:01,11480,38,9,180,,,,2.3671875,,,1110,0,414,25825,0,482,,
https://stags.bluekai.com,COMPLETE,200,https,CONNECT,,/127.0.0.1,50879,stags.bluekai.com/96.7.23.53,443,,03 Jun 2019 14:27:49,,,03 Jun 2019 14:28:01,11435,86,11,159,,,,1.7451172,,,1118,0,459,18078,0,782,,
https://sync.alphonso.tv,COMPLETE,200,https,CONNECT,,/127.0.0.1,50882,sync.alphonso.tv/104.129.168.238,443,,03 Jun 2019 14:27:49,,,03 Jun 2019 14:28:01,11475,35,5,167,,,,2.1347656,,,1114,0,391,23119,0,471,,
https://aa.agkn.com,COMPLETE,200,https,CONNECT,,/127.0.0.1,50887,aa.agkn.com/156.154.200.36,443,,03 Jun 2019 14:27:49,,,03 Jun 2019 14:27:50,286,44,22,173,,,,78.96777,,,1454,0,402,20762,0,509,,
https://pippio.com,COMPLETE,200,https,CONNECT,,/127.0.0.1,50894,pippio.com/107.178.254.65,443,,03 Jun 2019 14:27:50,,,03 Jun 2019 14:28:01,11255,5,2,17,,,,2.3291016,,,991,0,751,23570,0,1536,,
https://d.agkn.com,COMPLETE,200,https,CONNECT,,/127.0.0.1,50896,d.agkn.com/34.232.123.151,443,,03 Jun 2019 14:27:50,,,03 Jun 2019 14:28:01,11112,8,9,37,,,,2.0029297,,,1090,0,384,20750,0,572,,
https://bsw.digitru.st,COMPLETE,200,https,CONNECT,,/127.0.0.1,50898,bsw.digitru.st/35.190.162.35,443,,03 Jun 2019 14:27:50,,,03 Jun 2019 14:28:00,10296,62,22,64,,,,3.5419922,,,1142,0,405,35144,0,658,,
https://cm.g.doubleclick.net,COMPLETE,200,https,CONNECT,,/127.0.0.1,50899,cm.g.doubleclick.net/172.217.10.226,443,,03 Jun 2019 14:27:50,,,03 Jun 2019 14:28:01,11082,43,2,54,,,,1.4775391,,,1031,0,424,14345,0,969,,
https://dt-secure.videohub.tv/v1/uid?UIBK=Dbqk12Jv99YlDFPz,COMPLETE,200,https,GET,image/gif,/127.0.0.1,50817,dt-secure.videohub.tv/67.226.210.15,443,,03 Jun 2019 14:27:50,03 Jun 2019 14:27:50,03 Jun 2019 14:27:50,03 Jun 2019 14:27:50,11,,,,0,1,10,38.085938,0.0,41.992188,,386,,,0,43,,
https://tag.apxlv.com,COMPLETE,200,https,CONNECT,,/127.0.0.1,50902,tag.apxlv.com/162.223.54.6,443,,03 Jun 2019 14:27:50,,,03 Jun 2019 14:28:01,10902,36,9,45,,,,2.4785156,,,1102,0,368,25553,0,647,,
https://us-east-sync.bidswitch.net,COMPLETE,200,https,CONNECT,,/127.0.0.1,50903,us-east-sync.bidswitch.net/35.185.1.218,443,,03 Jun 2019 14:27:50,,,03 Jun 2019 14:28:00,10269,35,20,61,,,,3.6708984,,,1190,0,430,36284,0,700,,
https://tag.cogocast.net,COMPLETE,200,https,CONNECT,,/127.0.0.1,50906,tag.cogocast.net/35.170.91.203,443,,03 Jun 2019 14:27:50,,,03 Jun 2019 14:28:01,10830,4,8,34,,,,2.5908203,,,1114,0,502,26200,0,923,,
https://gpush.cogocast.net,COMPLETE,200,https,CONNECT,,/127.0.0.1,50908,gpush.cogocast.net/162.223.54.16,443,,03 Jun 2019 14:27:50,,,03 Jun 2019 14:27:50,37,5,9,,,,,5.7265625,,,210,0,0,7,0,0,,
https://objects-secure.tremormedia.com/net/js/adchoicesappicon.min.js?iconPosition=top-left&optOut=&iconClick=&playerWidth=770&playerHeight=1026&sources=&country=us,COMPLETE,200,https,GET,application/javascript,/127.0.0.1,50808,objects-secure.tremormedia.com/104.110.194.47,443,,03 Jun 2019 14:27:51,03 Jun 2019 14:27:51,03 Jun 2019 14:27:51,03 Jun 2019 14:27:51,10,,,,0,1,9,1704.5898,0.0,16622.07,,434,,,0,17021,,45.7%
https://l0-secure.videohub.tv/ssframework/log/log.png?EC=40&a=logitemaction&nolog=1&ssPD=tremorvideodsp.com&Uzip=__postalCode__&CI=3502466&ADI=7871906&PRI=28beb472-f301-4398-9e80-614c247f8f68&Udma=__dma__&ssMLVer=rml_app_1.9.0&Uctry=__country__&AVI=425726&ssASVer=2.0&PBI=3500226&RI=1&Ust=__state__&NI=1344&admode=preroll&ssDsC=mobiletablet&ssRnd=1686397041&EvaF=1&pctVw=0,COMPLETE,200,https,GET,image/gif,/127.0.0.1,50826,l0-secure.videohub.tv/67.226.210.15,443,,03 Jun 2019 14:27:51,03 Jun 2019 14:27:51,03 Jun 2019 14:27:51,03 Jun 2019 14:27:51,12,,,,0,0,12,60.464844,0.0,0.0,,700,,,0,43,,
https://l0-secure.videohub.tv/ssframework/log/log.png?EC=4&a=logitemaction&nolog=1&ssPD=tremorvideodsp.com&Uzip=__postalCode__&CI=3502466&ADI=7871906&PRI=28beb472-f301-4398-9e80-614c247f8f68&Udma=__dma__&ssMLVer=rml_app_1.9.0&Uctry=__country__&AVI=425726&ssASVer=2.0&PBI=3500226&RI=1&Ust=__state__&NI=1344&admode=preroll&ssDsC=mobiletablet&ssRnd=2135400561&EiN=1,COMPLETE,200,https,GET,image/gif,/127.0.0.1,50826,l0-secure.videohub.tv/67.226.210.15,443,,03 Jun 2019 14:27:51,03 Jun 2019 14:27:51,03 Jun 2019 14:27:51,03 Jun 2019 14:27:51,13,,,,0,1,12,55.0625,0.0,41.992188,,690,,,0,43,,
https://mesu.apple.com,COMPLETE,200,https,CONNECT,,/127.0.0.1,50910,mesu.apple.com/17.253.15.205,443,,03 Jun 2019 14:27:52,,,03 Jun 2019 14:27:54,2276,128,2,35,,,,14.220703,,,1532,0,291,28984,0,2338,,
https://guzzoni.apple.com,COMPLETE,200,https,CONNECT,,/127.0.0.1,50912,guzzoni.apple.com/17.174.1.5,443,,03 Jun 2019 14:27:53,,,03 Jun 2019 14:28:53,60135,99,99,210,,,,0.6425781,,,2187,0,11972,9219,0,16212,,
https://ts01-b.cloudsink.net,COMPLETE,200,https,CONNECT,,/127.0.0.1,50914,ts01-b.cloudsink.net/54.183.142.105,443,,03 Jun 2019 14:27:53,,,03 Jun 2019 14:29:35,102293,65,72,202,,,,0.3955078,,,1246,0,19578,17474,0,3195,,
https://clients4.google.com,RECEIVING_REQUEST_BODY,200,https,CONNECT,,/127.0.0.1,50917,clients4.google.com/172.217.10.46,443,,03 Jun 2019 14:29:06,,,,104632,36,3,,,,,0.00390625,,,517,0,0,,0,0,,
https://ssl.p.jwpcdn.com,COMPLETE,200,https,CONNECT,,/127.0.0.1,50919,ssl.p.jwpcdn.com/72.21.81.48,443,,03 Jun 2019 14:29:18,,,03 Jun 2019 14:29:31,12579,36,2,24,,,,4.732422,,,1479,0,303,34395,0,24787,,
https://ssl.p.jwpcdn.com,COMPLETE,200,https,CONNECT,,/127.0.0.1,50921,ssl.p.jwpcdn.com/72.21.81.48,443,,03 Jun 2019 14:29:18,,,03 Jun 2019 14:29:31,12500,1,2,37,,,,4.080078,,,1464,0,305,34275,0,16184,,
https://ssl.p.jwpcdn.com,COMPLETE,200,https,CONNECT,,/127.0.0.1,50922,ssl.p.jwpcdn.com/72.21.81.48,443,,03 Jun 2019 14:29:18,,,03 Jun 2019 14:29:31,12500,2,1,41,,,,4.491211,,,1464,0,322,34275,0,21436,,
https://entitlements.jwplayer.com,COMPLETE,200,https,CONNECT,,/127.0.0.1,50925,entitlements.jwplayer.com/72.21.81.189,443,,03 Jun 2019 14:29:18,,,03 Jun 2019 14:29:31,12481,36,6,95,,,,2.8046875,,,1524,0,317,33541,0,464,,
https://s.tremorvideodsp.com/q/video1_small.mp4,COMPLETE,206,https,GET,video/mp4,/127.0.0.1,50927,s.tremorvideodsp.com/208.185.118.161,443,,03 Jun 2019 14:29:18,03 Jun 2019 14:29:19,03 Jun 2019 14:29:19,03 Jun 2019 14:29:19,205,60,12,29,1,1,102,78.44336,1382.8125,14698.242,1058,358,,15049,0,2,,
https://jwpltx.com,COMPLETE,200,https,CONNECT,,/127.0.0.1,50928,jwpltx.com/34.204.28.68,443,,03 Jun 2019 14:29:18,,,03 Jun 2019 14:29:31,12375,55,9,35,,,,2.6767578,,,1449,0,608,31731,0,132,,
https://s.tremorvideodsp.com/q/video1_small.mp4,COMPLETE,206,https,GET,video/mp4,/127.0.0.1,50927,s.tremorvideodsp.com/208.185.118.161,443,,03 Jun 2019 14:29:19,03 Jun 2019 14:29:19,03 Jun 2019 14:29:19,03 Jun 2019 14:29:19,153,,,,0,16,137,420.61035,0.0,4000.0,,362,,,0,65536,,
https://s.tremorvideodsp.com/q/video1_small.mp4,COMPLETE,206,https,GET,video/mp4,/127.0.0.1,50927,s.tremorvideodsp.com/208.185.118.161,443,,03 Jun 2019 14:29:19,03 Jun 2019 14:29:19,03 Jun 2019 14:29:19,03 Jun 2019 14:29:19,77,,,,0,12,65,835.83594,0.0,5333.333,,368,,,0,65536,,
https://s.tremorvideodsp.com/q/video1_small.mp4,COMPLETE,206,https,GET,video/mp4,/127.0.0.1,50931,s.tremorvideodsp.com/208.185.118.161,443,,03 Jun 2019 14:29:19,03 Jun 2019 14:29:19,03 Jun 2019 14:29:19,03 Jun 2019 14:29:20,645,3,11,27,0,516,88,14999.563,0.0,18746.89,986,368,,14959,0,9890599,,
https://s.tremorvideodsp.com/q/video1_small.mp4,COMPLETE,206,https,GET,video/mp4,/127.0.0.1,50927,s.tremorvideodsp.com/208.185.118.161,443,,03 Jun 2019 14:29:19,03 Jun 2019 14:29:19,03 Jun 2019 14:29:19,03 Jun 2019 14:29:19,38,,,,0,6,32,1693.667,0.0,10666.666,,368,,,0,65536,,
https://adserver.videohub.tv/preview?RI=-_4K4O3w7CspJJWcfG3I5w&screenType=mobiletablet&rml=true&Uctry=__country__&Ust=__state__&Udma=__dma__&Uzip=__postalCode__&Ucty=__city__&Uctnt=__continent__&Ulong=__longitude__&Ulat=__latitude__&Uacd=__areaCode__&position_ACP=__adChoicesPosition__&usedACP=__usedACP__&dspACP=__adChoicesProviders__&sig=A155FCA224910EB255D27BD0E4352508&CI=QkVpBSG0y-r_S_mC1CaF6Q&dmps=y&ssRmlApp=1&isApp=y,COMPLETE,200,https,GET,application/xml; charset=utf-8,/127.0.0.1,50933,adserver.videohub.tv/67.226.210.10,443,,03 Jun 2019 14:29:27,03 Jun 2019 14:29:27,03 Jun 2019 14:29:27,03 Jun 2019 14:29:27,69,2,10,30,0,10,17,617.4844,0.0,4090.7227,1046,694,,25605,0,16284,,
https://objects-secure.videohub.tv/net/js/rml-app.min.js?adData=https%3A%2F%2Fs.tremorvideodsp.com%2Fq%2Ftp_mp4.xml,COMPLETE,200,https,GET,application/javascript,/127.0.0.1,50935,objects-secure.videohub.tv/104.110.215.249,443,,03 Jun 2019 14:29:27,03 Jun 2019 14:29:27,03 Jun 2019 14:29:27,03 Jun 2019 14:29:27,117,66,8,24,0,11,8,677.0742,0.0,7072.4424,1070,385,,16754,0,62910,,72.6%
https://s.tremorvideodsp.com/q/tp_mp4.xml,COMPLETE,200,https,GET,text/xml,/127.0.0.1,50937,s.tremorvideodsp.com/208.185.118.161,443,,03 Jun 2019 14:29:27,03 Jun 2019 14:29:28,03 Jun 2019 14:29:28,03 Jun 2019 14:29:28,177,3,12,29,1,1,131,92.663086,1325.1953,15076.172,1046,311,,15049,0,389,,55.6%
https://objects-secure.tremormedia.com/net/js/io-polyfill-0.5.1.js,COMPLETE,200,https,GET,application/javascript,/127.0.0.1,50939,objects-secure.tremormedia.com/104.110.194.47,443,,03 Jun 2019 14:29:28,03 Jun 2019 14:29:28,03 Jun 2019 14:29:28,03 Jun 2019 14:29:28,111,68,8,23,0,1,11,216.16309,0.0,22605.469,1086,336,,16789,0,6359,,71.5%
https://s.tremorvideodsp.com/q/preroll.mp4,COMPLETE,206,https,GET,video/mp4,/127.0.0.1,50937,s.tremorvideodsp.com/208.185.118.161,443,,03 Jun 2019 14:29:28,03 Jun 2019 14:29:28,03 Jun 2019 14:29:28,03 Jun 2019 14:29:28,180,,,,0,1,179,2.0830078,0.0,1.953125,,382,,,0,2,,
https://s.tremorvideodsp.com/q/preroll.mp4,COMPLETE,206,https,GET,video/mp4,/127.0.0.1,50937,s.tremorvideodsp.com/208.185.118.161,443,,03 Jun 2019 14:29:28,03 Jun 2019 14:29:28,03 Jun 2019 14:29:28,03 Jun 2019 14:29:28,59,,,,1,1,57,277.5752,376.95312,16000.0,,386,,,0,16384,,
https://s.tremorvideodsp.com/q/preroll.mp4,COMPLETE,206,https,GET,video/mp4,/127.0.0.1,50937,s.tremorvideodsp.com/208.185.118.161,443,,03 Jun 2019 14:29:28,03 Jun 2019 14:29:28,03 Jun 2019 14:29:28,03 Jun 2019 14:29:29,293,,,,1,222,70,55.907227,380.85938,72.07129,,390,,,0,16384,,
https://s.tremorvideodsp.com/q/preroll.mp4,COMPLETE,206,https,GET,video/mp4,/127.0.0.1,50937,s.tremorvideodsp.com/208.185.118.161,443,,03 Jun 2019 14:29:29,03 Jun 2019 14:29:29,03 Jun 2019 14:29:29,03 Jun 2019 14:29:29,385,,,,0,216,169,5727.12,0.0,10206.289,,392,,,0,2257468,,
https://prd.jwpltx.com,COMPLETE,200,https,CONNECT,,/127.0.0.1,50941,prd.jwpltx.com/34.195.107.156,443,,03 Jun 2019 14:29:29,,,03 Jun 2019 14:30:30,60850,37,8,103,,,,0.5996094,,,1469,0,3637,31731,0,528,,
https://s.tremorvideodsp.com/q/qa1.js?param1=screen_impression,COMPLETE,200,https,GET,application/x-javascript,/127.0.0.1,50937,s.tremorvideodsp.com/208.185.118.161,443,,03 Jun 2019 14:29:29,03 Jun 2019 14:29:29,03 Jun 2019 14:29:29,03 Jun 2019 14:29:29,135,,,,0,1,134,4.3691406,0.0,265.625,,332,,,0,272,,
https://s.tremorvideodsp.com/q/qa1.js?param1=creative_impression,COMPLETE,200,https,GET,application/x-javascript,/127.0.0.1,50942,s.tremorvideodsp.com/208.185.118.161,443,,03 Jun 2019 14:29:29,03 Jun 2019 14:29:29,03 Jun 2019 14:29:29,03 Jun 2019 14:29:29,124,2,10,30,0,0,82,130.34668,0.0,0.0,986,334,,14959,0,272,,
https://dt-secure.videohub.tv/v1/usync/ironsource?userId=,COMPLETE,303,https,GET,image/gif,/127.0.0.1,50944,dt-secure.videohub.tv/67.226.210.15,443,,03 Jun 2019 14:29:29,03 Jun 2019 14:29:30,03 Jun 2019 14:29:30,03 Jun 2019 14:29:30,53,1,10,32,0,0,10,503.8877,0.0,0.0,1050,385,,25869,0,43,,
https://sync.doubleverify.com/query.gif?ctx=42674&cmp=2311460&DVP_CMPID=3502456&DVP_PUBID=&dvp_red=http%3A%2F%2Fads.videohub.tv%2Fssframework%2Fdt%2Fbotid%3Fa%3Dset%26DUID%3D1,COMPLETE,200,https,GET,image/gif,/127.0.0.1,50945,sync.doubleverify.com/204.154.111.224,443,,03 Jun 2019 14:29:29,03 Jun 2019 14:29:29,03 Jun 2019 14:29:29,03 Jun 2019 14:29:29,12,1,2,3,1,1,4,198.32324,1203.125,1176.7578,729,503,,345,0,860,,-6.6%
https://tps30.doubleverify.com/visit.jpg?ctx=42674&cmp=2256325&sid=1111&plc=22563261&num=&adid=&advid=498259&adsrv=41&region=30&btreg=&btadsrv=&crt=&crtname=&chnl=&unit=&pid=&uid=&dvtagver=6.1.img&DVP_CMPID=3502456&DVP_PUBID=&turl=tremorvideodsp.com,COMPLETE,200,https,GET,image/jpeg,/127.0.0.1,50947,tps30.doubleverify.com/204.154.111.134,443,,03 Jun 2019 14:29:29,03 Jun 2019 14:29:30,03 Jun 2019 14:29:30,03 Jun 2019 14:29:30,431,121,3,13,0,67,227,59.134766,0.0,354.76855,1182,577,,24198,0,142,,53.4%
https://tags.bluekai.com/site/2954,COMPLETE,200,https,GET,image/gif,/127.0.0.1,50948,tags.bluekai.com/96.7.23.53,443,,03 Jun 2019 14:29:29,03 Jun 2019 14:29:30,03 Jun 2019 14:29:30,03 Jun 2019 14:29:30,217,89,11,34,0,1,82,68.70996,0.0,13550.781,1030,362,,13814,0,62,,
"https://secure-gl.imrworldwide.com/cgi-bin/m?ci=nlsnapi12535&am=4&ep=1&at=view&rt=banner&st=image&ca=3500226_000&cr=&pc=3502456&r=646904257&c7=osgrp,iOS&c8=devgrp,TAB&c9=devid,unknown&c10=plt,MBL&c12=apv,12.1&c13=asid,PF85C1805-9397-D9CB-E040-070AAD31777E&c14=osver,12.1",COMPLETE,200,https,GET,image/gif,/127.0.0.1,50952,secure-gl.imrworldwide.com/99.84.127.8,443,,03 Jun 2019 14:29:29,03 Jun 2019 14:29:30,03 Jun 2019 14:29:30,03 Jun 2019 14:29:30,108,85,2,9,0,1,11,163.61035,0.0,16041.016,1070,598,,16382,0,44,,
https://s.tremorvideodsp.com/q/qa1.js?param1=impression,COMPLETE,200,https,GET,application/x-javascript,/127.0.0.1,50956,s.tremorvideodsp.com/208.185.118.161,443,,03 Jun 2019 14:29:29,03 Jun 2019 14:29:29,03 Jun 2019 14:29:30,03 Jun 2019 14:29:30,99,5,11,31,0,1,51,163.7461,0.0,14874.023,986,383,,14959,0,272,,
https://s.tremorvideodsp.com/q/qa.gif?param1=creative_impression,COMPLETE,200,https,GET,image/gif,/127.0.0.1,50954,s.tremorvideodsp.com/208.185.118.161,443,,03 Jun 2019 14:29:29,03 Jun 2019 14:29:29,03 Jun 2019 14:29:30,03 Jun 2019 14:29:30,124,3,14,37,0,1,69,129.0,0.0,14650.391,986,392,,14959,0,43,,
https://s.tremorvideodsp.com/q/qa.gif?param1=screen_impression,COMPLETE,200,https,GET,image/gif,/127.0.0.1,50953,s.tremorvideodsp.com/208.185.118.161,443,,03 Jun 2019 14:29:29,03 Jun 2019 14:29:30,03 Jun 2019 14:29:30,03 Jun 2019 14:29:30,71,2,10,28,0,0,31,225.26953,0.0,0.0,986,390,,14959,0,43,,
https://s.tremorvideodsp.com/q/qa.gif?param1=impression_1,COMPLETE,200,https,GET,image/gif,/127.0.0.1,50955,s.tremorvideodsp.com/208.185.118.161,443,,03 Jun 2019 14:29:29,03 Jun 2019 14:29:30,03 Jun 2019 14:29:30,03 Jun 2019 14:29:30,80,4,13,32,0,0,31,199.86523,0.0,0.0,986,385,,14959,0,43,,
https://tp.videohub.tv/v1/topprop.png?domain=&ui=&pri=9cbaa554-c2fd-4d7f-8fe1-be3f64f96f13&ssRnd=1652282664,COMPLETE,200,https,GET,image/png,/127.0.0.1,50951,tp.videohub.tv/67.226.210.13,443,,03 Jun 2019 14:29:29,03 Jun 2019 14:29:30,03 Jun 2019 14:29:30,03 Jun 2019 14:29:30,70,8,10,37,0,1,14,381.8213,0.0,25304.688,1022,435,,25869,0,43,,
https://l0-secure.videohub.tv/ssframework/log/log.png?EC=3&a=logitemaction&nolog=1&ssPD=tremorvideodsp.com&Uzip=__postalCode__&CI=3502456&ADI=7587606&PRI=9cbaa554-c2fd-4d7f-8fe1-be3f64f96f13&Udma=__dma__&ssMLVer=rml_app_1.9.0&Uctry=__country__&AVI=425726&ssASVer=2.0&PBI=3500226&RI=1&Ust=__state__&NI=1344&admode=preroll&ssDsC=mobiletablet&ssRnd=339834814&SfF=true&dspPartnerFee=vi-dviab:0.0001500000;rp-nielsen:0.0099800000&AmN=1&ssBe=1&adFocus=true&RvN=1,COMPLETE,200,https,GET,image/gif,/127.0.0.1,50958,l0-secure.videohub.tv/67.226.210.15,443,,03 Jun 2019 14:29:29,03 Jun 2019 14:29:30,03 Jun 2019 14:29:30,03 Jun 2019 14:29:30,58,1,8,31,0,0,18,467.167,0.0,0.0,1050,784,,25869,0,43,,
https://s.tremorvideodsp.com/q/qa.gif?param1=impression_2,COMPLETE,200,https,GET,image/gif,/127.0.0.1,50937,s.tremorvideodsp.com/208.185.118.161,443,,03 Jun 2019 14:29:29,03 Jun 2019 14:29:29,03 Jun 2019 14:29:29,03 Jun 2019 14:29:29,31,,,,0,0,31,13.482422,0.0,0.0,,385,,,0,43,,
https://sync.doubleverify.com/query.gif?ctx=42674&cmp=2256325&DVP_CMPID=3502456&DVP_PUBID=&dvp_red=http%3A%2F%2Fapp.scanscout.com%2Fssframework%2Fdt%2Fbotid%3Fa%3Dset%26DUID%3D1,COMPLETE,200,https,GET,image/gif,/127.0.0.1,50965,sync.doubleverify.com/204.154.111.224,443,,03 Jun 2019 14:29:29,03 Jun 2019 14:29:30,03 Jun 2019 14:29:30,03 Jun 2019 14:29:30,16,1,3,6,0,2,4,146.11816,0.0,588.3789,684,505,,345,0,860,,-6.6%
https://dt-secure.videohub.tv/v1/usync/bs?userId=,COMPLETE,303,https,GET,image/gif,/127.0.0.1,50969,dt-secure.videohub.tv/67.226.210.15,443,,03 Jun 2019 14:29:30,03 Jun 2019 14:29:30,03 Jun 2019 14:29:30,03 Jun 2019 14:29:30,56,2,9,35,0,0,10,475.708,0.0,0.0,990,377,,25869,0,43,,
https://dt-secure.videohub.tv/v1/usync/springserve?userId=,COMPLETE,303,https,GET,image/gif,/127.0.0.1,50973,dt-secure.videohub.tv/67.226.210.15,443,,03 Jun 2019 14:29:30,03 Jun 2019 14:29:30,03 Jun 2019 14:29:30,03 Jun 2019 14:29:30,56,3,10,31,1,0,11,475.86426,1343.75,0.0,990,386,,25869,0,43,,
https://dt-secure.videohub.tv/v1/usync/lkqd_direct?userId=,COMPLETE,303,https,GET,image/gif,/127.0.0.1,50970,dt-secure.videohub.tv/67.226.210.15,443,,03 Jun 2019 14:29:30,03 Jun 2019 14:29:30,03 Jun 2019 14:29:30,03 Jun 2019 14:29:30,64,6,10,36,0,1,11,416.38184,0.0,25304.688,990,386,,25869,0,43,,
https://dt-secure.videohub.tv/v1/usync/pubmatic?userId=,COMPLETE,303,https,GET,image/gif,/127.0.0.1,50971,dt-secure.videohub.tv/67.226.210.15,443,,03 Jun 2019 14:29:30,03 Jun 2019 14:29:30,03 Jun 2019 14:29:30,03 Jun 2019 14:29:30,66,8,10,32,0,0,16,403.71973,0.0,0.0,990,383,,25869,0,43,,
https://dt-secure.videohub.tv/v1/usync/rubicon?userId=,COMPLETE,303,https,GET,image/gif,/127.0.0.1,50972,dt-secure.videohub.tv/67.226.210.15,443,,03 Jun 2019 14:29:30,03 Jun 2019 14:29:30,03 Jun 2019 14:29:30,03 Jun 2019 14:29:30,72,7,9,45,1,0,10,370.0625,1339.8438,0.0,990,382,,25869,0,43,,
https://dt-secure.videohub.tv/v1/usync/spx?userId=,COMPLETE,303,https,GET,image/gif,/127.0.0.1,50944,dt-secure.videohub.tv/67.226.210.15,443,,03 Jun 2019 14:29:30,03 Jun 2019 14:29:30,03 Jun 2019 14:29:30,03 Jun 2019 14:29:30,11,,,,0,0,11,37.375,0.0,0.0,,378,,,0,43,,
https://cs.rtb-seller.com,COMPLETE,200,https,CONNECT,,/127.0.0.1,50978,cs.rtb-seller.com/34.235.49.76,443,,03 Jun 2019 14:29:30,,,03 Jun 2019 14:30:01,31175,53,11,134,,,,1.0517578,,,1484,0,388,31539,0,170,,
https://dt-secure.videohub.tv/v1/usync/rhythmone?userId=,COMPLETE,303,https,GET,image/gif,/127.0.0.1,50944,dt-secure.videohub.tv/67.226.210.15,443,,03 Jun 2019 14:29:30,03 Jun 2019 14:29:30,03 Jun 2019 14:29:30,03 Jun 2019 14:29:30,11,,,,0,0,11,37.908203,0.0,0.0,,384,,,0,43,,
https://sync.search.spotxchange.com,COMPLETE,200,https,CONNECT,,/127.0.0.1,50981,sync.search.spotxchange.com/192.35.249.120,443,,03 Jun 2019 14:29:30,,,03 Jun 2019 14:30:01,31093,35,10,197,,,,0.6298828,,,1534,0,886,16383,0,1260,,
https://dt-secure.videohub.tv/v1/usync/tr?userId=,COMPLETE,303,https,GET,image/gif,/127.0.0.1,50944,dt-secure.videohub.tv/67.226.210.15,443,,03 Jun 2019 14:29:30,03 Jun 2019 14:29:30,03 Jun 2019 14:29:30,03 Jun 2019 14:29:30,25,,,,0,0,25,16.40625,0.0,0.0,,377,,,0,43,,
https://l0-secure.videohub.tv/ssframework/log/log.png?EC=7&a=logitemaction&nolog=1&ssPD=tremorvideodsp.com&Uzip=__postalCode__&CI=3502456&ADI=7587606&PRI=9cbaa554-c2fd-4d7f-8fe1-be3f64f96f13&Udma=__dma__&ssMLVer=rml_app_1.9.0&Uctry=__country__&AVI=425726&ssASVer=2.0&PBI=3500226&RI=1&Ust=__state__&NI=1344&admode=preroll&ssDsC=mobiletablet&ssRnd=1218701780&Eipct=0&EvaF=1&EiN=1,COMPLETE,200,https,GET,image/gif,/127.0.0.1,50982,l0-secure.videohub.tv/67.226.210.15,443,,03 Jun 2019 14:29:30,03 Jun 2019 14:29:30,03 Jun 2019 14:29:30,03 Jun 2019 14:29:30,51,1,10,29,0,0,11,528.626,0.0,0.0,990,705,,25869,0,43,,
https://tps30.doubleverify.com/visit.jpg?ctx=42674&cmp=DV069178&sid=1111&plc=2018011501&advid=3819603&adsrv=0&tagtype=&dvtagver=6.1.img&DVP_PP_REP=1&DVP_IQM_ID=16&DVP_DV_TT=2&DVP_DV_CT=2&DVP_TR_SSP=&DVP_TR_PUB=[PUBLISHER_ID]&DVP_TR_SITE=[SUPPLY_ID]&DVP_TR_ADV=425726&DVP_TR_CMP=3502456&DVP_TR_PLC=3502456&turl=tremorvideodsp.com&DVP_PP_BUNDLE_ID=&DVP_TR_COST=,COMPLETE,200,https,GET,image/jpeg,/127.0.0.1,50983,tps30.doubleverify.com/204.154.111.134,443,,03 Jun 2019 14:29:30,03 Jun 2019 14:29:30,03 Jun 2019 14:29:30,03 Jun 2019 14:29:30,412,4,2,7,0,89,310,4.368164,0.0,5.145508,687,687,,327,0,142,,53.4%
https://sync.1rx.io,COMPLETE,200,https,CONNECT,,/127.0.0.1,50985,sync.1rx.io/8.41.222.151,443,,03 Jun 2019 14:29:30,,,03 Jun 2019 14:30:01,31083,5,3,181,,,,0.87109375,,,1094,0,796,24907,0,936,,
https://dt-secure.videohub.tv/v1/usync/ex?userId=,COMPLETE,303,https,GET,image/gif,/127.0.0.1,50973,dt-secure.videohub.tv/67.226.210.15,443,,03 Jun 2019 14:29:30,03 Jun 2019 14:29:30,03 Jun 2019 14:29:30,03 Jun 2019 14:29:30,27,,,,0,0,27,15.19043,0.0,0.0,,377,,,0,43,,
https://dt-secure.videohub.tv/ssframework/tvuid?a=set&UI=,COMPLETE,400,https,GET,image/gif,/127.0.0.1,50969,dt-secure.videohub.tv/67.226.210.15,443,,03 Jun 2019 14:29:30,03 Jun 2019 14:29:30,03 Jun 2019 14:29:30,03 Jun 2019 14:29:30,27,,,,1,0,26,15.479492,375.97656,0.0,,385,,,0,43,,
https://dt-secure.videohub.tv/v1/usync/lo?userId=,COMPLETE,303,https,GET,image/gif,/127.0.0.1,50970,dt-secure.videohub.tv/67.226.210.15,443,,03 Jun 2019 14:29:30,03 Jun 2019 14:29:30,03 Jun 2019 14:29:30,03 Jun 2019 14:29:30,12,,,,0,0,12,34.179688,0.0,0.0,,377,,,0,43,,
https://dt-secure.videohub.tv/v1/usync/dd?userId=,COMPLETE,303,https,GET,image/gif,/127.0.0.1,50944,dt-secure.videohub.tv/67.226.210.15,443,,03 Jun 2019 14:29:30,03 Jun 2019 14:29:30,03 Jun 2019 14:29:30,03 Jun 2019 14:29:30,11,,,,1,0,10,37.286133,368.16406,0.0,,377,,,0,43,,
https://sync.springserve.com,COMPLETE,200,https,CONNECT,,/127.0.0.1,50990,sync.springserve.com/52.200.250.68,443,,03 Jun 2019 14:29:30,,,03 Jun 2019 14:30:01,31018,61,9,188,,,,1.0625,,,1499,0,397,31653,0,212,,
https://dt-secure.videohub.tv/v1/usync/ds?userId=,COMPLETE,303,https,GET,image/gif,/127.0.0.1,50972,dt-secure.videohub.tv/67.226.210.15,443,,03 Jun 2019 14:29:30,03 Jun 2019 14:29:30,03 Jun 2019 14:29:30,03 Jun 2019 14:29:30,11,,,,0,0,11,37.286133,0.0,0.0,,377,,,0,43,,
https://x.bidswitch.net,COMPLETE,200,https,CONNECT,,/127.0.0.1,50989,x.bidswitch.net/35.185.57.166,443,,03 Jun 2019 14:29:30,,,03 Jun 2019 14:29:40,10407,2,21,199,,,,3.6191406,,,1146,0,405,36284,0,743,,
https://dt-secure.videohub.tv/v1/usync/lrjs?userId=,COMPLETE,303,https,GET,image/gif,/127.0.0.1,50971,dt-secure.videohub.tv/67.226.210.15,443,,03 Jun 2019 14:29:30,03 Jun 2019 14:29:30,03 Jun 2019 14:29:30,03 Jun 2019 14:29:30,16,,,,0,0,16,25.756836,0.0,0.0,,379,,,0,43,,
https://cs.lkqd.net,COMPLETE,200,https,CONNECT,,/127.0.0.1,50991,cs.lkqd.net/146.20.129.121,443,,03 Jun 2019 14:29:30,,,03 Jun 2019 14:30:01,31004,39,9,192,,,,1.3916016,,,1322,0,396,42000,0,482,,
https://partners.tremorhub.com,COMPLETE,200,https,CONNECT,,/127.0.0.1,50992,partners.tremorhub.com/35.174.230.1,443,,03 Jun 2019 14:29:30,,,03 Jun 2019 14:30:01,30994,36,10,187,,,,1.0859375,,,1509,0,387,32079,0,516,,
https://dt-secure.videohub.tv/v1/usync/al?userId=,COMPLETE,303,https,GET,image/gif,/127.0.0.1,50969,dt-secure.videohub.tv/67.226.210.15,443,,03 Jun 2019 14:29:30,03 Jun 2019 14:29:30,03 Jun 2019 14:29:30,03 Jun 2019 14:29:30,11,,,,0,0,11,37.286133,0.0,0.0,,377,,,0,43,,
https://dt-secure.videohub.tv/v1/usync/bk?userId=,COMPLETE,303,https,GET,image/gif,/127.0.0.1,50973,dt-secure.videohub.tv/67.226.210.15,443,,03 Jun 2019 14:29:30,03 Jun 2019 14:29:30,03 Jun 2019 14:29:30,03 Jun 2019 14:29:30,11,,,,0,0,11,37.286133,0.0,0.0,,377,,,0,43,,
https://dt-secure.videohub.tv/v1/usync/kx?userId=,COMPLETE,303,https,GET,image/gif,/127.0.0.1,50944,dt-secure.videohub.tv/67.226.210.15,443,,03 Jun 2019 14:29:30,03 Jun 2019 14:29:30,03 Jun 2019 14:29:30,03 Jun 2019 14:29:30,10,,,,0,0,10,41.015625,0.0,0.0,,377,,,0,43,,
https://dt-secure.videohub.tv/v1/usync/db?userId=&deviceId=unknown&screenType=mobiletablet&osType=iOS&rand=646904257,COMPLETE,303,https,GET,image/gif,/127.0.0.1,50970,dt-secure.videohub.tv/67.226.210.15,443,,03 Jun 2019 14:29:30,03 Jun 2019 14:29:30,03 Jun 2019 14:29:30,03 Jun 2019 14:29:30,13,,,,0,0,13,36.583008,0.0,0.0,,444,,,0,43,,
https://pixel.rubiconproject.com,COMPLETE,200,https,CONNECT,,/127.0.0.1,50994,pixel.rubiconproject.com/8.43.72.97,443,,03 Jun 2019 14:29:30,,,03 Jun 2019 14:30:01,30969,2,11,224,,,,0.640625,,,1589,0,890,16516,0,1322,,
https://dt-secure.videohub.tv/v1/usync/lr?userId=,COMPLETE,303,https,GET,image/gif,/127.0.0.1,50972,dt-secure.videohub.tv/67.226.210.15,443,,03 Jun 2019 14:29:30,03 Jun 2019 14:29:30,03 Jun 2019 14:29:30,03 Jun 2019 14:29:30,15,,,,0,1,14,27.34375,0.0,41.992188,,377,,,0,43,,
https://simage2.pubmatic.com,COMPLETE,200,https,CONNECT,,/127.0.0.1,50995,simage2.pubmatic.com/162.248.19.147,443,,03 Jun 2019 14:29:30,,,03 Jun 2019 14:30:01,30952,37,2,204,,,,0.6953125,,,1499,0,455,19257,0,827,,
https://dpm.demdex.net,COMPLETE,200,https,CONNECT,,/127.0.0.1,50997,dpm.demdex.net/34.198.229.18,443,,03 Jun 2019 14:29:30,,,03 Jun 2019 14:30:01,30952,55,9,201,,,,0.6855469,,,1469,0,804,18303,0,1155,,
https://bcp.crwdcntrl.net,COMPLETE,200,https,CONNECT,,/127.0.0.1,50996,bcp.crwdcntrl.net/52.4.111.14,443,,03 Jun 2019 14:29:30,,,03 Jun 2019 14:30:01,30952,47,8,201,,,,1.0800781,,,1484,0,797,31179,0,791,,
https://loadm.exelator.com,COMPLETE,200,https,CONNECT,,/127.0.0.1,50998,loadm.exelator.com/147.75.39.192,443,,03 Jun 2019 14:29:30,,,03 Jun 2019 14:29:40,10438,70,3,181,,,,3.2509766,,,1122,0,816,31294,0,1525,,
https://dt-secure.videohub.tv/v1/usync/ns?userId=,COMPLETE,303,https,GET,image/gif,/127.0.0.1,50971,dt-secure.videohub.tv/67.226.210.15,443,,03 Jun 2019 14:29:30,03 Jun 2019 14:29:30,03 Jun 2019 14:29:30,03 Jun 2019 14:29:30,12,,,,0,0,12,34.179688,0.0,0.0,,377,,,0,43,,
https://objects-secure.tremormedia.com/net/js/lr.js?partner_id=27e30e8dfa414f33db15688196df9cfc,COMPLETE,200,https,GET,application/javascript,/127.0.0.1,50939,objects-secure.tremormedia.com/104.110.194.47,443,,03 Jun 2019 14:29:30,03 Jun 2019 14:29:30,03 Jun 2019 14:29:30,03 Jun 2019 14:29:30,9,,,,0,1,8,130.3164,0.0,759.7656,,423,,,0,778,,57.1%
https://idpix.media6degrees.com,COMPLETE,200,https,CONNECT,,/127.0.0.1,51003,idpix.media6degrees.com/204.2.197.201,443,,03 Jun 2019 14:29:30,,,03 Jun 2019 14:29:30,353,36,2,184,,,,74.11328,,,1514,0,431,24075,0,770,,
https://beacon.krxd.net,COMPLETE,200,https,CONNECT,,/127.0.0.1,51005,beacon.krxd.net/54.235.184.49,443,,03 Jun 2019 14:29:30,,,03 Jun 2019 14:30:01,30896,8,9,187,,,,1.0576172,,,1474,0,414,31113,0,482,,
https://stags.bluekai.com,COMPLETE,200,https,CONNECT,,/127.0.0.1,51004,stags.bluekai.com/96.7.23.53,443,,03 Jun 2019 14:29:30,,,03 Jun 2019 14:30:01,30897,80,10,173,,,,0.7578125,,,1484,0,459,21259,0,784,,
https://p.adsymptotic.com,COMPLETE,200,https,CONNECT,,/127.0.0.1,51007,p.adsymptotic.com/52.4.150.241,443,,03 Jun 2019 14:29:30,,,03 Jun 2019 14:30:01,30896,39,9,174,,,,0.71484375,,,1484,0,942,19281,0,920,,
https://sync.alphonso.tv,COMPLETE,200,https,CONNECT,,/127.0.0.1,51006,sync.alphonso.tv/104.129.168.238,443,,03 Jun 2019 14:29:30,,,03 Jun 2019 14:30:01,30886,35,5,179,,,,0.95410156,,,1479,0,391,27865,0,471,,
https://idsync.rlcdn.com,COMPLETE,200,https,CONNECT,,/127.0.0.1,51013,idsync.rlcdn.com/34.95.92.78,443,,03 Jun 2019 14:29:30,,,03 Jun 2019 14:30:01,30860,35,3,168,,,,0.87890625,,,1347,0,838,24510,0,1107,,
https://aa.agkn.com,COMPLETE,200,https,CONNECT,,/127.0.0.1,51015,aa.agkn.com/156.154.200.36,443,,03 Jun 2019 14:29:30,,,03 Jun 2019 14:29:30,276,71,22,149,,,,81.8291,,,1454,0,402,20762,0,509,,
https://bsw.digitru.st,COMPLETE,200,https,CONNECT,,/127.0.0.1,51021,bsw.digitru.st/35.185.57.166,443,,03 Jun 2019 14:29:30,,,03 Jun 2019 14:29:40,10375,3,21,100,,,,3.5146484,,,1142,0,405,35144,0,658,,
https://d.agkn.com,COMPLETE,200,https,CONNECT,,/127.0.0.1,51023,d.agkn.com/52.200.54.54,443,,03 Jun 2019 14:29:30,,,03 Jun 2019 14:30:01,30552,89,9,48,,,,0.87597656,,,1449,0,384,25023,0,570,,
https://pippio.com,COMPLETE,200,https,CONNECT,,/127.0.0.1,51024,pippio.com/107.178.254.65,443,,03 Jun 2019 14:29:30,,,03 Jun 2019 14:30:01,30549,0,3,18,,,,0.86816406,,,1317,0,751,23570,0,1536,,
https://us-east-sync.bidswitch.net,COMPLETE,200,https,CONNECT,,/127.0.0.1,51026,us-east-sync.bidswitch.net/35.185.57.166,443,,03 Jun 2019 14:29:30,,,03 Jun 2019 14:29:41,10287,2,21,67,,,,3.6640625,,,1190,0,430,36284,0,700,,
https://dt-secure.videohub.tv/v1/uid?UIBK=baMrJ%2BJv999qDdPz,COMPLETE,200,https,GET,image/gif,/127.0.0.1,50944,dt-secure.videohub.tv/67.226.210.15,443,,03 Jun 2019 14:29:30,03 Jun 2019 14:29:30,03 Jun 2019 14:29:30,03 Jun 2019 14:29:30,11,,,,0,1,10,38.262695,0.0,41.992188,,388,,,0,43,,
https://cm.g.doubleclick.net,COMPLETE,200,https,CONNECT,,/127.0.0.1,51028,cm.g.doubleclick.net/172.217.10.226,443,,03 Jun 2019 14:29:30,,,03 Jun 2019 14:30:01,30480,2,2,68,,,,0.54785156,,,1367,0,424,14341,0,969,,
https://tag.apxlv.com,COMPLETE,200,https,CONNECT,,/127.0.0.1,51031,tag.apxlv.com/162.223.54.6,443,,03 Jun 2019 14:29:30,,,03 Jun 2019 14:30:01,30262,5,8,46,,,,0.9042969,,,1464,0,368,25553,0,647,,
https://tag.cogocast.net,COMPLETE,200,https,CONNECT,,/127.0.0.1,51033,tag.cogocast.net/54.152.25.88,443,,03 Jun 2019 14:29:31,,,03 Jun 2019 14:30:02,31346,5,8,33,,,,0.90625,,,1479,0,502,26200,0,923,,
https://gpush.cogocast.net,COMPLETE,200,https,CONNECT,,/127.0.0.1,51035,gpush.cogocast.net/162.223.54.16,443,,03 Jun 2019 14:29:31,,,03 Jun 2019 14:29:31,35,5,8,,,,,6.0546875,,,210,0,0,7,0,0,,
https://objects-secure.tremormedia.com/net/js/adchoicesappicon.min.js?iconPosition=top-left&optOut=&iconClick=&playerWidth=770&playerHeight=1026&sources=&country=us,COMPLETE,200,https,GET,application/javascript,/127.0.0.1,50939,objects-secure.tremormedia.com/104.110.194.47,443,,03 Jun 2019 14:29:31,03 Jun 2019 14:29:31,03 Jun 2019 14:29:31,03 Jun 2019 14:29:31,10,,,,0,1,9,1704.5898,0.0,16622.07,,434,,,0,17021,,45.7%
https://l0-secure.videohub.tv/ssframework/log/log.png?EC=40&a=logitemaction&nolog=1&ssPD=tremorvideodsp.com&Uzip=__postalCode__&CI=3502456&ADI=7587606&PRI=9cbaa554-c2fd-4d7f-8fe1-be3f64f96f13&Udma=__dma__&ssMLVer=rml_app_1.9.0&Uctry=__country__&AVI=425726&ssASVer=2.0&PBI=3500226&RI=1&Ust=__state__&NI=1344&admode=preroll&ssDsC=mobiletablet&ssRnd=1850997766&EvaF=1&pctVw=0,COMPLETE,200,https,GET,image/gif,/127.0.0.1,50958,l0-secure.videohub.tv/67.226.210.15,443,,03 Jun 2019 14:29:31,03 Jun 2019 14:29:31,03 Jun 2019 14:29:31,03 Jun 2019 14:29:31,10,,,,0,0,10,72.55859,0.0,0.0,,700,,,0,43,,
https://s.tremorvideodsp.com/q/qa.gif?param1=screen_click,COMPLETE,200,https,GET,image/gif,/127.0.0.1,50937,s.tremorvideodsp.com/208.185.118.161,443,,03 Jun 2019 14:29:32,03 Jun 2019 14:29:32,03 Jun 2019 14:29:32,03 Jun 2019 14:29:32,108,,,,0,3,105,3.8691406,0.0,13.99707,,385,,,0,43,,
https://s.tremorvideodsp.com/q/qa.gif?param1=creative_click,COMPLETE,200,https,GET,image/gif,/127.0.0.1,50942,s.tremorvideodsp.com/208.185.118.161,443,,03 Jun 2019 14:29:32,03 Jun 2019 14:29:32,03 Jun 2019 14:29:32,03 Jun 2019 14:29:32,108,,,,0,1,107,3.8876953,0.0,41.992188,,387,,,0,43,,
https://l0-secure.videohub.tv/ssframework/log/log.png?EC=2&a=logitemaction&nolog=1&ssPD=tremorvideodsp.com&Uzip=__postalCode__&CI=3502456&ADI=7587606&PRI=9cbaa554-c2fd-4d7f-8fe1-be3f64f96f13&Udma=__dma__&ssMLVer=rml_app_1.9.0&Uctry=__country__&AVI=425726&ssASVer=2.0&PBI=3500226&RI=1&Ust=__state__&NI=1344&admode=preroll&ssDsC=mobiletablet&ssRnd=1399235208,COMPLETE,200,https,GET,image/gif,/127.0.0.1,50958,l0-secure.videohub.tv/67.226.210.15,443,,03 Jun 2019 14:29:32,03 Jun 2019 14:29:32,03 Jun 2019 14:29:32,03 Jun 2019 14:29:32,77,,,,0,52,25,9.219727,0.0,0.8066406,,684,,,0,43,,
https://l0-secure.videohub.tv/ssframework/log/log.png?EC=4&a=logitemaction&nolog=1&ssPD=tremorvideodsp.com&Uzip=__postalCode__&CI=3502456&ADI=7587606&PRI=9cbaa554-c2fd-4d7f-8fe1-be3f64f96f13&Udma=__dma__&ssMLVer=rml_app_1.9.0&Uctry=__country__&AVI=425726&ssASVer=2.0&PBI=3500226&RI=1&Ust=__state__&NI=1344&admode=preroll&ssDsC=mobiletablet&ssRnd=49428144&EiN=1,COMPLETE,200,https,GET,image/gif,/127.0.0.1,50982,l0-secure.videohub.tv/67.226.210.15,443,,03 Jun 2019 14:29:32,03 Jun 2019 14:29:32,03 Jun 2019 14:29:32,03 Jun 2019 14:29:32,15,,,,1,1,13,47.59082,671.875,41.992188,,688,,,0,43,,
https://www.tremorvideodsp.com,COMPLETE,200,https,CONNECT,,/127.0.0.1,51037,www.tremorvideodsp.com/52.54.84.112,443,,03 Jun 2019 14:29:32,,,03 Jun 2019 14:30:02,30240,105,9,81,,,,0.47558594,,,1424,0,280,12301,0,744,,
https://dt.scanscout.com,COMPLETE,200,https,CONNECT,,/127.0.0.1,51038,dt.scanscout.com/67.226.210.15,443,,03 Jun 2019 14:29:32,,,03 Jun 2019 14:29:37,5101,5,10,56,,,,6.7441406,,,3096,0,536,31298,0,302,,
https://www.googletagmanager.com,RECEIVING_REQUEST_BODY,200,https,CONNECT,,/127.0.0.1,51039,www.googletagmanager.com/172.217.10.40,443,,03 Jun 2019 14:29:32,,,,77956,41,2,,,,,0.005859375,,,517,0,0,,0,0,,
https://www.tremorvideodsp.com,COMPLETE,200,https,CONNECT,,/127.0.0.1,51040,www.tremorvideodsp.com/52.54.84.112,443,,03 Jun 2019 14:29:32,,,03 Jun 2019 14:30:03,31093,37,10,44,,,,0.5625,,,3024,0,1673,12406,0,815,,
https://www.tremorvideodsp.com,COMPLETE,200,https,CONNECT,,/127.0.0.1,51045,www.tremorvideodsp.com/52.54.84.112,443,,03 Jun 2019 14:29:32,,,03 Jun 2019 14:30:03,30961,7,10,35,,,,0.42578125,,,1584,0,1169,10148,0,600,,
https://www.tremorvideodsp.com,COMPLETE,200,https,CONNECT,,/127.0.0.1,51047,www.tremorvideodsp.com/52.54.84.112,443,,03 Jun 2019 14:29:32,,,03 Jun 2019 14:30:03,30965,13,10,52,,,,0.49316406,,,1584,0,1176,12301,0,600,,
https://www.tremorvideodsp.com,COMPLETE,200,https,CONNECT,,/127.0.0.1,51046,www.tremorvideodsp.com/52.54.84.112,443,,03 Jun 2019 14:29:32,,,03 Jun 2019 14:30:03,30971,20,9,55,,,,0.49316406,,,1584,0,1174,12301,0,602,,
https://www.google-analytics.com,RECEIVING_REQUEST_BODY,200,https,CONNECT,,/127.0.0.1,51051,www.google-analytics.com/172.217.6.206,443,,03 Jun 2019 14:29:33,,,,77290,8,2,,,,,0.005859375,,,517,0,0,,0,0,,
https://stats.g.doubleclick.net,RECEIVED_RESPONSE_HEADER,200,https,CONNECT,,/127.0.0.1,51053,stats.g.doubleclick.net/173.194.206.154,443,,03 Jun 2019 14:29:33,,,,77069,37,33,,,,,0.005859375,,,517,0,0,,0,0,,
https://www.google.com,RECEIVED_RESPONSE_HEADER,200,https,CONNECT,,/127.0.0.1,51055,www.google.com/172.217.10.68,443,,03 Jun 2019 14:29:33,,,,76907,34,2,,,,,0.005859375,,,517,0,0,,0,0,,
https://ts01-b.cloudsink.net,RECEIVING_REQUEST_BODY,200,https,CONNECT,,/127.0.0.1,51057,ts01-b.cloudsink.net/54.193.67.98,443,,03 Jun 2019 14:29:35,,,,75038,36,72,174,,,,0.3154297,,,1246,0,4634,17474,0,905,,
https://s.tremorvideodsp.com/q/qa.gif?param1=screen_click,COMPLETE,200,https,GET,image/gif,/127.0.0.1,50937,s.tremorvideodsp.com/208.185.118.161,443,,03 Jun 2019 14:29:46,03 Jun 2019 14:29:46,03 Jun 2019 14:29:46,03 Jun 2019 14:29:46,44,,,,0,0,44,9.499023,0.0,0.0,,385,,,0,43,,
https://s.tremorvideodsp.com/q/qa.gif?param1=creative_click,COMPLETE,200,https,GET,image/gif,/127.0.0.1,50942,s.tremorvideodsp.com/208.185.118.161,443,,03 Jun 2019 14:29:46,03 Jun 2019 14:29:46,03 Jun 2019 14:29:46,03 Jun 2019 14:29:46,40,,,,0,1,39,10.498047,0.0,41.992188,,387,,,0,43,,
https://l0-secure.videohub.tv/ssframework/log/log.png?EC=2&a=logitemaction&nolog=1&ssPD=tremorvideodsp.com&Uzip=__postalCode__&CI=3502456&ADI=7587606&PRI=9cbaa554-c2fd-4d7f-8fe1-be3f64f96f13&Udma=__dma__&ssMLVer=rml_app_1.9.0&Uctry=__country__&AVI=425726&ssASVer=2.0&PBI=3500226&RI=1&Ust=__state__&NI=1344&admode=preroll&ssDsC=mobiletablet&ssRnd=1399235208,COMPLETE,200,https,GET,image/gif,/127.0.0.1,50958,l0-secure.videohub.tv/67.226.210.15,443,,03 Jun 2019 14:29:46,03 Jun 2019 14:29:46,03 Jun 2019 14:29:46,03 Jun 2019 14:29:46,105,,11,35,47,0,12,257.12402,36.02832,0.0,1050,684,,25869,0,43,,
https://l0-secure.videohub.tv/ssframework/log/log.png?EC=7&a=logitemaction&nolog=1&ssPD=tremorvideodsp.com&Uzip=__postalCode__&CI=3502456&ADI=7587606&PRI=9cbaa554-c2fd-4d7f-8fe1-be3f64f96f13&Udma=__dma__&ssMLVer=rml_app_1.9.0&Uctry=__country__&AVI=425726&ssASVer=2.0&PBI=3500226&RI=1&Ust=__state__&NI=1344&admode=preroll&ssDsC=mobiletablet&ssRnd=1467633223&Eipct=25&EiN=1,COMPLETE,200,https,GET,image/gif,/127.0.0.1,50958,l0-secure.videohub.tv/67.226.210.15,443,,03 Jun 2019 14:29:47,03 Jun 2019 14:29:47,03 Jun 2019 14:29:47,03 Jun 2019 14:29:47,12,,,,0,0,12,60.38379,0.0,0.0,,699,,,0,43,,
https://s.tremorvideodsp.com/q/qa.gif?param1=screen_first_quartile,COMPLETE,200,https,GET,image/gif,/127.0.0.1,50937,s.tremorvideodsp.com/208.185.118.161,443,,03 Jun 2019 14:29:47,03 Jun 2019 14:29:47,03 Jun 2019 14:29:47,03 Jun 2019 14:29:47,41,,,,0,0,41,10.408203,0.0,0.0,,394,,,0,43,,
https://s.tremorvideodsp.com/q/qa.gif?param1=creative_first_quartile,COMPLETE,200,https,GET,image/gif,/127.0.0.1,50942,s.tremorvideodsp.com/208.185.118.161,443,,03 Jun 2019 14:29:47,03 Jun 2019 14:29:47,03 Jun 2019 14:29:47,03 Jun 2019 14:29:47,43,,,,0,0,43,9.969727,0.0,0.0,,396,,,0,43,,
https://ssl.gstatic.com,RECEIVING_REQUEST_BODY,200,https,CONNECT,,/127.0.0.1,51061,ssl.gstatic.com/172.217.12.195,443,,03 Jun 2019 14:29:47,,,,62824,36,5,,,,,0.0078125,,,517,0,0,,0,0,,
https://l0-secure.videohub.tv/ssframework/log/log.png?EC=7&a=logitemaction&nolog=1&ssPD=tremorvideodsp.com&Uzip=__postalCode__&CI=3502456&ADI=7587606&PRI=9cbaa554-c2fd-4d7f-8fe1-be3f64f96f13&Udma=__dma__&ssMLVer=rml_app_1.9.0&Uctry=__country__&AVI=425726&ssASVer=2.0&PBI=3500226&RI=1&Ust=__state__&NI=1344&admode=preroll&ssDsC=mobiletablet&ssRnd=797331173&Eipct=50&EiN=1,COMPLETE,200,https,GET,image/gif,/127.0.0.1,50958,l0-secure.videohub.tv/67.226.210.15,443,,03 Jun 2019 14:29:51,03 Jun 2019 14:29:51,03 Jun 2019 14:29:51,03 Jun 2019 14:29:51,21,,,,0,0,21,34.458008,0.0,0.0,,698,,,0,43,,
https://s.tremorvideodsp.com/q/qa.gif?param1=screen_second_quartile,COMPLETE,200,https,GET,image/gif,/127.0.0.1,50937,s.tremorvideodsp.com/208.185.118.161,443,,03 Jun 2019 14:29:51,03 Jun 2019 14:29:51,03 Jun 2019 14:29:51,03 Jun 2019 14:29:51,24,,,,1,0,23,17.822266,385.7422,0.0,,395,,,0,43,,
https://s.tremorvideodsp.com/q/qa.gif?param1=creative_second_quartile,COMPLETE,200,https,GET,image/gif,/127.0.0.1,50942,s.tremorvideodsp.com/208.185.118.161,443,,03 Jun 2019 14:29:51,03 Jun 2019 14:29:51,03 Jun 2019 14:29:51,03 Jun 2019 14:29:51,30,,,,0,3,27,14.322266,0.0,13.99707,,397,,,0,43,,
https://l0-secure.videohub.tv/ssframework/log/log.png?EC=7&a=logitemaction&nolog=1&ssPD=tremorvideodsp.com&Uzip=__postalCode__&CI=3502456&ADI=7587606&PRI=9cbaa554-c2fd-4d7f-8fe1-be3f64f96f13&Udma=__dma__&ssMLVer=rml_app_1.9.0&Uctry=__country__&AVI=425726&ssASVer=2.0&PBI=3500226&RI=1&Ust=__state__&NI=1344&admode=preroll&ssDsC=mobiletablet&ssRnd=611795763&Eipct=75&EiN=1,COMPLETE,200,https,GET,image/gif,/127.0.0.1,50958,l0-secure.videohub.tv/67.226.210.15,443,,03 Jun 2019 14:29:55,03 Jun 2019 14:29:55,03 Jun 2019 14:29:55,03 Jun 2019 14:29:55,18,,,,0,0,18,40.20117,0.0,0.0,,698,,,0,43,,
https://s.tremorvideodsp.com/q/qa.gif?param1=screen_third_quartile,COMPLETE,200,https,GET,image/gif,/127.0.0.1,50937,s.tremorvideodsp.com/208.185.118.161,443,,03 Jun 2019 14:29:55,03 Jun 2019 14:29:55,03 Jun 2019 14:29:55,03 Jun 2019 14:29:55,21,,,,0,0,21,20.32129,0.0,0.0,,394,,,0,43,,
https://s.tremorvideodsp.com/q/qa.gif?param1=creative_third_quartile,COMPLETE,200,https,GET,image/gif,/127.0.0.1,50942,s.tremorvideodsp.com/208.185.118.161,443,,03 Jun 2019 14:29:55,03 Jun 2019 14:29:55,03 Jun 2019 14:29:55,03 Jun 2019 14:29:55,18,,,,0,1,17,23.816406,0.0,41.992188,,396,,,0,43,,
https://l0-secure.videohub.tv/ssframework/log/log.png?EC=38&a=logitemaction&nolog=1&ssPD=tremorvideodsp.com&Uzip=__postalCode__&CI=3502456&ADI=7587606&PRI=9cbaa554-c2fd-4d7f-8fe1-be3f64f96f13&Udma=__dma__&ssMLVer=rml_app_1.9.0&Uctry=__country__&AVI=425726&ssASVer=2.0&PBI=3500226&RI=1&Ust=__state__&NI=1344&admode=preroll&ssDsC=mobiletablet&ssRnd=1095634115&EvaF=1&pctVw=100,COMPLETE,200,https,GET,image/gif,/127.0.0.1,50958,l0-secure.videohub.tv/67.226.210.15,443,,03 Jun 2019 14:29:58,03 Jun 2019 14:29:58,03 Jun 2019 14:29:58,03 Jun 2019 14:29:58,13,,,,1,0,12,55.963867,685.5469,0.0,,702,,,0,43,,
https://s.tremorvideodsp.com/q/qa.gif?param1=viewable_completion,COMPLETE,200,https,GET,image/gif,/127.0.0.1,50937,s.tremorvideodsp.com/208.185.118.161,443,,03 Jun 2019 14:29:58,03 Jun 2019 14:29:58,03 Jun 2019 14:29:58,03 Jun 2019 14:29:58,21,,,,0,0,21,20.228516,0.0,0.0,,392,,,0,43,,
https://s.tremorvideodsp.com/q/qa.gif?param1=creative_viewable_completion,COMPLETE,200,https,GET,image/gif,/127.0.0.1,50942,s.tremorvideodsp.com/208.185.118.161,443,,03 Jun 2019 14:29:58,03 Jun 2019 14:29:58,03 Jun 2019 14:29:58,03 Jun 2019 14:29:58,20,,,,0,0,20,21.679688,0.0,0.0,,401,,,0,43,,
https://s.tremorvideodsp.com/q/qa.gif?param1=screen_completion,COMPLETE,200,https,GET,image/gif,/127.0.0.1,50937,s.tremorvideodsp.com/208.185.118.161,443,,03 Jun 2019 14:29:59,03 Jun 2019 14:29:59,03 Jun 2019 14:29:59,03 Jun 2019 14:29:59,32,,,,0,0,32,13.213867,0.0,0.0,,390,,,0,43,,
https://l0-secure.videohub.tv/ssframework/log/log.png?EC=7&a=logitemaction&nolog=1&ssPD=tremorvideodsp.com&Uzip=__postalCode__&CI=3502456&ADI=7587606&PRI=9cbaa554-c2fd-4d7f-8fe1-be3f64f96f13&Udma=__dma__&ssMLVer=rml_app_1.9.0&Uctry=__country__&AVI=425726&ssASVer=2.0&PBI=3500226&RI=1&Ust=__state__&NI=1344&admode=preroll&ssDsC=mobiletablet&ssRnd=2020256643&Eipct=100&RcpF=1&EiN=1,COMPLETE,200,https,GET,image/gif,/127.0.0.1,50958,l0-secure.videohub.tv/67.226.210.15,443,,03 Jun 2019 14:29:59,03 Jun 2019 14:29:59,03 Jun 2019 14:29:59,03 Jun 2019 14:29:59,13,,,,0,1,12,56.339844,0.0,41.992188,,707,,,0,43,,
https://s.tremorvideodsp.com/q/qa.gif?param1=creative_completion,COMPLETE,200,https,GET,image/gif,/127.0.0.1,50942,s.tremorvideodsp.com/208.185.118.161,443,,03 Jun 2019 14:29:59,03 Jun 2019 14:29:59,03 Jun 2019 14:29:59,03 Jun 2019 14:29:59,41,,,,0,0,41,10.360352,0.0,0.0,,392,,,0,43,,
https://s.tremorvideodsp.com/q/qa.gif?param1=completion,COMPLETE,200,https,GET,image/gif,/127.0.0.1,50956,s.tremorvideodsp.com/208.185.118.161,443,,03 Jun 2019 14:29:59,03 Jun 2019 14:29:59,03 Jun 2019 14:29:59,03 Jun 2019 14:29:59,21,,,,0,0,21,19.80957,0.0,0.0,,383,,,0,43,,
https://s.tremorvideodsp.com/q/video1_small.mp4,COMPLETE,206,https,GET,video/mp4,/127.0.0.1,51063,s.tremorvideodsp.com/208.185.118.154,443,,03 Jun 2019 14:29:59,03 Jun 2019 14:29:59,03 Jun 2019 14:29:59,03 Jun 2019 14:29:59,168,63,10,27,0,1,67,95.71973,0.0,14698.242,1058,358,,15049,0,2,,
https://s.tremorvideodsp.com/q/video1_small.mp4,COMPLETE,206,https,GET,video/mp4,/127.0.0.1,51063,s.tremorvideodsp.com/208.185.118.154,443,,03 Jun 2019 14:29:59,03 Jun 2019 14:29:59,03 Jun 2019 14:29:59,03 Jun 2019 14:29:59,71,,,,0,14,57,906.3867,0.0,4571.4277,,362,,,0,65536,,
https://s.tremorvideodsp.com/q/video1_small.mp4,COMPLETE,206,https,GET,video/mp4,/127.0.0.1,51063,s.tremorvideodsp.com/208.185.118.154,443,,03 Jun 2019 14:29:59,03 Jun 2019 14:29:59,03 Jun 2019 14:29:59,03 Jun 2019 14:29:59,36,,,,0,8,28,1787.7598,0.0,8000.0,,368,,,0,65536,,
https://s.tremorvideodsp.com/q/video1_small.mp4,COMPLETE,206,https,GET,video/mp4,/127.0.0.1,51065,s.tremorvideodsp.com/208.185.118.154,443,,03 Jun 2019 14:29:59,03 Jun 2019 14:29:59,03 Jun 2019 14:29:59,03 Jun 2019 14:30:00,784,2,10,28,0,682,62,12340.202,0.0,14183.865,986,368,,14959,0,9890599,,
https://s.tremorvideodsp.com/q/video1_small.mp4,COMPLETE,206,https,GET,video/mp4,/127.0.0.1,51063,s.tremorvideodsp.com/208.185.118.154,443,,03 Jun 2019 14:29:59,03 Jun 2019 14:29:59,03 Jun 2019 14:29:59,03 Jun 2019 14:29:59,39,,,,0,4,35,1650.2402,0.0,16000.0,,368,,,0,65536,,
https://jwpltx.com,COMPLETE,200,https,CONNECT,,/127.0.0.1,51067,jwpltx.com/34.204.28.68,443,,03 Jun 2019 14:30:00,,,03 Jun 2019 14:30:35,35763,9,10,43,,,,0.9453125,,,1449,0,1203,31731,0,264,,
https://www.tremorvideodsp.com,COMPLETE,200,https,CONNECT,,/127.0.0.1,51069,www.tremorvideodsp.com/34.206.36.121,443,,03 Jun 2019 14:30:02,,,03 Jun 2019 14:30:03,350,69,9,66,,,,132.12598,,,1584,0,268,12301,0,33201,,
https://s.tremorvideodsp.com/q/video1_small.mp4,COMPLETE,206,https,GET,video/mp4,/127.0.0.1,51071,s.tremorvideodsp.com/208.185.118.154,443,,03 Jun 2019 14:30:05,03 Jun 2019 14:30:05,03 Jun 2019 14:30:05,03 Jun 2019 14:30:05,70,3,11,28,0,0,28,229.72852,0.0,0.0,1058,358,,15049,0,2,,
https://s.tremorvideodsp.com/q/video1_small.mp4,COMPLETE,206,https,GET,video/mp4,/127.0.0.1,51071,s.tremorvideodsp.com/208.185.118.154,443,,03 Jun 2019 14:30:05,03 Jun 2019 14:30:05,03 Jun 2019 14:30:05,03 Jun 2019 14:30:05,42,,,,0,14,28,1532.2266,0.0,4571.4277,,362,,,0,65536,,
https://s.tremorvideodsp.com/q/video1_small.mp4,COMPLETE,206,https,GET,video/mp4,/127.0.0.1,51071,s.tremorvideodsp.com/208.185.118.154,443,,03 Jun 2019 14:30:05,03 Jun 2019 14:30:05,03 Jun 2019 14:30:05,03 Jun 2019 14:30:05,34,,,,0,6,28,1892.9219,0.0,10666.666,,368,,,0,65536,,
https://s.tremorvideodsp.com/q/video1_small.mp4,COMPLETE,206,https,GET,video/mp4,/127.0.0.1,51073,s.tremorvideodsp.com/208.185.118.154,443,com.xk72.proxy.ProxyException: Client closed connection before receiving entire response,03 Jun 2019 14:30:05,03 Jun 2019 14:30:05,03 Jun 2019 14:30:05,03 Jun 2019 14:30:05,217,2,11,26,0,122,56,7532.3203,0.0,13386.814,986,368,,14959,0,1657429,,
https://s.tremorvideodsp.com/q/video1_small.mp4,COMPLETE,206,https,GET,video/mp4,/127.0.0.1,51071,s.tremorvideodsp.com/208.185.118.154,443,,03 Jun 2019 14:30:05,03 Jun 2019 14:30:05,03 Jun 2019 14:30:05,03 Jun 2019 14:30:05,33,,,,1,4,28,1950.2832,359.375,16000.0,,368,,,0,65536,,
https://valid.apple.com,COMPLETE,200,https,CONNECT,,/127.0.0.1,51075,valid.apple.com/72.37.164.128,443,,03 Jun 2019 14:30:37,,,03 Jun 2019 14:30:39,2085,61,10,133,,,,20.83496,,,3024,0,205,38556,0,2700,,
http://ocsp.apple.com/ocsp03-asi2ca02/ME4wTKADAgEAMEUwQzBBMAkGBSsOAwIaBQAEFDpjNYC91gD%2BzsNfJ0wP9wrPSi8lBBQSdXxHkv2D474u%2FFl%2FZ0OBNRBF7AIIPtcZcAHvZ58%3D,COMPLETE,200,http,GET,application/ocsp-response,/127.0.0.1,51077,ocsp.apple.com/17.253.97.204,80,,03 Jun 2019 14:30:37,03 Jun 2019 14:30:37,03 Jun 2019 14:30:37,03 Jun 2019 14:30:37,129,123,2,,0,0,4,35.118164,0.0,0.0,,313,,,604,3722,,
