URL,Status,Response Code,Protocol,Method,Content-Type,Client Address,Client Port,Remote Address,Remote Port,Exception,Request Start Time,Request End Time,Response Start Time,Response End Time,Duration (ms),DNS Duration (ms),Connect Duration (ms),SSL Duration (ms),Request Duration (ms),Response Duration (ms),Latency (ms),Speed (KB/s),Request Speed (KB/s),Response Speed (KB/s),Request Handshake Size (bytes),Request Header Size (bytes),Request Body Size (bytes),Response Handshake Size (bytes),Response Header Size (bytes),Response Body Size (bytes),Request Compression,Response Compression
https://ts01-b.cloudsink.net,RECEIVING_REQUEST_BODY,200,https,CONNECT,,/127.0.0.1,56951,ts01-b.cloudsink.net/54.67.92.206,443,,04 Jun 2019 11:02:57,,,,2855752,18,72,333,,,,0.080078125,,,1246,0,176325,17474,0,41688,,
https://14.client-channel.google.com,RECEIVING_RESPONSE_BODY,200,https,CONNECT,,/127.0.0.1,56973,14.client-channel.google.com/74.125.192.189,443,,04 Jun 2019 11:16:48,,,,2024335,21,17,41,,,,0.016601562,,,1179,0,,16009,0,10279,,
https://play.google.com,COMPLETE,200,https,CONNECT,,/127.0.0.1,57163,play.google.com/172.217.10.46,443,,04 Jun 2019 11:44:22,,,04 Jun 2019 11:48:22,240479,2,2,23,,,,0.09863281,,,2892,0,1300,18780,0,,,
https://www.google-analytics.com,COMPLETE,200,https,CONNECT,,/127.0.0.1,57274,www.google-analytics.com/172.217.6.206,443,,04 Jun 2019 11:46:21,,,04 Jun 2019 11:50:21,240180,3,3,81,,,,0.07714844,,,1582,0,889,15900,0,,,
https://www.googletagmanager.com,COMPLETE,200,https,CONNECT,,/127.0.0.1,57286,www.googletagmanager.com/172.217.10.40,443,,04 Jun 2019 11:46:21,,,04 Jun 2019 11:50:21,239663,4,2,42,,,,0.18066406,,,1582,0,471,15900,0,,,
https://stats.g.doubleclick.net,COMPLETE,200,https,CONNECT,,/127.0.0.1,57293,stats.g.doubleclick.net/173.194.204.154,443,,04 Jun 2019 11:46:21,,,04 Jun 2019 11:50:21,239471,2,17,50,,,,0.06933594,,,1577,0,617,14309,0,,,
https://www.google.com,COMPLETE,200,https,CONNECT,,/127.0.0.1,57296,www.google.com/172.217.11.36,443,,04 Jun 2019 11:46:22,,,04 Jun 2019 11:50:21,239073,20,2,43,,,,0.06542969,,,1532,0,818,13253,0,,,
https://ssl.gstatic.com,RECEIVING_REQUEST_BODY,200,https,CONNECT,,/127.0.0.1,57313,ssl.gstatic.com/172.217.12.195,443,,04 Jun 2019 11:47:07,,,,206019,2,2,3,,,,0.0146484375,,,1608,0,599,372,0,533,,
https://play.google.com,RECEIVING_REQUEST_BODY,200,https,CONNECT,,/127.0.0.1,57320,play.google.com/172.217.10.46,443,,04 Jun 2019 11:48:44,,,,108995,2,2,,,,,0.00390625,,,517,0,0,,0,0,,
https://play.google.com,RECEIVING_REQUEST_BODY,200,https,CONNECT,,/127.0.0.1,57322,play.google.com/172.217.10.46,443,,04 Jun 2019 11:48:44,,,,108950,1,2,3,,,,0.057617188,,,1608,0,3291,372,0,1231,,
https://entitlements.jwplayer.com,COMPLETE,200,https,CONNECT,,/127.0.0.1,57324,entitlements.jwplayer.com/72.21.81.189,443,,04 Jun 2019 11:49:02,,,04 Jun 2019 11:49:32,30108,29,1,45,,,,1.1669922,,,1684,0,317,33541,0,464,,
https://s.tremorvideodsp.com/q/video1_small.mp4,COMPLETE,206,https,GET,video/mp4,/127.0.0.1,57325,s.tremorvideodsp.com/23.48.39.121,443,,04 Jun 2019 11:49:02,04 Jun 2019 11:49:02,04 Jun 2019 11:49:02,04 Jun 2019 11:49:02,244,130,9,22,0,0,83,65.90527,0.0,0.0,1058,358,,15049,0,2,,
https://jwpltx.com,COMPLETE,200,https,CONNECT,,/127.0.0.1,57327,jwpltx.com/52.1.20.79,443,,04 Jun 2019 11:49:02,,,04 Jun 2019 11:49:43,40916,2,11,43,,,,0.8300781,,,1609,0,1203,31731,0,264,,
https://s.tremorvideodsp.com/q/video1_small.mp4,COMPLETE,206,https,GET,video/mp4,/127.0.0.1,57325,s.tremorvideodsp.com/23.48.39.121,443,,04 Jun 2019 11:49:02,04 Jun 2019 11:49:02,04 Jun 2019 11:49:02,04 Jun 2019 11:49:02,78,,,,0,13,65,825.0449,0.0,4923.076,,362,,,0,65536,,
https://s.tremorvideodsp.com/q/video1_small.mp4,COMPLETE,206,https,GET,video/mp4,/127.0.0.1,57325,s.tremorvideodsp.com/23.48.39.121,443,,04 Jun 2019 11:49:02,04 Jun 2019 11:49:02,04 Jun 2019 11:49:02,04 Jun 2019 11:49:02,133,,,,0,15,118,483.9043,0.0,4266.666,,368,,,0,65536,,
https://s.tremorvideodsp.com/q/video1_small.mp4,COMPLETE,206,https,GET,video/mp4,/127.0.0.1,57330,s.tremorvideodsp.com/23.48.39.121,443,,04 Jun 2019 11:49:02,04 Jun 2019 11:49:02,04 Jun 2019 11:49:02,04 Jun 2019 11:49:03,528,2,8,26,0,460,32,18323.33,0.0,21029.121,986,368,,14959,0,9890599,,
https://s.tremorvideodsp.com/q/video1_small.mp4,COMPLETE,206,https,GET,video/mp4,/127.0.0.1,57325,s.tremorvideodsp.com/23.48.39.121,443,,04 Jun 2019 11:49:02,04 Jun 2019 11:49:02,04 Jun 2019 11:49:02,04 Jun 2019 11:49:02,66,,,,0,5,61,975.1416,0.0,12800.0,,368,,,0,65536,,
https://adserver.videohub.tv/preview?RI=wEkkvVET5BHRud-Fv_1Y7g&screenType=mobiletablet&rml=true&Uctry=__country__&Ust=__state__&Udma=__dma__&Uzip=__postalCode__&Ucty=__city__&Uctnt=__continent__&Ulong=__longitude__&Ulat=__latitude__&Uacd=__areaCode__&position_ACP=__adChoicesPosition__&usedACP=__usedACP__&dspACP=__adChoicesProviders__&sig=14DD18EB3FE77E73E4F4C0633049314F&dmps=y&ssRmlApp=1&isApp=y,COMPLETE,200,https,GET,application/xml; charset=utf-8,/127.0.0.1,57332,adserver.videohub.tv/67.226.210.10,443,,04 Jun 2019 11:49:11,04 Jun 2019 11:49:11,04 Jun 2019 11:49:11,04 Jun 2019 11:49:11,67,1,10,30,0,11,15,587.249,0.0,3424.7158,1046,668,,25605,0,12971,,
https://objects-secure.videohub.tv/net/js/rml-app.min.js?adData=https%3A%2F%2Fs.tremorvideodsp.com%2Fq%2FVAST_3%2Fmp4_vast3_sec_2.xml,COMPLETE,200,https,GET,application/javascript,/127.0.0.1,57334,objects-secure.videohub.tv/104.110.215.249,443,,04 Jun 2019 11:49:11,04 Jun 2019 11:49:11,04 Jun 2019 11:49:11,04 Jun 2019 11:49:11,135,76,8,28,0,12,11,586.92773,0.0,6483.0723,1070,403,,16754,0,62910,,72.6%
https://s.tremorvideodsp.com/q/VAST_3/mp4_vast3_sec_2.xml,COMPLETE,200,https,GET,text/xml,/127.0.0.1,57336,s.tremorvideodsp.com/23.48.39.121,443,,04 Jun 2019 11:49:11,04 Jun 2019 11:49:11,04 Jun 2019 11:49:11,04 Jun 2019 11:49:11,126,2,8,24,0,1,91,130.3086,0.0,15078.125,1046,327,,15049,0,391,,72.3%
https://s.tremorvideodsp.com/q/video1_small.mp4,COMPLETE,206,https,GET,video/mp4,/127.0.0.1,57338,s.tremorvideodsp.com/23.48.39.121,443,,04 Jun 2019 11:49:11,04 Jun 2019 11:49:11,04 Jun 2019 11:49:12,04 Jun 2019 11:49:12,63,1,9,25,1,0,27,255.2539,1382.8125,0.0,1058,358,,15049,0,2,,
https://s.tremorvideodsp.com/q/video1_small.mp4,COMPLETE,206,https,GET,video/mp4,/127.0.0.1,57338,s.tremorvideodsp.com/23.48.39.121,443,,04 Jun 2019 11:49:12,04 Jun 2019 11:49:12,04 Jun 2019 11:49:12,04 Jun 2019 11:49:12,34,,,,0,13,21,1892.75,0.0,4923.076,,362,,,0,65536,,
https://s.tremorvideodsp.com/q/video1_small.mp4,COMPLETE,206,https,GET,video/mp4,/127.0.0.1,57338,s.tremorvideodsp.com/23.48.39.121,443,,04 Jun 2019 11:49:12,04 Jun 2019 11:49:12,04 Jun 2019 11:49:12,04 Jun 2019 11:49:12,46,,,,0,6,40,1399.1162,0.0,10666.666,,368,,,0,65536,,
https://s.tremorvideodsp.com/q/video1_small.mp4,COMPLETE,206,https,GET,video/mp4,/127.0.0.1,57340,s.tremorvideodsp.com/23.48.39.121,443,,04 Jun 2019 11:49:12,04 Jun 2019 11:49:12,04 Jun 2019 11:49:12,04 Jun 2019 11:49:12,590,2,7,24,0,539,18,16397.828,0.0,17946.932,986,368,,14959,0,9890599,,
https://s.tremorvideodsp.com/q/video1_small.mp4,COMPLETE,206,https,GET,video/mp4,/127.0.0.1,57338,s.tremorvideodsp.com/23.48.39.121,443,,04 Jun 2019 11:49:12,04 Jun 2019 11:49:12,04 Jun 2019 11:49:12,04 Jun 2019 11:49:12,26,,,,0,5,21,2475.3604,0.0,12800.0,,368,,,0,65536,,
https://prd.jwpltx.com,COMPLETE,200,https,CONNECT,,/127.0.0.1,57342,prd.jwpltx.com/151.101.202.217,443,,04 Jun 2019 11:49:12,,,04 Jun 2019 11:49:43,31016,48,10,48,,,,1.3369141,,,1337,0,886,40027,0,237,,
https://chat-pa.clients6.google.com,RECEIVING_REQUEST_BODY,200,https,CONNECT,,/127.0.0.1,57344,chat-pa.clients6.google.com/172.217.12.202,443,,04 Jun 2019 11:49:41,,,,51547,2,2,,,,,0.009765625,,,517,0,0,,0,0,,
https://chat-pa.clients6.google.com,RECEIVING_REQUEST_BODY,200,https,CONNECT,,/127.0.0.1,57346,chat-pa.clients6.google.com/172.217.12.202,443,,04 Jun 2019 11:49:41,,,,51474,1,3,,,,,0.009765625,,,517,0,0,,0,0,,
https://clients4.google.com,RECEIVING_REQUEST_BODY,200,https,CONNECT,,/127.0.0.1,57348,clients4.google.com/172.217.10.238,443,,04 Jun 2019 11:49:48,,,,45063,4,3,,,,,0.0107421875,,,517,0,0,,0,0,,
https://entitlements.jwplayer.com,COMPLETE,200,https,CONNECT,,/127.0.0.1,57350,entitlements.jwplayer.com/72.21.81.189,443,,04 Jun 2019 11:49:48,,,04 Jun 2019 11:50:19,31226,2,2,144,,,,0.96875,,,1684,0,317,28535,0,464,,
https://s.tremorvideodsp.com/q/video1_small.mp4,COMPLETE,206,https,GET,video/mp4,/127.0.0.1,57352,s.tremorvideodsp.com/23.48.39.121,443,,04 Jun 2019 11:49:48,04 Jun 2019 11:49:48,04 Jun 2019 11:49:48,04 Jun 2019 11:49:48,125,56,7,22,0,0,40,128.64844,0.0,0.0,1058,358,,15049,0,2,,
https://jwpltx.com,COMPLETE,200,https,CONNECT,,/127.0.0.1,57353,jwpltx.com/52.1.20.79,443,,04 Jun 2019 11:49:48,,,04 Jun 2019 11:50:19,30833,4,8,12,,,,0.07324219,,,1075,0,608,515,0,132,,
https://s.tremorvideodsp.com/q/video1_small.mp4,COMPLETE,206,https,GET,video/mp4,/127.0.0.1,57352,s.tremorvideodsp.com/23.48.39.121,443,,04 Jun 2019 11:49:48,04 Jun 2019 11:49:48,04 Jun 2019 11:49:48,04 Jun 2019 11:49:48,41,,,,1,17,23,1569.5977,353.51562,3764.705,,362,,,0,65536,,
https://s.tremorvideodsp.com/q/video1_small.mp4,COMPLETE,206,https,GET,video/mp4,/127.0.0.1,57352,s.tremorvideodsp.com/23.48.39.121,443,,04 Jun 2019 11:49:48,04 Jun 2019 11:49:48,04 Jun 2019 11:49:48,04 Jun 2019 11:49:48,30,,,,0,8,22,2145.3125,0.0,8000.0,,368,,,0,65536,,
https://s.tremorvideodsp.com/q/video1_small.mp4,COMPLETE,206,https,GET,video/mp4,/127.0.0.1,57356,s.tremorvideodsp.com/23.48.39.121,443,com.xk72.proxy.ProxyException: Client closed connection before receiving entire response,04 Jun 2019 11:49:48,04 Jun 2019 11:49:48,04 Jun 2019 11:49:48,04 Jun 2019 11:49:48,202,2,7,23,0,145,25,5234.326,0.0,7282.839,986,368,,14959,0,1066397,,
https://s.tremorvideodsp.com/q/video1_small.mp4,COMPLETE,206,https,GET,video/mp4,/127.0.0.1,57352,s.tremorvideodsp.com/23.48.39.121,443,,04 Jun 2019 11:49:48,04 Jun 2019 11:49:48,04 Jun 2019 11:49:48,04 Jun 2019 11:49:48,29,,,,0,4,25,2219.288,0.0,16000.0,,368,,,0,65536,,
