URL,Status,Response Code,Protocol,Method,Content-Type,Client Address,Client Port,Remote Address,Remote Port,Exception,Request Start Time,Request End Time,Response Start Time,Response End Time,Duration (ms),DNS Duration (ms),Connect Duration (ms),SSL Duration (ms),Request Duration (ms),Response Duration (ms),Latency (ms),Speed (KB/s),Request Speed (KB/s),Response Speed (KB/s),Request Handshake Size (bytes),Request Header Size (bytes),Request Body Size (bytes),Response Handshake Size (bytes),Response Header Size (bytes),Response Body Size (bytes),Request Compression,Response Compression
https://ssl.gstatic.com,RECEIVING_REQUEST_BODY,200,https,CONNECT,,/127.0.0.1,58085,ssl.gstatic.com/172.217.12.195,443,,04 Jun 2019 12:52:06,,,,3618618,2,2,4,,,,0.0029296875,,,1608,0,4456,372,0,7342,,
https://ts01-b.cloudsink.net,RECEIVING_REQUEST_BODY,200,https,CONNECT,,/127.0.0.1,58432,ts01-b.cloudsink.net/54.183.142.105,443,,04 Jun 2019 13:22:43,,,,1781865,5,73,173,,,,0.111328125,,,1246,0,150093,17474,0,34687,,
https://14.client-channel.google.com,RECEIVING_RESPONSE_BODY,200,https,CONNECT,,/127.0.0.1,58485,14.client-channel.google.com/74.125.141.189,443,,04 Jun 2019 13:23:54,,,,1711250,53,21,66,,,,0.01953125,,,1179,0,7652,15994,0,11071,,
https://chat-pa.clients6.google.com,COMPLETE,200,https,CONNECT,,/127.0.0.1,59368,chat-pa.clients6.google.com/172.217.10.106,443,,04 Jun 2019 13:46:41,,,04 Jun 2019 13:50:04,202794,0,2,22,,,,0.123046875,,,2892,0,1873,19621,0,,,
https://play.google.com,COMPLETE,200,https,CONNECT,,/127.0.0.1,59370,play.google.com/172.217.10.46,443,,04 Jun 2019 13:47:10,,,04 Jun 2019 13:52:05,294646,1,2,24,,,,0.08496094,,,1487,0,3430,18780,0,1964,,
https://www.googletagmanager.com,COMPLETE,200,https,CONNECT,,/127.0.0.1,59482,www.googletagmanager.com/172.217.10.40,443,,04 Jun 2019 13:48:13,,,04 Jun 2019 13:52:13,240133,8,2,64,,,,0.07519531,,,1582,0,496,15900,0,,,
https://www.google-analytics.com,COMPLETE,200,https,CONNECT,,/127.0.0.1,59496,www.google-analytics.com/172.217.11.46,443,,04 Jun 2019 13:48:14,,,04 Jun 2019 13:52:13,239277,54,3,33,,,,0.08105469,,,2892,0,755,15900,0,,,
https://stats.g.doubleclick.net,COMPLETE,200,https,CONNECT,,/127.0.0.1,59498,stats.g.doubleclick.net/173.194.206.154,443,,04 Jun 2019 13:48:14,,,04 Jun 2019 13:52:13,239143,21,17,21,,,,0.0146484375,,,2207,0,617,372,0,,,
https://www.google.com,COMPLETE,200,https,CONNECT,,/127.0.0.1,59500,www.google.com/172.217.10.68,443,,04 Jun 2019 13:48:14,,,04 Jun 2019 13:52:13,239051,3,3,4,,,,0.015625,,,2207,0,819,372,0,,,
https://play.google.com,COMPLETE,200,https,CONNECT,,/127.0.0.1,59517,play.google.com/172.217.10.46,443,,04 Jun 2019 13:49:49,,,04 Jun 2019 13:51:50,120638,1,2,4,,,,0.034179688,,,2207,0,1184,372,0,571,,
https://api-glb-nyc.smoot.apple.com,COMPLETE,200,https,CONNECT,,/127.0.0.1,59519,api-glb-nyc.smoot.apple.com/17.249.121.246,443,,04 Jun 2019 13:49:58,,,04 Jun 2019 13:49:58,489,20,70,173,,,,44.198242,,,1215,0,2496,17991,0,430,,
https://entitlements.jwplayer.com,COMPLETE,200,https,CONNECT,,/127.0.0.1,59521,entitlements.jwplayer.com/72.21.81.189,443,,04 Jun 2019 13:50:54,,,04 Jun 2019 13:51:24,30103,20,2,43,,,,1.0048828,,,1684,0,317,28535,0,464,,
https://s.tremorvideodsp.com/q/video1_small.mp4,COMPLETE,206,https,GET,video/mp4,/127.0.0.1,59522,s.tremorvideodsp.com/23.48.39.121,443,,04 Jun 2019 13:50:54,04 Jun 2019 13:50:54,04 Jun 2019 13:50:54,04 Jun 2019 13:50:54,105,30,7,21,0,0,47,153.15234,0.0,0.0,1058,358,,15049,0,2,,
https://jwpltx.com,COMPLETE,200,https,CONNECT,,/127.0.0.1,59524,jwpltx.com/34.192.30.112,443,,04 Jun 2019 13:50:54,,,04 Jun 2019 13:51:35,40472,4,8,48,,,,0.83984375,,,1609,0,1204,31731,0,264,,
https://s.tremorvideodsp.com/q/video1_small.mp4,COMPLETE,206,https,GET,video/mp4,/127.0.0.1,59522,s.tremorvideodsp.com/23.48.39.121,443,,04 Jun 2019 13:50:54,04 Jun 2019 13:50:54,04 Jun 2019 13:50:55,04 Jun 2019 13:50:55,56,,,,0,11,45,1149.1699,0.0,5818.1816,,362,,,0,65536,,
https://s.tremorvideodsp.com/q/video1_small.mp4,COMPLETE,206,https,GET,video/mp4,/127.0.0.1,59522,s.tremorvideodsp.com/23.48.39.121,443,,04 Jun 2019 13:50:55,04 Jun 2019 13:50:55,04 Jun 2019 13:50:55,04 Jun 2019 13:50:55,105,,,,0,7,98,612.9463,0.0,9142.856,,368,,,0,65536,,
https://s.tremorvideodsp.com/q/video1_small.mp4,COMPLETE,206,https,GET,video/mp4,/127.0.0.1,59527,s.tremorvideodsp.com/23.48.39.121,443,,04 Jun 2019 13:50:55,04 Jun 2019 13:50:55,04 Jun 2019 13:50:55,04 Jun 2019 13:50:55,585,2,9,25,0,518,31,16537.98,0.0,18674.51,986,368,,14959,0,9890599,,
https://s.tremorvideodsp.com/q/video1_small.mp4,COMPLETE,206,https,GET,video/mp4,/127.0.0.1,59522,s.tremorvideodsp.com/23.48.39.121,443,,04 Jun 2019 13:50:55,04 Jun 2019 13:50:55,04 Jun 2019 13:50:55,04 Jun 2019 13:50:55,108,,,,1,14,93,595.9199,359.375,4571.4277,,368,,,0,65536,,
https://adserver.videohub.tv/preview?RI=wEkkvVET5BHRud-Fv_1Y7g&screenType=mobiletablet&rml=true&Uctry=__country__&Ust=__state__&Udma=__dma__&Uzip=__postalCode__&Ucty=__city__&Uctnt=__continent__&Ulong=__longitude__&Ulat=__latitude__&Uacd=__areaCode__&position_ACP=__adChoicesPosition__&usedACP=__usedACP__&dspACP=__adChoicesProviders__&sig=14DD18EB3FE77E73E4F4C0633049314F&dmps=y&ssRmlApp=1&isApp=y,COMPLETE,200,https,GET,application/xml; charset=utf-8,/127.0.0.1,59529,adserver.videohub.tv/67.226.210.9,443,,04 Jun 2019 13:51:03,04 Jun 2019 13:51:04,04 Jun 2019 13:51:04,04 Jun 2019 13:51:04,69,2,10,30,0,10,17,570.2412,0.0,3767.2852,1046,668,,25605,0,12972,,
https://objects-secure.videohub.tv/net/js/rml-app.min.js?adData=https%3A%2F%2Fs.tremorvideodsp.com%2Fq%2FVAST_3%2Fmp4_vast3_sec_2.xml,COMPLETE,200,https,GET,application/javascript,/127.0.0.1,59531,objects-secure.videohub.tv/104.110.215.249,443,,04 Jun 2019 13:51:04,04 Jun 2019 13:51:04,04 Jun 2019 13:51:04,04 Jun 2019 13:51:04,99,49,8,22,0,12,8,800.35645,0.0,6483.0723,1070,403,,16754,0,62910,,72.6%
https://s.tremorvideodsp.com/q/VAST_3/mp4_vast3_sec_2.xml,COMPLETE,200,https,GET,text/xml,/127.0.0.1,59533,s.tremorvideodsp.com/23.48.39.121,443,,04 Jun 2019 13:51:04,04 Jun 2019 13:51:04,04 Jun 2019 13:51:04,04 Jun 2019 13:51:04,109,2,8,26,1,0,72,150.63184,1340.8203,0.0,1046,327,,15049,0,391,,72.3%
https://s.tremorvideodsp.com/q/video1_small.mp4,COMPLETE,206,https,GET,video/mp4,/127.0.0.1,59535,s.tremorvideodsp.com/23.48.39.121,443,,04 Jun 2019 13:51:04,04 Jun 2019 13:51:04,04 Jun 2019 13:51:04,04 Jun 2019 13:51:04,61,2,9,23,0,1,26,263.62305,0.0,14698.242,1058,358,,15049,0,2,,
https://s.tremorvideodsp.com/q/video1_small.mp4,COMPLETE,206,https,GET,video/mp4,/127.0.0.1,59535,s.tremorvideodsp.com/23.48.39.121,443,,04 Jun 2019 13:51:04,04 Jun 2019 13:51:04,04 Jun 2019 13:51:04,04 Jun 2019 13:51:04,37,,,,0,12,25,1739.2842,0.0,5333.333,,362,,,0,65536,,
https://s.tremorvideodsp.com/q/video1_small.mp4,COMPLETE,206,https,GET,video/mp4,/127.0.0.1,59535,s.tremorvideodsp.com/23.48.39.121,443,,04 Jun 2019 13:51:04,04 Jun 2019 13:51:04,04 Jun 2019 13:51:04,04 Jun 2019 13:51:04,28,,,,0,6,22,2298.5488,0.0,10666.666,,368,,,0,65536,,
https://s.tremorvideodsp.com/q/video1_small.mp4,COMPLETE,206,https,GET,video/mp4,/127.0.0.1,59537,s.tremorvideodsp.com/23.48.39.121,443,,04 Jun 2019 13:51:04,04 Jun 2019 13:51:04,04 Jun 2019 13:51:04,04 Jun 2019 13:51:05,583,2,8,23,0,529,21,16594.715,0.0,18286.193,986,368,,14959,0,9890599,,
https://s.tremorvideodsp.com/q/video1_small.mp4,COMPLETE,206,https,GET,video/mp4,/127.0.0.1,59535,s.tremorvideodsp.com/23.48.39.121,443,,04 Jun 2019 13:51:04,04 Jun 2019 13:51:04,04 Jun 2019 13:51:04,04 Jun 2019 13:51:04,35,,,,0,4,31,1838.8389,0.0,16000.0,,368,,,0,65536,,
https://prd.jwpltx.com,COMPLETE,200,https,CONNECT,,/127.0.0.1,59539,prd.jwpltx.com/54.174.103.247,443,,04 Jun 2019 13:51:05,,,04 Jun 2019 13:51:35,30227,19,10,41,,,,1.1054688,,,1469,0,887,31731,0,132,,
https://entitlements.jwplayer.com,COMPLETE,200,https,CONNECT,,/127.0.0.1,59543,entitlements.jwplayer.com/72.21.81.189,443,,04 Jun 2019 13:51:41,,,04 Jun 2019 13:52:12,31130,2,16,91,,,,1.1289062,,,1684,0,317,33541,0,464,,
https://s.tremorvideodsp.com/q/video1_small.mp4,COMPLETE,206,https,GET,video/mp4,/127.0.0.1,59545,s.tremorvideodsp.com/23.48.39.112,443,,04 Jun 2019 13:51:41,04 Jun 2019 13:51:41,04 Jun 2019 13:51:41,04 Jun 2019 13:51:41,98,28,8,36,0,0,26,164.0918,0.0,0.0,1058,358,,15049,0,2,,
https://jwpltx.com,COMPLETE,200,https,CONNECT,,/127.0.0.1,59546,jwpltx.com/52.200.42.178,443,,04 Jun 2019 13:51:41,,,04 Jun 2019 13:52:11,30523,4,9,39,,,,1.0898438,,,1609,0,609,31731,0,132,,
https://s.tremorvideodsp.com/q/video1_small.mp4,COMPLETE,206,https,GET,video/mp4,/127.0.0.1,59545,s.tremorvideodsp.com/23.48.39.112,443,,04 Jun 2019 13:51:41,04 Jun 2019 13:51:41,04 Jun 2019 13:51:41,04 Jun 2019 13:51:41,38,,,,0,12,26,1693.5127,0.0,5333.333,,362,,,0,65536,,
https://s.tremorvideodsp.com/q/video1_small.mp4,COMPLETE,206,https,GET,video/mp4,/127.0.0.1,59545,s.tremorvideodsp.com/23.48.39.112,443,,04 Jun 2019 13:51:41,04 Jun 2019 13:51:41,04 Jun 2019 13:51:41,04 Jun 2019 13:51:41,29,,,,0,8,21,2219.288,0.0,8000.0,,368,,,0,65536,,
https://s.tremorvideodsp.com/q/video1_small.mp4,COMPLETE,206,https,GET,video/mp4,/127.0.0.1,59549,s.tremorvideodsp.com/23.48.39.112,443,com.xk72.proxy.ProxyException: Client closed connection before receiving entire response,04 Jun 2019 13:51:41,04 Jun 2019 13:51:41,04 Jun 2019 13:51:41,04 Jun 2019 13:51:41,221,2,8,46,0,135,30,5390.757,0.0,8815.075,986,368,,14959,0,1203637,,
https://s.tremorvideodsp.com/q/video1_small.mp4,COMPLETE,206,https,GET,video/mp4,/127.0.0.1,59545,s.tremorvideodsp.com/23.48.39.112,443,,04 Jun 2019 13:51:41,04 Jun 2019 13:51:41,04 Jun 2019 13:51:41,04 Jun 2019 13:51:41,31,,,,0,6,25,2076.1084,0.0,10666.666,,368,,,0,65536,,
https://play.google.com,RECEIVING_REQUEST_BODY,200,https,CONNECT,,/127.0.0.1,59551,play.google.com/172.217.10.46,443,,04 Jun 2019 13:52:21,,,,3755,20,2,,,,,0.13378906,,,517,0,0,,0,0,,
https://play.google.com,RECEIVING_REQUEST_BODY,200,https,CONNECT,,/127.0.0.1,59553,play.google.com/172.217.10.46,443,,04 Jun 2019 13:52:21,,,,3692,1,2,,,,,0.13671875,,,517,0,0,,0,0,,
