URL,Status,Response Code,Protocol,Method,Content-Type,Client Address,Client Port,Remote Address,Remote Port,Exception,Request Start Time,Request End Time,Response Start Time,Response End Time,Duration (ms),DNS Duration (ms),Connect Duration (ms),SSL Duration (ms),Request Duration (ms),Response Duration (ms),Latency (ms),Speed (KB/s),Request Speed (KB/s),Response Speed (KB/s),Request Handshake Size (bytes),Request Header Size (bytes),Request Body Size (bytes),Response Handshake Size (bytes),Response Header Size (bytes),Response Body Size (bytes),Request Compression,Response Compression
https://14.client-channel.google.com,RECEIVING_RESPONSE_BODY,200,https,CONNECT,,/127.0.0.1,50798,14.client-channel.google.com/74.125.192.189,443,,03 Jun 2019 14:27:42,,,,1012964,38,33,34,,,,0.0126953125,,,1608,0,4713,372,0,7128,,
https://ts01-b.cloudsink.net,RECEIVING_REQUEST_BODY,200,https,CONNECT,,/127.0.0.1,51057,ts01-b.cloudsink.net/54.193.67.98,443,,03 Jun 2019 14:29:35,,,,899640,36,72,174,,,,0.07421875,,,1246,0,42675,17474,0,7622,,
https://ssl.gstatic.com,RECEIVING_REQUEST_BODY,200,https,CONNECT,,/127.0.0.1,51061,ssl.gstatic.com/172.217.12.195,443,,03 Jun 2019 14:29:47,,,,887425,36,5,3,,,,0.005859375,,,1608,0,1427,372,0,1995,,
https://play.google.com,COMPLETE,200,https,CONNECT,,/127.0.0.1,51414,play.google.com/172.217.10.46,443,,03 Jun 2019 14:38:45,,,03 Jun 2019 14:42:45,240049,1,2,3,,,,0.021484375,,,2207,0,1928,372,0,942,,
https://www.google-analytics.com,RECEIVING_REQUEST_BODY,200,https,CONNECT,,/127.0.0.1,51526,www.google-analytics.com/172.217.11.46,443,,03 Jun 2019 14:38:51,,,,343686,37,2,52,,,,0.055664062,,,2251,0,1073,15900,0,523,,
https://stats.g.doubleclick.net,RECEIVING_REQUEST_BODY,200,https,CONNECT,,/127.0.0.1,51528,stats.g.doubleclick.net/173.194.206.155,443,,03 Jun 2019 14:38:51,,,,343514,41,32,34,,,,0.0087890625,,,1608,0,801,372,0,557,,
https://www.google.com,RECEIVING_REQUEST_BODY,200,https,CONNECT,,/127.0.0.1,51530,www.google.com/172.217.11.36,443,,03 Jun 2019 14:38:52,,,,343325,36,2,53,,,,0.047851562,,,2251,0,980,13253,0,613,,
https://safebrowsing.googleapis.com,COMPLETE,200,https,CONNECT,,/127.0.0.1,51537,safebrowsing.googleapis.com/172.217.10.74,443,,03 Jun 2019 14:39:39,,,03 Jun 2019 14:43:40,240087,1,2,81,,,,0.09765625,,,2892,0,593,19621,0,,,
https://entitlements.jwplayer.com,COMPLETE,200,https,CONNECT,,/127.0.0.1,51556,entitlements.jwplayer.com/72.21.81.189,443,,03 Jun 2019 14:42:19,,,03 Jun 2019 14:42:49,30505,2,2,54,,,,1.1523438,,,1684,0,317,33541,0,464,,
https://s.tremorvideodsp.com/q/video1_small.mp4,COMPLETE,206,https,GET,video/mp4,/127.0.0.1,51558,s.tremorvideodsp.com/23.48.39.121,443,,03 Jun 2019 14:42:19,03 Jun 2019 14:42:19,03 Jun 2019 14:42:19,03 Jun 2019 14:42:19,158,62,8,22,0,1,65,101.77832,0.0,14698.242,1058,358,,15049,0,2,,
https://jwpltx.com,COMPLETE,200,https,CONNECT,,/127.0.0.1,51559,jwpltx.com/52.70.40.88,443,,03 Jun 2019 14:42:19,,,03 Jun 2019 14:42:49,30471,6,8,42,,,,1.0917969,,,1609,0,610,31731,0,132,,
https://s.tremorvideodsp.com/q/video1_small.mp4,COMPLETE,206,https,GET,video/mp4,/127.0.0.1,51558,s.tremorvideodsp.com/23.48.39.121,443,,03 Jun 2019 14:42:19,03 Jun 2019 14:42:19,03 Jun 2019 14:42:19,03 Jun 2019 14:42:19,32,,,,0,11,21,2011.0469,0.0,5818.1816,,362,,,0,65536,,
https://s.tremorvideodsp.com/q/video1_small.mp4,COMPLETE,206,https,GET,video/mp4,/127.0.0.1,51558,s.tremorvideodsp.com/23.48.39.121,443,,03 Jun 2019 14:42:19,03 Jun 2019 14:42:19,03 Jun 2019 14:42:19,03 Jun 2019 14:42:19,30,,,,0,8,22,2145.3125,0.0,8000.0,,368,,,0,65536,,
https://s.tremorvideodsp.com/q/video1_small.mp4,COMPLETE,206,https,GET,video/mp4,/127.0.0.1,51562,s.tremorvideodsp.com/23.48.39.121,443,,03 Jun 2019 14:42:19,03 Jun 2019 14:42:19,03 Jun 2019 14:42:19,03 Jun 2019 14:42:19,520,2,9,24,0,463,22,18605.227,0.0,20892.863,986,368,,14959,0,9890599,,
https://s.tremorvideodsp.com/q/video1_small.mp4,COMPLETE,206,https,GET,video/mp4,/127.0.0.1,51558,s.tremorvideodsp.com/23.48.39.121,443,,03 Jun 2019 14:42:19,03 Jun 2019 14:42:19,03 Jun 2019 14:42:19,03 Jun 2019 14:42:19,25,,,,0,5,20,2574.375,0.0,12800.0,,368,,,0,65536,,
https://adserver.videohub.tv/preview?RI=Wb7vfN79B-_psbp15Q6OnQ&screenType=mobiletablet&rml=true&Uctry=__country__&Ust=__state__&Udma=__dma__&Uzip=__postalCode__&Ucty=__city__&Uctnt=__continent__&Ulong=__longitude__&Ulat=__latitude__&Uacd=__areaCode__&position_ACP=__adChoicesPosition__&usedACP=__usedACP__&dspACP=__adChoicesProviders__&sig=D829ECF5F89BC9FA9119219833478580&dmps=y&ssRmlApp=1&isApp=y,COMPLETE,200,https,GET,application/xml; charset=utf-8,/127.0.0.1,51564,adserver.videohub.tv/67.226.210.10,443,,03 Jun 2019 14:42:28,03 Jun 2019 14:42:28,03 Jun 2019 14:42:28,03 Jun 2019 14:42:28,112,40,11,34,0,10,17,351.4922,0.0,3769.336,1046,668,,25605,0,12993,,
https://objects-secure.videohub.tv/net/js/rml-app.min.js?adData=https%3A%2F%2Fadserver.videohub.tv%2Fadresponse%3Fkey%3D4bbbfb22-5a73-42f4-914e-f45f12fa8b91,COMPLETE,200,https,GET,application/javascript,/127.0.0.1,51566,objects-secure.videohub.tv/104.110.215.249,443,,03 Jun 2019 14:42:28,03 Jun 2019 14:42:28,03 Jun 2019 14:42:28,03 Jun 2019 14:42:28,116,62,9,23,0,13,9,683.25684,0.0,5984.375,1070,426,,16754,0,62910,,72.6%
https://adserver.videohub.tv/adresponse?key=4bbbfb22-5a73-42f4-914e-f45f12fa8b91,COMPLETE,200,https,GET,application/xml; charset=utf-8,/127.0.0.1,51564,adserver.videohub.tv/67.226.210.10,443,,03 Jun 2019 14:42:28,03 Jun 2019 14:42:28,03 Jun 2019 14:42:28,03 Jun 2019 14:42:28,14,,,,1,0,13,93.40039,341.79688,0.0,,350,,,0,989,,
https://objects-secure.tremormedia.com/net/js/io-polyfill-0.5.1.js,COMPLETE,200,https,GET,application/javascript,/127.0.0.1,51568,objects-secure.tremormedia.com/104.110.194.47,443,,03 Jun 2019 14:42:28,03 Jun 2019 14:42:28,03 Jun 2019 14:42:28,03 Jun 2019 14:42:28,110,70,8,23,0,0,9,218.12793,0.0,0.0,1086,336,,16789,0,6359,,71.5%
https://static-secure.scanscout.com,COMPLETE,200,https,CONNECT,,/127.0.0.1,51570,static-secure.scanscout.com/184.28.89.61,443,,03 Jun 2019 14:42:28,,,03 Jun 2019 14:43:02,33221,72,25,71,,,,940.8418,,,1534,0,1813,22279,0,31980218,,
https://static-secure.scanscout.com,COMPLETE,200,https,CONNECT,,/127.0.0.1,51572,static-secure.scanscout.com/184.28.89.61,443,,03 Jun 2019 14:42:29,,,03 Jun 2019 14:42:29,119,2,26,27,,,,220.26758,,,1003,0,457,339,0,25042,,
https://static-secure.scanscout.com,COMPLETE,200,https,CONNECT,,/127.0.0.1,51574,static-secure.scanscout.com/184.28.89.61,443,,03 Jun 2019 14:42:29,,,03 Jun 2019 14:42:59,30312,2,26,28,,,,2.1875,,,1003,0,457,339,0,66107,,
https://prd.jwpltx.com,COMPLETE,200,https,CONNECT,,/127.0.0.1,51576,prd.jwpltx.com/52.1.12.241,443,,03 Jun 2019 14:42:29,,,03 Jun 2019 14:43:17,47895,69,10,66,,,,0.7451172,,,1629,0,2801,31731,0,396,,
https://dt-secure.videohub.tv/v1/usync/ironsource?userId=,COMPLETE,303,https,GET,image/gif,/127.0.0.1,51577,dt-secure.videohub.tv/67.226.210.14,443,,03 Jun 2019 14:42:29,03 Jun 2019 14:42:29,03 Jun 2019 14:42:29,03 Jun 2019 14:42:29,96,42,9,35,1,0,9,278.1875,1401.3672,0.0,1050,385,,25869,0,43,,
https://sync.doubleverify.com/query.gif?ctx=42674&cmp=2311460&DVP_CMPID=&DVP_PUBID=&dvp_red=http%3A%2F%2Fads.videohub.tv%2Fssframework%2Fdt%2Fbotid%3Fa%3Dset%26DUID%3D1,COMPLETE,200,https,GET,image/gif,/127.0.0.1,51578,sync.doubleverify.com/204.154.111.224,443,,03 Jun 2019 14:42:29,03 Jun 2019 14:42:29,03 Jun 2019 14:42:29,03 Jun 2019 14:42:29,32,2,2,4,0,0,24,74.15723,0.0,0.0,729,496,,345,0,860,,-6.6%
https://tags.bluekai.com/site/2954,COMPLETE,200,https,GET,image/gif,/127.0.0.1,51581,tags.bluekai.com/96.7.23.53,443,,03 Jun 2019 14:42:29,03 Jun 2019 14:42:30,03 Jun 2019 14:42:30,03 Jun 2019 14:42:30,226,87,14,33,0,0,92,65.97363,0.0,0.0,1030,362,,13814,0,62,,
https://tps30.doubleverify.com/visit.jpg?ctx=42674&cmp=2256325&sid=1111&plc=22563261&num=&adid=&advid=498259&adsrv=41&region=30&btreg=&btadsrv=&crt=&crtname=&chnl=&unit=&pid=&uid=&dvtagver=6.1.img&DVP_CMPID=&DVP_PUBID=&turl=tremorvideodsp.com,COMPLETE,200,https,GET,image/jpeg,/127.0.0.1,51579,tps30.doubleverify.com/204.154.111.131,443,,03 Jun 2019 14:42:29,03 Jun 2019 14:42:30,03 Jun 2019 14:42:30,03 Jun 2019 14:42:30,178,158,2,11,0,0,7,143.14844,0.0,0.0,1182,570,,24198,0,142,,53.4%
https://s.tremorvideodsp.com/q/qa.gif?param1=screen_impression,COMPLETE,200,https,GET,image/gif,/127.0.0.1,51583,s.tremorvideodsp.com/23.48.39.121,443,,03 Jun 2019 14:42:29,03 Jun 2019 14:42:29,03 Jun 2019 14:42:29,03 Jun 2019 14:42:29,73,2,9,28,0,1,33,221.10352,0.0,14738.281,1046,390,,15049,0,43,,
https://tp.videohub.tv/v1/topprop.png?domain=&ui=&pri=588d3141-defb-4216-a7a6-dcf62ad84378&ssRnd=842461313,COMPLETE,200,https,GET,image/png,/127.0.0.1,51582,tp.videohub.tv/67.226.210.15,443,,03 Jun 2019 14:42:29,03 Jun 2019 14:42:30,03 Jun 2019 14:42:30,03 Jun 2019 14:42:30,67,2,11,38,0,0,16,398.90332,0.0,0.0,1022,434,,25869,0,43,,
https://l0-secure.videohub.tv/ssframework/log/log.png?EC=3&a=logitemaction&nolog=1&ssPD=tremorvideodsp.com&Uzip=__postalCode__&ADI=7878996&PRI=588d3141-defb-4216-a7a6-dcf62ad84378&Udma=__dma__&ssMLVer=rml_app_1.9.0&Uctry=__country__&AVI=425726&ssASVer=2.0&RI=1&Ust=__state__&NI=1344&admode=preroll&ssDsC=mobiletablet&ssRnd=288233197&SfF=true&AmN=1&adFocus=true&RvN=1,COMPLETE,200,https,GET,image/gif,/127.0.0.1,51585,l0-secure.videohub.tv/67.226.210.12,443,,03 Jun 2019 14:42:29,03 Jun 2019 14:42:30,03 Jun 2019 14:42:30,03 Jun 2019 14:42:30,107,36,13,35,0,0,23,252.40918,0.0,0.0,1050,694,,25869,0,43,,
https://sync.doubleverify.com/query.gif?ctx=42674&cmp=2256325&DVP_CMPID=&DVP_PUBID=&dvp_red=http%3A%2F%2Fapp.scanscout.com%2Fssframework%2Fdt%2Fbotid%3Fa%3Dset%26DUID%3D1,COMPLETE,200,https,GET,image/gif,/127.0.0.1,51590,sync.doubleverify.com/204.154.111.224,443,,03 Jun 2019 14:42:29,03 Jun 2019 14:42:29,03 Jun 2019 14:42:29,03 Jun 2019 14:42:29,26,3,2,4,1,1,15,89.65527,1154.2969,1176.7578,684,498,,345,0,860,,-6.6%
https://dt-secure.videohub.tv/v1/usync/bs?userId=,COMPLETE,303,https,GET,image/gif,/127.0.0.1,51593,dt-secure.videohub.tv/67.226.210.14,443,,03 Jun 2019 14:42:29,03 Jun 2019 14:42:30,03 Jun 2019 14:42:30,03 Jun 2019 14:42:30,56,2,9,30,0,0,15,475.708,0.0,0.0,990,377,,25869,0,43,,
https://dt-secure.videohub.tv/v1/usync/lkqd_direct?userId=,COMPLETE,303,https,GET,image/gif,/127.0.0.1,51594,dt-secure.videohub.tv/67.226.210.14,443,,03 Jun 2019 14:42:29,03 Jun 2019 14:42:30,03 Jun 2019 14:42:30,03 Jun 2019 14:42:30,54,3,9,31,0,0,11,493.48926,0.0,0.0,990,386,,25869,0,43,,
https://dt-secure.videohub.tv/v1/usync/pubmatic?userId=,COMPLETE,303,https,GET,image/gif,/127.0.0.1,51595,dt-secure.videohub.tv/67.226.210.14,443,,03 Jun 2019 14:42:29,03 Jun 2019 14:42:30,03 Jun 2019 14:42:30,03 Jun 2019 14:42:30,61,2,10,37,0,0,12,436.81152,0.0,0.0,990,383,,25869,0,43,,
https://dt-secure.videohub.tv/v1/usync/rubicon?userId=,COMPLETE,303,https,GET,image/gif,/127.0.0.1,51597,dt-secure.videohub.tv/67.226.210.14,443,,03 Jun 2019 14:42:29,03 Jun 2019 14:42:30,03 Jun 2019 14:42:30,03 Jun 2019 14:42:30,57,2,11,31,0,0,13,467.44727,0.0,0.0,990,382,,25869,0,43,,
https://dt-secure.videohub.tv/v1/usync/springserve?userId=,COMPLETE,303,https,GET,image/gif,/127.0.0.1,51598,dt-secure.videohub.tv/67.226.210.14,443,,03 Jun 2019 14:42:29,03 Jun 2019 14:42:30,03 Jun 2019 14:42:30,03 Jun 2019 14:42:30,61,1,12,36,0,0,12,436.85938,0.0,0.0,990,386,,25869,0,43,,
https://dt-secure.videohub.tv/v1/usync/spx?userId=,COMPLETE,303,https,GET,image/gif,/127.0.0.1,51577,dt-secure.videohub.tv/67.226.210.14,443,,03 Jun 2019 14:42:30,03 Jun 2019 14:42:30,03 Jun 2019 14:42:30,03 Jun 2019 14:42:30,11,,,,0,0,11,37.375,0.0,0.0,,378,,,0,43,,
https://s.tremorvideodsp.com/q/qa.gif?param1=creative_impression,COMPLETE,200,https,GET,image/gif,/127.0.0.1,51604,s.tremorvideodsp.com/23.48.39.121,443,,03 Jun 2019 14:42:30,03 Jun 2019 14:42:30,03 Jun 2019 14:42:30,03 Jun 2019 14:42:30,60,2,8,27,1,1,21,266.60156,1345.7031,14650.391,986,392,,14959,0,43,,
https://cs.rtb-seller.com,COMPLETE,200,https,CONNECT,,/127.0.0.1,51606,cs.rtb-seller.com/34.235.49.76,443,,03 Jun 2019 14:42:30,,,03 Jun 2019 14:43:00,30935,6,8,228,,,,1.0595703,,,1484,0,388,31539,0,170,,
https://dt-secure.videohub.tv/v1/usync/rhythmone?userId=,COMPLETE,303,https,GET,image/gif,/127.0.0.1,51577,dt-secure.videohub.tv/67.226.210.14,443,,03 Jun 2019 14:42:30,03 Jun 2019 14:42:30,03 Jun 2019 14:42:30,03 Jun 2019 14:42:30,11,,,,0,0,11,37.908203,0.0,0.0,,384,,,0,43,,
https://dt-secure.videohub.tv/v1/usync/tr?userId=,COMPLETE,303,https,GET,image/gif,/127.0.0.1,51594,dt-secure.videohub.tv/67.226.210.14,443,,03 Jun 2019 14:42:30,03 Jun 2019 14:42:30,03 Jun 2019 14:42:30,03 Jun 2019 14:42:30,12,,,,0,1,11,34.179688,0.0,41.992188,,377,,,0,43,,
https://sync.search.spotxchange.com,COMPLETE,200,https,CONNECT,,/127.0.0.1,51608,sync.search.spotxchange.com/192.35.249.120,443,,03 Jun 2019 14:42:30,,,03 Jun 2019 14:43:00,30856,60,10,309,,,,0.6347656,,,1534,0,886,16383,0,1259,,
https://dt-secure.videohub.tv/v1/usync/ex?userId=,COMPLETE,303,https,GET,image/gif,/127.0.0.1,51598,dt-secure.videohub.tv/67.226.210.14,443,,03 Jun 2019 14:42:30,03 Jun 2019 14:42:30,03 Jun 2019 14:42:30,03 Jun 2019 14:42:30,14,,,,0,1,13,29.296875,0.0,41.992188,,377,,,0,43,,
https://dt-secure.videohub.tv/v1/usync/lo?userId=,COMPLETE,303,https,GET,image/gif,/127.0.0.1,51577,dt-secure.videohub.tv/67.226.210.14,443,,03 Jun 2019 14:42:30,03 Jun 2019 14:42:30,03 Jun 2019 14:42:30,03 Jun 2019 14:42:30,32,,,,0,0,32,12.817383,0.0,0.0,,377,,,0,43,,
https://dt-secure.videohub.tv/ssframework/tvuid?a=set&UI=,COMPLETE,400,https,GET,image/gif,/127.0.0.1,51595,dt-secure.videohub.tv/67.226.210.14,443,,03 Jun 2019 14:42:30,03 Jun 2019 14:42:30,03 Jun 2019 14:42:30,03 Jun 2019 14:42:30,32,,,,0,0,32,13.061523,0.0,0.0,,385,,,0,43,,
https://l0-secure.videohub.tv/ssframework/log/log.png?EC=7&a=logitemaction&nolog=1&ssPD=tremorvideodsp.com&Uzip=__postalCode__&ADI=7878996&PRI=588d3141-defb-4216-a7a6-dcf62ad84378&Udma=__dma__&ssMLVer=rml_app_1.9.0&Uctry=__country__&AVI=425726&ssASVer=2.0&RI=1&Ust=__state__&NI=1344&admode=preroll&ssDsC=mobiletablet&ssRnd=476697595&Eipct=0&EvaF=1&EiN=1,COMPLETE,200,https,GET,image/gif,/127.0.0.1,51609,l0-secure.videohub.tv/67.226.210.12,443,,03 Jun 2019 14:42:30,03 Jun 2019 14:42:30,03 Jun 2019 14:42:30,03 Jun 2019 14:42:30,49,1,8,30,0,0,10,549.7246,0.0,0.0,990,681,,25869,0,43,,
https://dt-secure.videohub.tv/v1/usync/dd?userId=,COMPLETE,303,https,GET,image/gif,/127.0.0.1,51597,dt-secure.videohub.tv/67.226.210.14,443,,03 Jun 2019 14:42:30,03 Jun 2019 14:42:30,03 Jun 2019 14:42:30,03 Jun 2019 14:42:30,11,,,,0,0,11,37.286133,0.0,0.0,,377,,,0,43,,
https://dt-secure.videohub.tv/v1/usync/ds?userId=,COMPLETE,303,https,GET,image/gif,/127.0.0.1,51593,dt-secure.videohub.tv/67.226.210.14,443,,03 Jun 2019 14:42:30,03 Jun 2019 14:42:30,03 Jun 2019 14:42:30,03 Jun 2019 14:42:30,11,,,,0,0,11,37.286133,0.0,0.0,,377,,,0,43,,
https://simage2.pubmatic.com,COMPLETE,200,https,CONNECT,,/127.0.0.1,51612,simage2.pubmatic.com/162.248.19.147,443,,03 Jun 2019 14:42:30,,,03 Jun 2019 14:43:00,30802,62,2,334,,,,0.6982422,,,1499,0,455,19257,0,827,,
https://cs.lkqd.net,COMPLETE,200,https,CONNECT,,/127.0.0.1,51611,cs.lkqd.net/146.20.132.217,443,,03 Jun 2019 14:42:30,,,03 Jun 2019 14:43:00,30806,62,11,337,,,,1.4003906,,,1322,0,396,42000,0,482,,
https://sync.springserve.com,COMPLETE,200,https,CONNECT,,/127.0.0.1,51613,sync.springserve.com/52.200.250.68,443,,03 Jun 2019 14:42:30,,,03 Jun 2019 14:43:00,30801,4,9,331,,,,1.0703125,,,1499,0,397,31653,0,212,,
https://sync.1rx.io,COMPLETE,200,https,CONNECT,,/127.0.0.1,51614,sync.1rx.io/8.41.222.152,443,,03 Jun 2019 14:42:30,,,03 Jun 2019 14:43:01,30869,38,3,328,,,,0.8769531,,,1094,0,796,24907,0,936,,
https://pixel.rubiconproject.com,COMPLETE,200,https,CONNECT,,/127.0.0.1,51615,pixel.rubiconproject.com/8.43.72.97,443,,03 Jun 2019 14:42:30,,,03 Jun 2019 14:43:00,30792,3,14,376,,,,0.6435547,,,1589,0,890,16516,0,1322,,
https://dt-secure.videohub.tv/v1/usync/db?userId=&deviceId=unknown&screenType=mobiletablet&osType=iOS&rand=194682730,COMPLETE,303,https,GET,image/gif,/127.0.0.1,51594,dt-secure.videohub.tv/67.226.210.14,443,,03 Jun 2019 14:42:30,03 Jun 2019 14:42:30,03 Jun 2019 14:42:30,03 Jun 2019 14:42:30,14,,,,0,1,13,33.969727,0.0,41.992188,,444,,,0,43,,
https://dt-secure.videohub.tv/v1/usync/lrjs?userId=,COMPLETE,303,https,GET,image/gif,/127.0.0.1,51598,dt-secure.videohub.tv/67.226.210.14,443,,03 Jun 2019 14:42:30,03 Jun 2019 14:42:30,03 Jun 2019 14:42:30,03 Jun 2019 14:42:30,14,,,,0,0,14,29.435547,0.0,0.0,,379,,,0,43,,
https://x.bidswitch.net,COMPLETE,200,https,CONNECT,,/127.0.0.1,51616,x.bidswitch.net/35.185.98.236,443,,03 Jun 2019 14:42:30,,,03 Jun 2019 14:42:40,10610,5,21,352,,,,3.5507812,,,1146,0,405,36284,0,743,,
https://dt-secure.videohub.tv/v1/usync/bk?userId=,COMPLETE,303,https,GET,image/gif,/127.0.0.1,51595,dt-secure.videohub.tv/67.226.210.14,443,,03 Jun 2019 14:42:30,03 Jun 2019 14:42:30,03 Jun 2019 14:42:30,03 Jun 2019 14:42:30,21,,,,0,0,21,19.53125,0.0,0.0,,377,,,0,43,,
https://dt-secure.videohub.tv/v1/usync/lr?userId=,COMPLETE,303,https,GET,image/gif,/127.0.0.1,51577,dt-secure.videohub.tv/67.226.210.14,443,,03 Jun 2019 14:42:30,03 Jun 2019 14:42:30,03 Jun 2019 14:42:30,03 Jun 2019 14:42:30,13,,,,0,0,13,31.549805,0.0,0.0,,377,,,0,43,,
https://dt-secure.videohub.tv/v1/usync/kx?userId=,COMPLETE,303,https,GET,image/gif,/127.0.0.1,51597,dt-secure.videohub.tv/67.226.210.14,443,,03 Jun 2019 14:42:30,03 Jun 2019 14:42:30,03 Jun 2019 14:42:30,03 Jun 2019 14:42:30,11,,,,0,0,11,37.286133,0.0,0.0,,377,,,0,43,,
https://dt-secure.videohub.tv/v1/usync/al?userId=,COMPLETE,303,https,GET,image/gif,/127.0.0.1,51593,dt-secure.videohub.tv/67.226.210.14,443,,03 Jun 2019 14:42:30,03 Jun 2019 14:42:30,03 Jun 2019 14:42:30,03 Jun 2019 14:42:30,11,,,,1,0,10,37.286133,368.16406,0.0,,377,,,0,43,,
https://loadm.exelator.com,COMPLETE,200,https,CONNECT,,/127.0.0.1,51620,loadm.exelator.com/147.75.39.192,443,,03 Jun 2019 14:42:30,,,03 Jun 2019 14:42:40,10509,4,3,299,,,,3.2285156,,,1122,0,816,31294,0,1521,,
https://idpix.media6degrees.com,COMPLETE,200,https,CONNECT,,/127.0.0.1,51624,idpix.media6degrees.com/204.2.197.201,443,,03 Jun 2019 14:42:30,,,03 Jun 2019 14:42:30,463,63,2,266,,,,56.504883,,,1514,0,431,24075,0,770,,
https://dpm.demdex.net,COMPLETE,200,https,CONNECT,,/127.0.0.1,51623,dpm.demdex.net/52.44.47.1,443,,03 Jun 2019 14:42:30,,,03 Jun 2019 14:43:00,30714,60,10,275,,,,0.6904297,,,1469,0,804,18303,0,1155,,
https://bcp.crwdcntrl.net,COMPLETE,200,https,CONNECT,,/127.0.0.1,51626,bcp.crwdcntrl.net/34.238.129.202,443,,03 Jun 2019 14:42:30,,,03 Jun 2019 14:43:00,30711,8,9,335,,,,1.0888672,,,1484,0,797,31179,0,791,,
https://partners.tremorhub.com,COMPLETE,200,https,CONNECT,,/127.0.0.1,51621,partners.tremorhub.com/52.72.225.121,443,,03 Jun 2019 14:42:30,,,03 Jun 2019 14:43:00,30709,9,9,333,,,,1.0966797,,,1509,0,387,32079,0,516,,
https://tps30.doubleverify.com/visit.jpg?ctx=42674&cmp=DV069178&sid=1111&plc=2018011501&advid=3819603&adsrv=0&tagtype=&dvtagver=6.1.img&DVP_PP_REP=1&DVP_IQM_ID=16&DVP_DV_TT=2&DVP_DV_CT=2&DVP_TR_SSP=&DVP_TR_PUB=[PUBLISHER_ID]&DVP_TR_SITE=[SUPPLY_ID]&DVP_TR_ADV=425726&DVP_TR_CMP=&DVP_TR_PLC=&turl=tremorvideodsp.com&DVP_PP_BUNDLE_ID=&DVP_TR_COST=,COMPLETE,200,https,GET,image/jpeg,/127.0.0.1,51628,tps30.doubleverify.com/204.154.111.131,443,,03 Jun 2019 14:42:30,03 Jun 2019 14:42:30,03 Jun 2019 14:42:30,03 Jun 2019 14:42:30,19,1,3,3,0,0,12,94.006836,0.0,0.0,687,673,,327,0,142,,53.4%
https://objects-secure.tremormedia.com/net/js/lr.js?partner_id=e8084d234e814a164d5fe30f67e6f4fc,COMPLETE,200,https,GET,application/javascript,/127.0.0.1,51568,objects-secure.tremormedia.com/104.110.194.47,443,,03 Jun 2019 14:42:30,03 Jun 2019 14:42:30,03 Jun 2019 14:42:30,03 Jun 2019 14:42:30,18,,,,0,1,17,65.1582,0.0,759.7656,,423,,,0,778,,57.1%
https://dt-secure.videohub.tv/v1/usync/ns?userId=,COMPLETE,303,https,GET,image/gif,/127.0.0.1,51577,dt-secure.videohub.tv/67.226.210.14,443,,03 Jun 2019 14:42:30,03 Jun 2019 14:42:30,03 Jun 2019 14:42:30,03 Jun 2019 14:42:30,10,,,,0,0,10,41.015625,0.0,0.0,,377,,,0,43,,
https://sync.alphonso.tv,COMPLETE,200,https,CONNECT,,/127.0.0.1,51638,sync.alphonso.tv/104.129.168.238,443,,03 Jun 2019 14:42:30,,,03 Jun 2019 14:43:00,30596,8,5,263,,,,0.9638672,,,1479,0,391,27865,0,471,,
https://idsync.rlcdn.com,COMPLETE,200,https,CONNECT,,/127.0.0.1,51634,idsync.rlcdn.com/34.95.92.78,443,,03 Jun 2019 14:42:30,,,03 Jun 2019 14:43:00,30595,38,2,246,,,,0.88671875,,,1347,0,838,24510,0,1107,,
https://beacon.krxd.net,COMPLETE,200,https,CONNECT,,/127.0.0.1,51636,beacon.krxd.net/54.225.241.122,443,,03 Jun 2019 14:42:30,,,03 Jun 2019 14:43:00,30596,49,8,231,,,,1.0683594,,,1474,0,414,31113,0,482,,
https://p.adsymptotic.com,COMPLETE,200,https,CONNECT,,/127.0.0.1,51639,p.adsymptotic.com/34.198.44.143,443,,03 Jun 2019 14:42:30,,,03 Jun 2019 14:43:00,30591,37,9,244,,,,0.7216797,,,1484,0,942,19281,0,920,,
https://stags.bluekai.com,COMPLETE,200,https,CONNECT,,/127.0.0.1,51640,stags.bluekai.com/96.7.23.53,443,,03 Jun 2019 14:42:30,,,03 Jun 2019 14:43:00,30585,3,10,280,,,,0.76464844,,,1484,0,459,21248,0,784,,
https://aa.agkn.com,COMPLETE,200,https,CONNECT,,/127.0.0.1,51646,aa.agkn.com/63.251.88.56,443,,03 Jun 2019 14:42:30,,,03 Jun 2019 14:42:30,278,44,11,196,,,,81.24707,,,1454,0,402,20762,0,511,,
https://bsw.digitru.st,COMPLETE,200,https,CONNECT,,/127.0.0.1,51648,bsw.digitru.st/35.185.98.236,443,,03 Jun 2019 14:42:30,,,03 Jun 2019 14:42:41,10259,5,21,73,,,,3.5546875,,,1142,0,405,35144,0,658,,
https://d.agkn.com,COMPLETE,200,https,CONNECT,,/127.0.0.1,51650,d.agkn.com/54.165.225.249,443,,03 Jun 2019 14:42:30,,,03 Jun 2019 14:43:00,30204,7,9,45,,,,0.88671875,,,1449,0,384,25023,0,570,,
https://pippio.com,COMPLETE,200,https,CONNECT,,/127.0.0.1,51652,pippio.com/107.178.254.65,443,,03 Jun 2019 14:42:30,,,03 Jun 2019 14:43:02,31273,1,3,20,,,,0.84765625,,,1317,0,751,23570,0,1536,,
https://dt-secure.videohub.tv/v1/uid?UIBK=lTr%2Bm2Jv999cUFPz,COMPLETE,200,https,GET,image/gif,/127.0.0.1,51577,dt-secure.videohub.tv/67.226.210.14,443,,03 Jun 2019 14:42:30,03 Jun 2019 14:42:30,03 Jun 2019 14:42:30,03 Jun 2019 14:42:30,10,,,,0,0,10,42.089844,0.0,0.0,,388,,,0,43,,
https://cm.g.doubleclick.net,COMPLETE,200,https,CONNECT,,/127.0.0.1,51654,cm.g.doubleclick.net/172.217.12.130,443,,03 Jun 2019 14:42:30,,,03 Jun 2019 14:43:02,31206,62,2,52,,,,0.53515625,,,1367,0,424,14341,0,969,,
https://us-east-sync.bidswitch.net,COMPLETE,200,https,CONNECT,,/127.0.0.1,51655,us-east-sync.bidswitch.net/104.196.121.62,443,,03 Jun 2019 14:42:30,,,03 Jun 2019 14:42:41,10270,2,20,74,,,,3.6699219,,,1190,0,430,36284,0,700,,
https://tag.apxlv.com,COMPLETE,200,https,CONNECT,,/127.0.0.1,51658,tag.apxlv.com/162.223.54.6,443,,03 Jun 2019 14:42:31,,,03 Jun 2019 14:43:02,31011,5,9,46,,,,0.88183594,,,1464,0,368,25553,0,647,,
https://tag.cogocast.net,COMPLETE,200,https,CONNECT,,/127.0.0.1,51660,tag.cogocast.net/54.152.25.88,443,,03 Jun 2019 14:42:31,,,03 Jun 2019 14:43:02,30936,5,9,35,,,,1.0878906,,,1479,0,502,31563,0,923,,
https://gpush.cogocast.net,COMPLETE,200,https,CONNECT,,/127.0.0.1,51662,gpush.cogocast.net/162.223.54.16,443,,03 Jun 2019 14:42:31,,,03 Jun 2019 14:42:31,59,34,8,,,,,3.5908203,,,210,0,0,7,0,0,,
https://objects-secure.tremormedia.com/net/js/adchoicesappicon.min.js?iconPosition=top-left&optOut=&iconClick=&playerWidth=770&playerHeight=1026&sources=&country=us,COMPLETE,200,https,GET,application/javascript,/127.0.0.1,51568,objects-secure.tremormedia.com/104.110.194.47,443,,03 Jun 2019 14:42:31,03 Jun 2019 14:42:31,03 Jun 2019 14:42:31,03 Jun 2019 14:42:31,14,,,,0,4,10,1217.5635,0.0,4155.5176,,434,,,0,17021,,45.7%
https://l0-secure.videohub.tv/ssframework/log/log.png?EC=40&a=logitemaction&nolog=1&ssPD=tremorvideodsp.com&Uzip=__postalCode__&ADI=7878996&PRI=588d3141-defb-4216-a7a6-dcf62ad84378&Udma=__dma__&ssMLVer=rml_app_1.9.0&Uctry=__country__&AVI=425726&ssASVer=2.0&RI=1&Ust=__state__&NI=1344&admode=preroll&ssDsC=mobiletablet&ssRnd=165517522&EvaF=1&pctVw=0,COMPLETE,200,https,GET,image/gif,/127.0.0.1,51585,l0-secure.videohub.tv/67.226.210.12,443,,03 Jun 2019 14:42:31,03 Jun 2019 14:42:31,03 Jun 2019 14:42:31,03 Jun 2019 14:42:31,13,,,,0,1,12,54.010742,0.0,41.992188,,676,,,0,43,,
https://s.tremorvideodsp.com/q/qa.gif?param1=screen_click,COMPLETE,200,https,GET,image/gif,/127.0.0.1,51583,s.tremorvideodsp.com/23.48.39.121,443,,03 Jun 2019 14:42:33,03 Jun 2019 14:42:33,03 Jun 2019 14:42:33,03 Jun 2019 14:42:33,16,,,,0,0,16,26.123047,0.0,0.0,,385,,,0,43,,
https://s.tremorvideodsp.com/q/qa.gif?param1=creative_click,COMPLETE,200,https,GET,image/gif,/127.0.0.1,51604,s.tremorvideodsp.com/23.48.39.121,443,,03 Jun 2019 14:42:33,03 Jun 2019 14:42:33,03 Jun 2019 14:42:33,03 Jun 2019 14:42:33,40,,,,0,2,38,10.498047,0.0,20.996094,,387,,,0,43,,
https://l0-secure.videohub.tv/ssframework/log/log.png?EC=2&a=logitemaction&nolog=1&ssPD=tremorvideodsp.com&Uzip=__postalCode__&ADI=7878996&PRI=588d3141-defb-4216-a7a6-dcf62ad84378&Udma=__dma__&ssMLVer=rml_app_1.9.0&Uctry=__country__&AVI=425726&ssASVer=2.0&RI=1&Ust=__state__&NI=1344&admode=preroll&ssDsC=mobiletablet&ssRnd=110411090,COMPLETE,200,https,GET,image/gif,/127.0.0.1,51585,l0-secure.videohub.tv/67.226.210.12,443,,03 Jun 2019 14:42:33,03 Jun 2019 14:42:33,03 Jun 2019 14:42:33,03 Jun 2019 14:42:33,12,,,,1,0,11,57.20996,644.53125,0.0,,660,,,0,43,,
https://l0-secure.videohub.tv/ssframework/log/log.png?EC=4&a=logitemaction&nolog=1&ssPD=tremorvideodsp.com&Uzip=__postalCode__&ADI=7878996&PRI=588d3141-defb-4216-a7a6-dcf62ad84378&Udma=__dma__&ssMLVer=rml_app_1.9.0&Uctry=__country__&AVI=425726&ssASVer=2.0&RI=1&Ust=__state__&NI=1344&admode=preroll&ssDsC=mobiletablet&ssRnd=1728277808&EiN=1,COMPLETE,200,https,GET,image/gif,/127.0.0.1,51585,l0-secure.videohub.tv/67.226.210.12,443,,03 Jun 2019 14:42:33,03 Jun 2019 14:42:33,03 Jun 2019 14:42:33,03 Jun 2019 14:42:33,15,,,,4,0,11,46.223633,162.8418,0.0,,667,,,0,43,,
https://tremorvideodsp.com,COMPLETE,200,https,CONNECT,,/127.0.0.1,51664,tremorvideodsp.com/67.226.210.14,443,,03 Jun 2019 14:42:33,,,03 Jun 2019 14:42:33,271,96,10,56,,,,103.87891,,,1404,0,540,25979,0,904,,
https://www.tremorvideodsp.com,COMPLETE,200,https,CONNECT,,/127.0.0.1,51665,www.tremorvideodsp.com/52.22.236.254,443,,03 Jun 2019 14:42:33,,,03 Jun 2019 14:43:04,31143,138,10,54,,,,0.64453125,,,3024,0,3421,12406,0,1718,,
https://tremorvideodsp.com,COMPLETE,200,https,CONNECT,,/127.0.0.1,51667,tremorvideodsp.com/67.226.210.14,443,,03 Jun 2019 14:42:33,,,03 Jun 2019 14:42:38,5132,2,9,52,,,,6.739258,,,3096,0,508,31388,0,429,,
https://www.tremorvideodsp.com,COMPLETE,200,https,CONNECT,,/127.0.0.1,51671,www.tremorvideodsp.com/52.22.236.254,443,,03 Jun 2019 14:42:33,,,03 Jun 2019 14:43:04,30890,5,9,48,,,,0.46679688,,,1584,0,602,12301,0,299,,
https://www.tremorvideodsp.com,COMPLETE,200,https,CONNECT,,/127.0.0.1,51672,www.tremorvideodsp.com/52.22.236.254,443,,03 Jun 2019 14:42:33,,,03 Jun 2019 14:43:04,30890,9,9,52,,,,0.3984375,,,1584,0,603,10148,0,299,,
https://www.tremorvideodsp.com,COMPLETE,200,https,CONNECT,,/127.0.0.1,51670,www.tremorvideodsp.com/52.22.236.254,443,,03 Jun 2019 14:42:33,,,03 Jun 2019 14:43:04,30890,10,10,53,,,,0.39746094,,,1584,0,566,10148,0,301,,
https://www.tremorvideodsp.com,COMPLETE,200,https,CONNECT,,/127.0.0.1,51676,www.tremorvideodsp.com/52.22.236.254,443,,03 Jun 2019 14:42:33,,,03 Jun 2019 14:43:03,30129,3,9,67,,,,0.47753906,,,1424,0,280,12301,0,744,,
https://dt.scanscout.com,COMPLETE,200,https,CONNECT,,/127.0.0.1,51678,dt.scanscout.com/67.226.210.15,443,,03 Jun 2019 14:42:33,,,03 Jun 2019 14:42:38,5081,1,9,44,,,,6.7714844,,,3096,0,536,31298,0,302,,
https://cdn-secure.tremormedia.com,COMPLETE,200,https,CONNECT,,/127.0.0.1,51680,cdn-secure.tremormedia.com/104.110.194.47,443,,03 Jun 2019 14:42:33,,,03 Jun 2019 14:43:04,30532,142,8,34,,,,0.80566406,,,1724,0,391,22285,0,791,,
https://chat-pa.clients6.google.com,RECEIVING_REQUEST_BODY,200,https,CONNECT,,/127.0.0.1,51682,chat-pa.clients6.google.com/172.217.10.74,443,,03 Jun 2019 14:42:45,,,,109506,50,3,,,,,0.00390625,,,517,0,0,,0,0,,
https://chat-pa.clients6.google.com,RECEIVING_REQUEST_BODY,200,https,CONNECT,,/127.0.0.1,51684,chat-pa.clients6.google.com/172.217.10.74,443,,03 Jun 2019 14:42:45,,,,109373,1,2,,,,,0.00390625,,,517,0,0,,0,0,,
https://s.tremorvideodsp.com/q/qa.gif?param1=screen_click,COMPLETE,200,https,GET,image/gif,/127.0.0.1,51583,s.tremorvideodsp.com/23.48.39.121,443,,03 Jun 2019 14:42:47,03 Jun 2019 14:42:47,03 Jun 2019 14:42:47,03 Jun 2019 14:42:47,37,,,,0,0,37,11.295898,0.0,0.0,,385,,,0,43,,
https://s.tremorvideodsp.com/q/qa.gif?param1=creative_click,COMPLETE,200,https,GET,image/gif,/127.0.0.1,51604,s.tremorvideodsp.com/23.48.39.121,443,,03 Jun 2019 14:42:47,03 Jun 2019 14:42:47,03 Jun 2019 14:42:47,03 Jun 2019 14:42:47,24,,,,0,0,24,17.496094,0.0,0.0,,387,,,0,43,,
https://l0-secure.videohub.tv/ssframework/log/log.png?EC=2&a=logitemaction&nolog=1&ssPD=tremorvideodsp.com&Uzip=__postalCode__&ADI=7878996&PRI=588d3141-defb-4216-a7a6-dcf62ad84378&Udma=__dma__&ssMLVer=rml_app_1.9.0&Uctry=__country__&AVI=425726&ssASVer=2.0&RI=1&Ust=__state__&NI=1344&admode=preroll&ssDsC=mobiletablet&ssRnd=110411090,COMPLETE,200,https,GET,image/gif,/127.0.0.1,51585,l0-secure.videohub.tv/67.226.210.12,443,,03 Jun 2019 14:42:47,03 Jun 2019 14:42:47,03 Jun 2019 14:42:47,03 Jun 2019 14:42:47,129,,12,40,52,0,25,209.10547,32.11328,0.0,1050,660,,25869,0,43,,
https://valid.apple.com,EXCEPTION,200,https,CONNECT,,/127.0.0.1,51687,valid.apple.com/72.37.164.139,443,java.net.SocketException: Broken pipe (Write failed),03 Jun 2019 14:42:48,,,03 Jun 2019 14:42:48,303,164,9,44,,,,3779.496,,,3024,0,204,38556,0,1130888,,
https://l0-secure.videohub.tv/ssframework/log/log.png?EC=7&a=logitemaction&nolog=1&ssPD=tremorvideodsp.com&Uzip=__postalCode__&ADI=7878996&PRI=588d3141-defb-4216-a7a6-dcf62ad84378&Udma=__dma__&ssMLVer=rml_app_1.9.0&Uctry=__country__&AVI=425726&ssASVer=2.0&RI=1&Ust=__state__&NI=1344&admode=preroll&ssDsC=mobiletablet&ssRnd=1113939879&Eipct=25&EiN=1,COMPLETE,200,https,GET,image/gif,/127.0.0.1,51585,l0-secure.videohub.tv/67.226.210.12,443,,03 Jun 2019 14:42:59,03 Jun 2019 14:42:59,03 Jun 2019 14:42:59,03 Jun 2019 14:42:59,102,,10,35,46,0,11,264.60938,36.6416,0.0,1050,676,,25869,0,43,,
https://s.tremorvideodsp.com/q/qa.gif?param1=screen_first_quartile,COMPLETE,200,https,GET,image/gif,/127.0.0.1,51583,s.tremorvideodsp.com/23.48.39.121,443,,03 Jun 2019 14:42:59,03 Jun 2019 14:42:59,03 Jun 2019 14:42:59,03 Jun 2019 14:42:59,49,,,,0,1,48,8.708984,0.0,41.992188,,394,,,0,43,,
https://s.tremorvideodsp.com/q/qa.gif?param1=creative_first_quartile,COMPLETE,200,https,GET,image/gif,/127.0.0.1,51604,s.tremorvideodsp.com/23.48.39.121,443,,03 Jun 2019 14:42:59,03 Jun 2019 14:42:59,03 Jun 2019 14:42:59,03 Jun 2019 14:42:59,29,,,,0,0,29,14.782227,0.0,0.0,,396,,,0,43,,
https://www.tremorvideodsp.com,EXCEPTION,200,https,CONNECT,,/127.0.0.1,51690,www.tremorvideodsp.com/52.22.236.254,443,java.net.SocketException: Broken pipe (Write failed),03 Jun 2019 14:43:03,,,03 Jun 2019 14:43:04,191,5,9,61,,,,429.08398,,,1584,0,268,10148,0,71922,,
https://s.tremorvideodsp.com/q/qa.gif?param1=screen_second_quartile,COMPLETE,200,https,GET,image/gif,/127.0.0.1,51583,s.tremorvideodsp.com/23.48.39.121,443,,03 Jun 2019 14:43:14,03 Jun 2019 14:43:14,03 Jun 2019 14:43:14,03 Jun 2019 14:43:14,36,,,,0,1,35,11.880859,0.0,41.992188,,395,,,0,43,,
https://l0-secure.videohub.tv/ssframework/log/log.png?EC=7&a=logitemaction&nolog=1&ssPD=tremorvideodsp.com&Uzip=__postalCode__&ADI=7878996&PRI=588d3141-defb-4216-a7a6-dcf62ad84378&Udma=__dma__&ssMLVer=rml_app_1.9.0&Uctry=__country__&AVI=425726&ssASVer=2.0&RI=1&Ust=__state__&NI=1344&admode=preroll&ssDsC=mobiletablet&ssRnd=2050613678&Eipct=50&EiN=1,COMPLETE,200,https,GET,image/gif,/127.0.0.1,51585,l0-secure.videohub.tv/67.226.210.12,443,,03 Jun 2019 14:43:14,03 Jun 2019 14:43:14,03 Jun 2019 14:43:15,03 Jun 2019 14:43:15,857,,9,30,39,0,779,31.493164,43.21875,0.0,1050,676,,25869,0,43,,
https://s.tremorvideodsp.com/q/qa.gif?param1=creative_second_quartile,COMPLETE,200,https,GET,image/gif,/127.0.0.1,51604,s.tremorvideodsp.com/23.48.39.121,443,,03 Jun 2019 14:43:14,03 Jun 2019 14:43:14,03 Jun 2019 14:43:14,03 Jun 2019 14:43:14,34,,,,0,1,33,12.637695,0.0,41.992188,,397,,,0,43,,
https://l0-secure.videohub.tv/ssframework/log/log.png?EC=7&a=logitemaction&nolog=1&ssPD=tremorvideodsp.com&Uzip=__postalCode__&ADI=7878996&PRI=588d3141-defb-4216-a7a6-dcf62ad84378&Udma=__dma__&ssMLVer=rml_app_1.9.0&Uctry=__country__&AVI=425726&ssASVer=2.0&RI=1&Ust=__state__&NI=1344&admode=preroll&ssDsC=mobiletablet&ssRnd=1415330880&Eipct=75&EiN=1,COMPLETE,200,https,GET,image/gif,/127.0.0.1,51585,l0-secure.videohub.tv/67.226.210.12,443,,03 Jun 2019 14:43:29,03 Jun 2019 14:43:29,03 Jun 2019 14:43:29,03 Jun 2019 14:43:29,81,,9,26,36,0,10,333.2119,46.820312,0.0,1050,676,,25869,0,43,,
https://s.tremorvideodsp.com/q/qa.gif?param1=screen_third_quartile,COMPLETE,200,https,GET,image/gif,/127.0.0.1,51583,s.tremorvideodsp.com/23.48.39.121,443,,03 Jun 2019 14:43:29,03 Jun 2019 14:43:29,03 Jun 2019 14:43:29,03 Jun 2019 14:43:29,31,,,,0,0,31,13.765625,0.0,0.0,,394,,,0,43,,
https://s.tremorvideodsp.com/q/qa.gif?param1=creative_third_quartile,COMPLETE,200,https,GET,image/gif,/127.0.0.1,51604,s.tremorvideodsp.com/23.48.39.121,443,,03 Jun 2019 14:43:29,03 Jun 2019 14:43:29,03 Jun 2019 14:43:29,03 Jun 2019 14:43:29,34,,,,0,0,34,12.608398,0.0,0.0,,396,,,0,43,,
https://l0-secure.videohub.tv/ssframework/log/log.png?EC=38&a=logitemaction&nolog=1&ssPD=tremorvideodsp.com&Uzip=__postalCode__&ADI=7878996&PRI=588d3141-defb-4216-a7a6-dcf62ad84378&Udma=__dma__&ssMLVer=rml_app_1.9.0&Uctry=__country__&AVI=425726&ssASVer=2.0&RI=1&Ust=__state__&NI=1344&admode=preroll&ssDsC=mobiletablet&ssRnd=1281841902&EvaF=1&pctVw=100,COMPLETE,200,https,GET,image/gif,/127.0.0.1,51585,l0-secure.videohub.tv/67.226.210.12,443,,03 Jun 2019 14:43:42,03 Jun 2019 14:43:42,03 Jun 2019 14:43:42,03 Jun 2019 14:43:42,275,,10,31,42,1,191,98.15625,40.20117,25304.688,1050,679,,25869,0,43,,
https://l0-secure.videohub.tv/ssframework/log/log.png?EC=7&a=logitemaction&nolog=1&ssPD=tremorvideodsp.com&Uzip=__postalCode__&ADI=7878996&PRI=588d3141-defb-4216-a7a6-dcf62ad84378&Udma=__dma__&ssMLVer=rml_app_1.9.0&Uctry=__country__&AVI=425726&ssASVer=2.0&RI=1&Ust=__state__&NI=1344&admode=preroll&ssDsC=mobiletablet&ssRnd=1556795538&Eipct=100&RcpF=1&EiN=1,COMPLETE,200,https,GET,image/gif,/127.0.0.1,51585,l0-secure.videohub.tv/67.226.210.12,443,,03 Jun 2019 14:43:44,03 Jun 2019 14:43:44,03 Jun 2019 14:43:44,03 Jun 2019 14:43:44,14,,,,0,1,13,50.710938,0.0,41.992188,,684,,,0,43,,
https://s.tremorvideodsp.com/q/qa.gif?param1=screen_completion,COMPLETE,200,https,GET,image/gif,/127.0.0.1,51583,s.tremorvideodsp.com/23.48.39.121,443,,03 Jun 2019 14:43:44,03 Jun 2019 14:43:44,03 Jun 2019 14:43:44,03 Jun 2019 14:43:44,32,,,,0,0,32,13.213867,0.0,0.0,,390,,,0,43,,
https://s.tremorvideodsp.com/q/qa.gif?param1=creative_completion,COMPLETE,200,https,GET,image/gif,/127.0.0.1,51604,s.tremorvideodsp.com/23.48.39.121,443,,03 Jun 2019 14:43:44,03 Jun 2019 14:43:44,03 Jun 2019 14:43:44,03 Jun 2019 14:43:44,42,,,,0,1,41,10.114258,0.0,41.992188,,392,,,0,43,,
https://s.tremorvideodsp.com/q/video1_small.mp4,COMPLETE,206,https,GET,video/mp4,/127.0.0.1,51695,s.tremorvideodsp.com/23.48.39.121,443,,03 Jun 2019 14:43:44,03 Jun 2019 14:43:44,03 Jun 2019 14:43:44,03 Jun 2019 14:43:44,166,69,7,33,0,1,56,96.87305,0.0,14698.242,1058,358,,15049,0,2,,
https://s.tremorvideodsp.com/q/video1_small.mp4,COMPLETE,206,https,GET,video/mp4,/127.0.0.1,51695,s.tremorvideodsp.com/23.48.39.121,443,,03 Jun 2019 14:43:44,03 Jun 2019 14:43:44,03 Jun 2019 14:43:44,03 Jun 2019 14:43:44,72,,,,0,15,57,893.7988,0.0,4266.666,,362,,,0,65536,,
https://s.tremorvideodsp.com/q/video1_small.mp4,COMPLETE,206,https,GET,video/mp4,/127.0.0.1,51695,s.tremorvideodsp.com/23.48.39.121,443,,03 Jun 2019 14:43:44,03 Jun 2019 14:43:44,03 Jun 2019 14:43:44,03 Jun 2019 14:43:45,35,,,,0,8,27,1838.8389,0.0,8000.0,,368,,,0,65536,,
https://s.tremorvideodsp.com/q/video1_small.mp4,COMPLETE,206,https,GET,video/mp4,/127.0.0.1,51697,s.tremorvideodsp.com/23.48.39.121,443,,03 Jun 2019 14:43:45,03 Jun 2019 14:43:45,03 Jun 2019 14:43:45,03 Jun 2019 14:43:45,743,2,8,22,0,683,28,13021.155,0.0,14163.099,986,368,,14959,0,9890599,,
https://s.tremorvideodsp.com/q/video1_small.mp4,COMPLETE,206,https,GET,video/mp4,/127.0.0.1,51695,s.tremorvideodsp.com/23.48.39.121,443,,03 Jun 2019 14:43:45,03 Jun 2019 14:43:45,03 Jun 2019 14:43:45,03 Jun 2019 14:43:45,33,,,,0,3,30,1950.2832,0.0,21333.332,,368,,,0,65536,,
https://jwpltx.com,COMPLETE,200,https,CONNECT,,/127.0.0.1,51699,jwpltx.com/54.174.103.247,443,,03 Jun 2019 14:43:45,,,03 Jun 2019 14:44:20,35326,37,11,39,,,,0.95703125,,,1449,0,1204,31731,0,264,,
https://prd.jwpltx.com,COMPLETE,200,https,CONNECT,,/127.0.0.1,51700,prd.jwpltx.com/52.200.42.178,443,,03 Jun 2019 14:43:45,,,03 Jun 2019 14:44:15,30228,35,9,49,,,,1.1044922,,,1469,0,886,31731,0,132,,
https://entitlements.jwplayer.com,COMPLETE,200,https,CONNECT,,/127.0.0.1,51703,entitlements.jwplayer.com/72.21.81.189,443,,03 Jun 2019 14:43:50,,,03 Jun 2019 14:44:21,30988,1,2,56,,,,1.1289062,,,1524,0,317,33541,0,464,,
https://s.tremorvideodsp.com/q/video1_small.mp4,COMPLETE,206,https,GET,video/mp4,/127.0.0.1,51705,s.tremorvideodsp.com/23.48.39.121,443,,03 Jun 2019 14:43:50,03 Jun 2019 14:43:50,03 Jun 2019 14:43:50,03 Jun 2019 14:43:50,68,1,9,25,0,0,33,236.48535,0.0,0.0,1058,358,,15049,0,2,,
https://s.tremorvideodsp.com/q/video1_small.mp4,COMPLETE,206,https,GET,video/mp4,/127.0.0.1,51705,s.tremorvideodsp.com/23.48.39.121,443,com.xk72.proxy.ProxyException: Client closed connection before receiving entire response,03 Jun 2019 14:43:50,03 Jun 2019 14:43:50,03 Jun 2019 14:43:51,03 Jun 2019 14:43:51,1098,,,,0,15,1083,58.609375,0.0,4266.666,,362,,,0,65536,,
https://play.google.com,RECEIVING_REQUEST_BODY,200,https,CONNECT,,/127.0.0.1,51707,play.google.com/172.217.10.46,443,,03 Jun 2019 14:43:51,,,,43740,3,2,3,,,,0.08300781,,,1608,0,1270,372,0,504,,
https://play.google.com,RECEIVING_REQUEST_BODY,200,https,CONNECT,,/127.0.0.1,51709,play.google.com/172.217.10.46,443,,03 Jun 2019 14:43:51,,,,43694,1,1,3,,,,0.12011719,,,1608,0,2526,372,0,901,,
