URL,Status,Response Code,Protocol,Method,Content-Type,Client Address,Client Port,Remote Address,Remote Port,Exception,Request Start Time,Request End Time,Response Start Time,Response End Time,Duration (ms),DNS Duration (ms),Connect Duration (ms),SSL Duration (ms),Request Duration (ms),Response Duration (ms),Latency (ms),Speed (KB/s),Request Speed (KB/s),Response Speed (KB/s),Request Handshake Size (bytes),Request Header Size (bytes),Request Body Size (bytes),Response Handshake Size (bytes),Response Header Size (bytes),Response Body Size (bytes),Request Compression,Response Compression
https://chat-pa.clients6.google.com,RECEIVING_REQUEST_BODY,200,https,CONNECT,,/127.0.0.1,57003,chat-pa.clients6.google.com/172.217.10.234,443,,03 Jun 2019 10:58:46,,,,3268118,1,3,26,,,,0.076171875,,,2251,0,136333,19621,0,98537,,
https://clients4.google.com,RECEIVING_REQUEST_BODY,200,https,CONNECT,,/127.0.0.1,57008,clients4.google.com/172.217.10.14,443,,03 Jun 2019 10:58:53,,,,3261289,2,2,23,,,,0.03125,,,2251,0,51928,18776,0,32762,,
https://play.google.com,RECEIVING_REQUEST_BODY,200,https,CONNECT,,/127.0.0.1,57048,play.google.com/172.217.10.46,443,,03 Jun 2019 11:01:54,,,,3080137,2,2,3,,,,0.013671875,,,1608,0,39339,372,0,,,
https://ts01-b.cloudsink.net,RECEIVING_REQUEST_BODY,200,https,CONNECT,,/127.0.0.1,57304,ts01-b.cloudsink.net/54.241.148.127,443,,03 Jun 2019 11:16:55,,,,2178952,19,71,206,,,,0.08105469,,,1246,0,133814,17474,0,29742,,
https://hangouts.google.com,RECEIVING_REQUEST_BODY,200,https,CONNECT,,/127.0.0.1,57470,hangouts.google.com/172.217.7.14,443,,03 Jun 2019 11:44:39,,,,515012,2,2,42,,,,0.12109375,,,2251,0,14016,18780,0,29213,,
https://chat-pa.clients6.google.com,RECEIVING_REQUEST_BODY,200,https,CONNECT,,/127.0.0.1,57474,chat-pa.clients6.google.com/172.217.10.74,443,,03 Jun 2019 11:44:39,,,,514763,1,2,40,,,,0.05078125,,,2251,0,3961,19625,0,1242,,
https://clients6.google.com,RECEIVING_REQUEST_BODY,200,https,CONNECT,,/127.0.0.1,57478,clients6.google.com/172.217.10.46,443,,03 Jun 2019 11:44:39,,,,514700,2,1,45,,,,0.053710938,,,2251,0,5986,18780,0,1365,,
https://people-pa.clients6.google.com,RECEIVING_REQUEST_BODY,200,https,CONNECT,,/127.0.0.1,57479,people-pa.clients6.google.com/172.217.10.74,443,,03 Jun 2019 11:44:39,,,,514698,1,2,44,,,,0.06933594,,,2251,0,10573,19617,0,4275,,
https://ssl.gstatic.com,RECEIVING_REQUEST_BODY,200,https,CONNECT,,/127.0.0.1,57483,ssl.gstatic.com/172.217.7.3,443,,03 Jun 2019 11:44:39,,,,514394,1,3,42,,,,0.049804688,,,2251,0,4369,18784,0,933,,
https://23.client-channel.google.com,COMPLETE,200,https,CONNECT,,/127.0.0.1,57500,23.client-channel.google.com/173.194.175.189,443,,03 Jun 2019 11:46:56,,,03 Jun 2019 11:52:26,329636,7,34,76,,,,0.2578125,,,1552,0,12403,16009,0,,,
https://play.google.com,COMPLETE,200,https,CONNECT,,/127.0.0.1,57509,play.google.com/172.217.3.110,443,,03 Jun 2019 11:47:40,,,03 Jun 2019 11:52:26,286113,2,2,41,,,,0.09863281,,,2892,0,4439,18776,0,,,
https://www.googletagmanager.com,COMPLETE,200,https,CONNECT,,/127.0.0.1,57630,www.googletagmanager.com/172.217.12.168,443,,03 Jun 2019 11:49:07,,,03 Jun 2019 11:53:07,240144,4,2,53,,,,0.080078125,,,2892,0,496,15900,0,,,
https://www.google-analytics.com,RECEIVING_REQUEST_BODY,200,https,CONNECT,,/127.0.0.1,57639,www.google-analytics.com/172.217.12.174,443,,03 Jun 2019 11:49:07,,,,246413,8,2,51,,,,0.078125,,,2251,0,1077,15900,0,523,,
https://stats.g.doubleclick.net,RECEIVING_REQUEST_BODY,200,https,CONNECT,,/127.0.0.1,57641,stats.g.doubleclick.net/173.194.206.155,443,,03 Jun 2019 11:49:08,,,,246288,2,91,80,,,,0.06640625,,,1199,0,801,14305,0,557,,
https://www.google.com,RECEIVING_REQUEST_BODY,200,https,CONNECT,,/127.0.0.1,57643,www.google.com/172.217.3.100,443,,03 Jun 2019 11:49:08,,,,246065,2,2,53,,,,0.06347656,,,1163,0,981,13249,0,613,,
https://2.client-channel.google.com,RECEIVING_RESPONSE_BODY,200,https,CONNECT,,/127.0.0.1,57660,2.client-channel.google.com/74.125.192.189,443,,03 Jun 2019 11:49:53,,,,200403,6,44,98,,,,0.18847656,,,2251,0,10076,16009,0,10506,,
https://ssl.gstatic.com,COMPLETE,200,https,CONNECT,,/127.0.0.1,57671,ssl.gstatic.com/172.217.7.3,443,,03 Jun 2019 11:50:21,,,03 Jun 2019 11:52:26,124697,4,2,4,,,,0.028320312,,,2207,0,560,372,0,,,
https://ssl.p.jwpcdn.com,COMPLETE,200,https,CONNECT,,/127.0.0.1,57675,ssl.p.jwpcdn.com/72.21.81.48,443,,03 Jun 2019 11:51:46,,,03 Jun 2019 11:52:17,30548,4,2,27,,,,1.6738281,,,1479,0,305,34395,0,16181,,
https://entitlements.jwplayer.com,COMPLETE,200,https,CONNECT,,/127.0.0.1,57677,entitlements.jwplayer.com/72.21.81.189,443,,03 Jun 2019 11:51:46,,,03 Jun 2019 11:52:17,30532,2,1,29,,,,1.1513672,,,1684,0,317,33541,0,464,,
https://s.tremorvideodsp.com/q/video1_small.mp4,COMPLETE,206,https,GET,video/mp4,/127.0.0.1,57679,s.tremorvideodsp.com/165.254.123.8,443,,03 Jun 2019 11:51:46,03 Jun 2019 11:51:46,03 Jun 2019 11:51:47,03 Jun 2019 11:51:47,111,14,2,14,0,1,80,144.87402,0.0,14698.242,1058,358,,15049,0,2,,
https://jwpltx.com,COMPLETE,200,https,CONNECT,,/127.0.0.1,57680,jwpltx.com/34.192.30.112,443,,03 Jun 2019 11:51:46,,,03 Jun 2019 11:53:02,75823,6,9,42,,,,0.49804688,,,1609,0,4604,31731,0,792,,
https://s.tremorvideodsp.com/q/video1_small.mp4,COMPLETE,206,https,GET,video/mp4,/127.0.0.1,57679,s.tremorvideodsp.com/165.254.123.8,443,,03 Jun 2019 11:51:47,03 Jun 2019 11:51:47,03 Jun 2019 11:51:47,03 Jun 2019 11:51:47,37,,,,0,8,29,1739.2842,0.0,8000.0,,362,,,0,65536,,
https://s.tremorvideodsp.com/q/video1_small.mp4,COMPLETE,206,https,GET,video/mp4,/127.0.0.1,57679,s.tremorvideodsp.com/165.254.123.8,443,,03 Jun 2019 11:51:47,03 Jun 2019 11:51:47,03 Jun 2019 11:51:47,03 Jun 2019 11:51:47,30,,,,0,5,25,2145.3125,0.0,12800.0,,368,,,0,65536,,
https://s.tremorvideodsp.com/q/video1_small.mp4,COMPLETE,206,https,GET,video/mp4,/127.0.0.1,57683,s.tremorvideodsp.com/165.254.123.8,443,,03 Jun 2019 11:51:47,03 Jun 2019 11:51:47,03 Jun 2019 11:51:47,03 Jun 2019 11:51:47,550,2,2,9,0,519,18,17590.398,0.0,18638.527,986,368,,14959,0,9890599,,
https://s.tremorvideodsp.com/q/video1_small.mp4,COMPLETE,206,https,GET,video/mp4,/127.0.0.1,57679,s.tremorvideodsp.com/165.254.123.8,443,,03 Jun 2019 11:51:47,03 Jun 2019 11:51:47,03 Jun 2019 11:51:47,03 Jun 2019 11:51:47,23,,,,0,3,20,2798.2334,0.0,21333.332,,368,,,0,65536,,
https://5.client-channel.google.com,RECEIVING_REQUEST_BODY,200,https,CONNECT,,/127.0.0.1,57685,5.client-channel.google.com/209.85.232.189,443,,03 Jun 2019 11:51:47,,,,86649,5,34,75,,,,0.2998047,,,2251,0,4328,16009,0,4088,,
https://adserver.videohub.tv/preview?RI=0qVDB4RQ6XxaPtPJ6LvNPw&screenType=mobiletablet&rml=true&Uctry=__country__&Ust=__state__&Udma=__dma__&Uzip=__postalCode__&Ucty=__city__&Uctnt=__continent__&Ulong=__longitude__&Ulat=__latitude__&Uacd=__areaCode__&position_ACP=__adChoicesPosition__&usedACP=__usedACP__&dspACP=__adChoicesProviders__&sig=EB3C0E79452040BDF67C3F14F44A81FE&CI=EQRLslwxeX0ah-b4ofuB8A&dmps=y&ssRmlApp=1&isApp=y,COMPLETE,200,https,GET,application/xml; charset=utf-8,/127.0.0.1,57691,adserver.videohub.tv/67.226.210.9,443,,03 Jun 2019 11:51:55,03 Jun 2019 11:51:56,03 Jun 2019 11:51:56,03 Jun 2019 11:51:56,71,1,11,31,0,12,16,584.78125,0.0,3318.3594,1046,694,,25605,0,15171,,
https://objects-secure.videohub.tv/net/js/rml-app.min.js?adData=https%3A%2F%2Fadserver.videohub.tv%2Fadresponse%3Fkey%3Df67aec2c-7dcc-4c0b-83ce-5b24f542d7a6,COMPLETE,200,https,GET,application/javascript,/127.0.0.1,57693,objects-secure.videohub.tv/23.33.139.79,443,,03 Jun 2019 11:51:56,03 Jun 2019 11:51:56,03 Jun 2019 11:51:56,03 Jun 2019 11:51:56,29,9,2,10,0,6,2,2733.0273,0.0,12966.1455,1070,426,,16754,0,62910,,72.6%
https://adserver.videohub.tv/adresponse?key=f67aec2c-7dcc-4c0b-83ce-5b24f542d7a6,COMPLETE,200,https,GET,application/xml; charset=utf-8,/127.0.0.1,57691,adserver.videohub.tv/67.226.210.9,443,,03 Jun 2019 11:51:56,03 Jun 2019 11:51:56,03 Jun 2019 11:51:56,03 Jun 2019 11:51:56,16,,,,0,1,15,81.66504,0.0,964.84375,,350,,,0,988,,
https://static-secure.scanscout.com,COMPLETE,200,https,CONNECT,,/127.0.0.1,57695,static-secure.scanscout.com/23.194.109.222,443,,03 Jun 2019 11:51:56,,,03 Jun 2019 11:52:26,30704,9,3,34,,,,73.87012,,,1534,0,1810,22279,0,2296931,,
https://s.tremorvideodsp.com/q/qa1.js?param1=creative_impression,COMPLETE,200,https,GET,application/x-javascript,/127.0.0.1,57697,s.tremorvideodsp.com/165.254.123.8,443,,03 Jun 2019 11:51:57,03 Jun 2019 11:51:57,03 Jun 2019 11:51:57,03 Jun 2019 11:51:57,91,2,2,17,0,0,70,179.22559,0.0,0.0,1046,334,,15049,0,272,,
https://dt-secure.videohub.tv/v1/usync/ironsource?userId=,COMPLETE,303,https,GET,image/gif,/127.0.0.1,57699,dt-secure.videohub.tv/67.226.210.13,443,,03 Jun 2019 11:51:57,03 Jun 2019 11:51:57,03 Jun 2019 11:51:57,03 Jun 2019 11:51:57,59,4,10,33,0,0,12,452.64453,0.0,0.0,1050,385,,25869,0,43,,
https://sync.doubleverify.com/query.gif?ctx=42674&cmp=2311460&DVP_CMPID=3502466&DVP_PUBID=&dvp_red=http%3A%2F%2Fads.videohub.tv%2Fssframework%2Fdt%2Fbotid%3Fa%3Dset%26DUID%3D1,COMPLETE,200,https,GET,image/gif,/127.0.0.1,57700,sync.doubleverify.com/204.154.111.224,443,,03 Jun 2019 11:51:57,03 Jun 2019 11:51:57,03 Jun 2019 11:51:57,03 Jun 2019 11:51:57,17,1,7,4,0,1,4,139.99219,0.0,1176.7578,729,503,,345,0,860,,-6.6%
https://tps30.doubleverify.com/visit.jpg?ctx=42674&cmp=2256325&sid=1111&plc=22563261&num=&adid=&advid=498259&adsrv=41&region=30&btreg=&btadsrv=&crt=&crtname=&chnl=&unit=&pid=&uid=&dvtagver=6.1.img&DVP_CMPID=3502466&DVP_PUBID=&turl=tremorvideodsp.com,COMPLETE,200,https,GET,image/jpeg,/127.0.0.1,57702,tps30.doubleverify.com/204.154.111.134,443,,03 Jun 2019 11:51:57,03 Jun 2019 11:51:57,03 Jun 2019 11:51:57,03 Jun 2019 11:51:57,32,9,2,13,0,0,8,796.47754,0.0,0.0,1182,577,,24198,0,142,,53.4%
https://tags.bluekai.com/site/2954,COMPLETE,200,https,GET,image/gif,/127.0.0.1,57704,tags.bluekai.com/23.203.132.106,443,,03 Jun 2019 11:51:57,03 Jun 2019 11:51:57,03 Jun 2019 11:51:57,03 Jun 2019 11:51:57,94,5,1,16,0,0,72,158.57617,0.0,0.0,1030,362,,13810,0,62,,
https://l0-secure.videohub.tv/ssframework/log/log.png?EC=3&a=logitemaction&nolog=1&ssPD=tremorvideodsp.com&Uzip=__postalCode__&CI=3502466&ADI=7871906&PRI=9a3c8d47-742c-4122-bd0c-1b6be04fe77c&Udma=__dma__&ssMLVer=rml_app_1.9.0&Uctry=__country__&AVI=425726&ssASVer=2.0&PBI=3500226&RI=1&Ust=__state__&NI=1344&admode=preroll&ssDsC=mobiletablet&ssRnd=1310377928&SfF=true&dspPartnerFee=vi-moatgroupm:0.0001500000;rp-nielsen:0.0099800000&AmN=1&ssBe=1&adFocus=true&RvN=1,COMPLETE,200,https,GET,image/gif,/127.0.0.1,57708,l0-secure.videohub.tv/67.226.210.14,443,,03 Jun 2019 11:51:57,03 Jun 2019 11:51:57,03 Jun 2019 11:51:57,03 Jun 2019 11:51:57,57,2,8,35,1,0,11,475.46582,1796.875,0.0,1050,790,,25869,0,43,,
https://tp.videohub.tv/v1/topprop.png?domain=&ui=&pri=9a3c8d47-742c-4122-bd0c-1b6be04fe77c&ssRnd=1129300256,COMPLETE,200,https,GET,image/png,/127.0.0.1,57705,tp.videohub.tv/67.226.210.13,443,,03 Jun 2019 11:51:57,03 Jun 2019 11:51:57,03 Jun 2019 11:51:57,03 Jun 2019 11:51:57,76,5,11,46,0,0,14,351.67773,0.0,0.0,1022,435,,25869,0,43,,
"https://secure-gl.imrworldwide.com/cgi-bin/m?ci=nlsnapi12535&am=4&ep=1&at=view&rt=banner&st=image&ca=3500226_000&cr=&pc=3502466&r=1583295789&c7=osgrp,iOS&c8=devgrp,TAB&c9=devid,unknown&c10=plt,MBL&c12=apv,12.1&c13=asid,PF85C1805-9397-D9CB-E040-070AAD31777E&c14=osver,12.1",COMPLETE,200,https,GET,image/gif,/127.0.0.1,57706,secure-gl.imrworldwide.com/13.33.73.71,443,,03 Jun 2019 11:51:57,03 Jun 2019 11:51:57,03 Jun 2019 11:51:57,03 Jun 2019 11:51:57,44,4,2,12,1,1,24,401.61133,1629.8828,16041.016,1070,599,,16382,0,44,,
https://s.tremorvideodsp.com/q/qa.gif?param1=creative_impression,COMPLETE,200,https,GET,image/gif,/127.0.0.1,57714,s.tremorvideodsp.com/165.254.123.8,443,,03 Jun 2019 11:51:57,03 Jun 2019 11:51:57,03 Jun 2019 11:51:57,03 Jun 2019 11:51:57,34,2,5,11,0,0,16,470.47266,0.0,0.0,986,392,,14959,0,43,,
https://s.tremorvideodsp.com/q/qa1.js?param1=impression,COMPLETE,200,https,GET,application/x-javascript,/127.0.0.1,57716,s.tremorvideodsp.com/165.254.123.8,443,,03 Jun 2019 11:51:57,03 Jun 2019 11:51:57,03 Jun 2019 11:51:57,03 Jun 2019 11:51:57,79,7,1,16,0,0,55,205.20117,0.0,0.0,986,383,,14959,0,272,,
https://s.tremorvideodsp.com/q/qa.gif?param1=impression,COMPLETE,200,https,GET,image/gif,/127.0.0.1,57715,s.tremorvideodsp.com/165.254.123.8,443,,03 Jun 2019 11:51:57,03 Jun 2019 11:51:57,03 Jun 2019 11:51:57,03 Jun 2019 11:51:57,86,9,2,18,0,1,56,185.89844,0.0,14650.391,986,383,,14959,0,43,,
https://s.tremorvideodsp.com/q/qa.gif?param1=mobile_screen_impression,COMPLETE,200,https,GET,image/gif,/127.0.0.1,57713,s.tremorvideodsp.com/165.254.123.8,443,,03 Jun 2019 11:51:57,03 Jun 2019 11:51:57,03 Jun 2019 11:51:57,03 Jun 2019 11:51:57,38,11,2,10,0,0,15,421.07812,0.0,0.0,986,397,,14959,0,43,,
https://sync.doubleverify.com/query.gif?ctx=42674&cmp=2256325&DVP_CMPID=3502466&DVP_PUBID=&dvp_red=http%3A%2F%2Fapp.scanscout.com%2Fssframework%2Fdt%2Fbotid%3Fa%3Dset%26DUID%3D1,COMPLETE,200,https,GET,image/gif,/127.0.0.1,57721,sync.doubleverify.com/204.154.111.224,443,,03 Jun 2019 11:51:57,03 Jun 2019 11:51:57,03 Jun 2019 11:51:57,03 Jun 2019 11:51:57,16,2,4,4,0,0,6,146.11816,0.0,0.0,684,505,,345,0,860,,-6.6%
https://tps30.doubleverify.com/visit.jpg?ctx=42674&cmp=DV069178&sid=1111&plc=2018011501&advid=3819603&adsrv=0&tagtype=&dvtagver=6.1.img&DVP_PP_REP=1&DVP_IQM_ID=16&DVP_DV_TT=2&DVP_DV_CT=2&DVP_TR_SSP=&DVP_TR_PUB=[PUBLISHER_ID]&DVP_TR_SITE=[SUPPLY_ID]&DVP_TR_ADV=425726&DVP_TR_CMP=3502466&DVP_TR_PLC=3502466&turl=tremorvideodsp.com&DVP_PP_BUNDLE_ID=&DVP_TR_COST=,COMPLETE,200,https,GET,image/jpeg,/127.0.0.1,57722,tps30.doubleverify.com/204.154.111.134,443,,03 Jun 2019 11:51:57,03 Jun 2019 11:51:57,03 Jun 2019 11:51:57,03 Jun 2019 11:51:57,17,2,4,3,0,1,7,105.87012,0.0,458.0078,687,687,,327,0,142,,53.4%
https://dt-secure.videohub.tv/v1/usync/lkqd_direct?userId=,COMPLETE,303,https,GET,image/gif,/127.0.0.1,57726,dt-secure.videohub.tv/67.226.210.13,443,,03 Jun 2019 11:51:57,03 Jun 2019 11:51:57,03 Jun 2019 11:51:57,03 Jun 2019 11:51:57,58,2,10,32,0,0,14,459.45508,0.0,0.0,990,386,,25869,0,43,,
https://dt-secure.videohub.tv/v1/usync/bs?userId=,COMPLETE,303,https,GET,image/gif,/127.0.0.1,57725,dt-secure.videohub.tv/67.226.210.13,443,,03 Jun 2019 11:51:57,03 Jun 2019 11:51:57,03 Jun 2019 11:51:57,03 Jun 2019 11:51:57,63,3,10,38,1,1,10,422.85156,1334.9609,25304.688,990,377,,25869,0,43,,
https://dt-secure.videohub.tv/v1/usync/rubicon?userId=,COMPLETE,303,https,GET,image/gif,/127.0.0.1,57728,dt-secure.videohub.tv/67.226.210.13,443,,03 Jun 2019 11:51:57,03 Jun 2019 11:51:57,03 Jun 2019 11:51:57,03 Jun 2019 11:51:57,57,2,10,34,0,0,11,467.44727,0.0,0.0,990,382,,25869,0,43,,
https://dt-secure.videohub.tv/v1/usync/pubmatic?userId=,COMPLETE,303,https,GET,image/gif,/127.0.0.1,57727,dt-secure.videohub.tv/67.226.210.13,443,,03 Jun 2019 11:51:57,03 Jun 2019 11:51:57,03 Jun 2019 11:51:57,03 Jun 2019 11:51:57,55,2,9,30,0,0,14,484.4629,0.0,0.0,990,383,,25869,0,43,,
https://dt-secure.videohub.tv/v1/usync/springserve?userId=,COMPLETE,303,https,GET,image/gif,/127.0.0.1,57729,dt-secure.videohub.tv/67.226.210.13,443,,03 Jun 2019 11:51:57,03 Jun 2019 11:51:57,03 Jun 2019 11:51:57,03 Jun 2019 11:51:57,56,3,10,32,0,0,11,475.86426,0.0,0.0,990,386,,25869,0,43,,
https://l0-secure.videohub.tv/ssframework/log/log.png?EC=7&a=logitemaction&nolog=1&ssPD=tremorvideodsp.com&Uzip=__postalCode__&CI=3502466&ADI=7871906&PRI=9a3c8d47-742c-4122-bd0c-1b6be04fe77c&Udma=__dma__&ssMLVer=rml_app_1.9.0&Uctry=__country__&AVI=425726&ssASVer=2.0&PBI=3500226&RI=1&Ust=__state__&NI=1344&admode=preroll&ssDsC=mobiletablet&ssRnd=377901807&Eipct=0&EvaF=1&EiN=1,COMPLETE,200,https,GET,image/gif,/127.0.0.1,57730,l0-secure.videohub.tv/67.226.210.14,443,,03 Jun 2019 11:51:57,03 Jun 2019 11:51:57,03 Jun 2019 11:51:57,03 Jun 2019 11:51:57,54,1,10,31,0,0,12,499.24023,0.0,0.0,990,704,,25869,0,43,,
https://dt-secure.videohub.tv/v1/usync/spx?userId=,COMPLETE,303,https,GET,image/gif,/127.0.0.1,57699,dt-secure.videohub.tv/67.226.210.13,443,,03 Jun 2019 11:51:57,03 Jun 2019 11:51:57,03 Jun 2019 11:51:57,03 Jun 2019 11:51:57,14,,,,0,0,14,29.36621,0.0,0.0,,378,,,0,43,,
https://cs.rtb-seller.com,COMPLETE,200,https,CONNECT,,/127.0.0.1,57737,cs.rtb-seller.com/52.200.27.187,443,,03 Jun 2019 11:51:57,,,03 Jun 2019 11:52:28,30335,5,8,89,,,,0.9082031,,,1484,0,388,26180,0,170,,
https://dt-secure.videohub.tv/v1/usync/rhythmone?userId=,COMPLETE,303,https,GET,image/gif,/127.0.0.1,57699,dt-secure.videohub.tv/67.226.210.13,443,,03 Jun 2019 11:51:57,03 Jun 2019 11:51:57,03 Jun 2019 11:51:57,03 Jun 2019 11:51:57,11,,,,0,0,11,37.908203,0.0,0.0,,384,,,0,43,,
https://sync.search.spotxchange.com,COMPLETE,200,https,CONNECT,,/127.0.0.1,57739,sync.search.spotxchange.com/192.35.249.120,443,,03 Jun 2019 11:51:57,,,03 Jun 2019 11:52:29,31506,9,10,187,,,,0.62109375,,,1534,0,886,16383,0,1259,,
https://dt-secure.videohub.tv/v1/usync/tr?userId=,COMPLETE,303,https,GET,image/gif,/127.0.0.1,57699,dt-secure.videohub.tv/67.226.210.13,443,,03 Jun 2019 11:51:57,03 Jun 2019 11:51:57,03 Jun 2019 11:51:57,03 Jun 2019 11:51:57,11,,,,0,0,11,37.286133,0.0,0.0,,377,,,0,43,,
https://sync.1rx.io,COMPLETE,200,https,CONNECT,,/127.0.0.1,57741,sync.1rx.io/8.41.222.152,443,,03 Jun 2019 11:51:57,,,03 Jun 2019 11:52:29,31530,4,2,177,,,,0.85839844,,,1094,0,796,24907,0,936,,
https://dt-secure.videohub.tv/v1/usync/ex?userId=,COMPLETE,303,https,GET,image/gif,/127.0.0.1,57728,dt-secure.videohub.tv/67.226.210.13,443,,03 Jun 2019 11:51:57,03 Jun 2019 11:51:57,03 Jun 2019 11:51:57,03 Jun 2019 11:51:57,12,,,,0,0,12,34.179688,0.0,0.0,,377,,,0,43,,
https://dt-secure.videohub.tv/v1/usync/dd?userId=,COMPLETE,303,https,GET,image/gif,/127.0.0.1,57725,dt-secure.videohub.tv/67.226.210.13,443,,03 Jun 2019 11:51:57,03 Jun 2019 11:51:57,03 Jun 2019 11:51:57,03 Jun 2019 11:51:57,11,,,,0,0,11,37.286133,0.0,0.0,,377,,,0,43,,
https://dt-secure.videohub.tv/v1/usync/lo?userId=,COMPLETE,303,https,GET,image/gif,/127.0.0.1,57699,dt-secure.videohub.tv/67.226.210.13,443,,03 Jun 2019 11:51:57,03 Jun 2019 11:51:57,03 Jun 2019 11:51:57,03 Jun 2019 11:51:57,26,,,,0,1,25,15.774414,0.0,41.992188,,377,,,0,43,,
https://dt-secure.videohub.tv/ssframework/tvuid?a=set&UI=,COMPLETE,400,https,GET,image/gif,/127.0.0.1,57726,dt-secure.videohub.tv/67.226.210.13,443,,03 Jun 2019 11:51:57,03 Jun 2019 11:51:57,03 Jun 2019 11:51:57,03 Jun 2019 11:51:57,12,,,,0,0,12,34.83008,0.0,0.0,,385,,,0,43,,
https://dt-secure.videohub.tv/v1/usync/ds?userId=,COMPLETE,303,https,GET,image/gif,/127.0.0.1,57727,dt-secure.videohub.tv/67.226.210.13,443,,03 Jun 2019 11:51:57,03 Jun 2019 11:51:57,03 Jun 2019 11:51:57,03 Jun 2019 11:51:57,11,,,,0,1,10,37.286133,0.0,41.992188,,377,,,0,43,,
https://pixel.rubiconproject.com,COMPLETE,200,https,CONNECT,,/127.0.0.1,57744,pixel.rubiconproject.com/8.43.72.21,443,,03 Jun 2019 11:51:57,,,03 Jun 2019 11:52:11,13540,6,10,283,,,,1.4345703,,,1170,0,890,16516,0,1322,,
https://partners.tremorhub.com,COMPLETE,200,https,CONNECT,,/127.0.0.1,57745,partners.tremorhub.com/52.72.225.121,443,,03 Jun 2019 11:51:57,,,03 Jun 2019 11:52:29,31436,7,9,228,,,,1.0712891,,,1509,0,387,32079,0,516,,
https://x.bidswitch.net,COMPLETE,200,https,CONNECT,,/127.0.0.1,57746,x.bidswitch.net/35.190.166.46,443,,03 Jun 2019 11:51:57,,,03 Jun 2019 11:52:08,10526,6,21,282,,,,3.5791016,,,1146,0,405,36284,0,743,,
https://cs.lkqd.net,COMPLETE,200,https,CONNECT,,/127.0.0.1,57743,cs.lkqd.net/146.20.132.114,443,,03 Jun 2019 11:51:57,,,03 Jun 2019 11:52:29,31433,9,8,228,,,,1.3730469,,,1322,0,396,42000,0,482,,
https://dt-secure.videohub.tv/v1/usync/lrjs?userId=,COMPLETE,303,https,GET,image/gif,/127.0.0.1,57729,dt-secure.videohub.tv/67.226.210.13,443,,03 Jun 2019 11:51:57,03 Jun 2019 11:51:57,03 Jun 2019 11:51:57,03 Jun 2019 11:51:57,12,,,,0,0,12,34.341797,0.0,0.0,,379,,,0,43,,
https://dt-secure.videohub.tv/v1/usync/db?userId=&deviceId=unknown&screenType=mobiletablet&osType=iOS&rand=1583295789,COMPLETE,303,https,GET,image/gif,/127.0.0.1,57727,dt-secure.videohub.tv/67.226.210.13,443,,03 Jun 2019 11:51:57,03 Jun 2019 11:51:57,03 Jun 2019 11:51:57,03 Jun 2019 11:51:57,11,,,,0,0,11,43.323242,0.0,0.0,,445,,,0,43,,
https://dt-secure.videohub.tv/v1/usync/kx?userId=,COMPLETE,303,https,GET,image/gif,/127.0.0.1,57725,dt-secure.videohub.tv/67.226.210.13,443,,03 Jun 2019 11:51:57,03 Jun 2019 11:51:57,03 Jun 2019 11:51:57,03 Jun 2019 11:51:57,11,,,,0,0,11,37.286133,0.0,0.0,,377,,,0,43,,
https://dt-secure.videohub.tv/v1/usync/bk?userId=,COMPLETE,303,https,GET,image/gif,/127.0.0.1,57726,dt-secure.videohub.tv/67.226.210.13,443,,03 Jun 2019 11:51:57,03 Jun 2019 11:51:57,03 Jun 2019 11:51:57,03 Jun 2019 11:51:57,12,,,,0,1,11,34.179688,0.0,41.992188,,377,,,0,43,,
https://dt-secure.videohub.tv/v1/usync/al?userId=,COMPLETE,303,https,GET,image/gif,/127.0.0.1,57728,dt-secure.videohub.tv/67.226.210.13,443,,03 Jun 2019 11:51:57,03 Jun 2019 11:51:57,03 Jun 2019 11:51:57,03 Jun 2019 11:51:57,12,,,,0,0,12,34.179688,0.0,0.0,,377,,,0,43,,
https://simage2.pubmatic.com,COMPLETE,200,https,CONNECT,,/127.0.0.1,57749,simage2.pubmatic.com/104.36.115.109,443,,03 Jun 2019 11:51:57,,,03 Jun 2019 11:52:29,31423,4,2,195,,,,0.6845703,,,1499,0,455,19257,0,827,,
https://dt-secure.videohub.tv/v1/usync/lr?userId=,COMPLETE,303,https,GET,image/gif,/127.0.0.1,57699,dt-secure.videohub.tv/67.226.210.13,443,,03 Jun 2019 11:51:57,03 Jun 2019 11:51:57,03 Jun 2019 11:51:57,03 Jun 2019 11:51:57,18,,,,0,1,17,22.786133,0.0,41.992188,,377,,,0,43,,
https://idpix.media6degrees.com,COMPLETE,200,https,CONNECT,,/127.0.0.1,57754,idpix.media6degrees.com/204.2.197.201,443,,03 Jun 2019 11:51:57,,,03 Jun 2019 11:51:58,493,11,2,257,,,,53.066406,,,1514,0,431,24075,0,770,,
https://sync.springserve.com,COMPLETE,200,https,CONNECT,,/127.0.0.1,57752,sync.springserve.com/18.214.171.42,443,,03 Jun 2019 11:51:57,,,03 Jun 2019 11:52:29,31390,11,8,245,,,,1.0498047,,,1499,0,397,31653,0,212,,
https://dpm.demdex.net,COMPLETE,200,https,CONNECT,,/127.0.0.1,57755,dpm.demdex.net/35.170.133.177,443,,03 Jun 2019 11:51:57,,,03 Jun 2019 11:52:29,31386,8,9,240,,,,0.67578125,,,1469,0,804,18303,0,1155,,
https://loadm.exelator.com,COMPLETE,200,https,CONNECT,,/127.0.0.1,57756,loadm.exelator.com/147.75.39.192,443,,03 Jun 2019 11:51:57,,,03 Jun 2019 11:52:08,10409,8,2,268,,,,3.2597656,,,1122,0,816,31294,0,1521,,
https://dt-secure.videohub.tv/v1/usync/ns?userId=,COMPLETE,303,https,GET,image/gif,/127.0.0.1,57727,dt-secure.videohub.tv/67.226.210.13,443,,03 Jun 2019 11:51:57,03 Jun 2019 11:51:57,03 Jun 2019 11:51:57,03 Jun 2019 11:51:57,11,,,,1,0,10,37.286133,368.16406,0.0,,377,,,0,43,,
https://bcp.crwdcntrl.net,COMPLETE,200,https,CONNECT,,/127.0.0.1,57761,bcp.crwdcntrl.net/34.238.129.202,443,,03 Jun 2019 11:51:57,,,03 Jun 2019 11:52:29,31349,10,9,221,,,,1.0664062,,,1484,0,797,31179,0,792,,
https://beacon.krxd.net,COMPLETE,200,https,CONNECT,,/127.0.0.1,57763,beacon.krxd.net/184.72.244.107,443,,03 Jun 2019 11:51:57,,,03 Jun 2019 11:52:29,31291,16,9,182,,,,1.0449219,,,1474,0,414,31113,0,482,,
https://stags.bluekai.com,COMPLETE,200,https,CONNECT,,/127.0.0.1,57766,stags.bluekai.com/23.203.132.106,443,,03 Jun 2019 11:51:57,,,03 Jun 2019 11:52:29,31289,13,1,178,,,,0.7480469,,,1484,0,459,21254,0,784,,
https://sync.alphonso.tv,COMPLETE,200,https,CONNECT,,/127.0.0.1,57765,sync.alphonso.tv/104.129.168.238,443,,03 Jun 2019 11:51:57,,,03 Jun 2019 11:52:29,31289,13,5,187,,,,0.9423828,,,1479,0,391,27865,0,471,,
https://p.adsymptotic.com,COMPLETE,200,https,CONNECT,,/127.0.0.1,57762,p.adsymptotic.com/52.73.223.21,443,,03 Jun 2019 11:51:57,,,03 Jun 2019 11:52:29,31286,10,9,202,,,,0.7060547,,,1484,0,944,19281,0,921,,
https://objects-secure.tremormedia.com/net/js/lr.js?partner_id=3c0b371b1a79e12af256a45647a68bc9,COMPLETE,200,https,GET,application/javascript,/127.0.0.1,57767,objects-secure.tremormedia.com/23.33.130.45,443,,03 Jun 2019 11:51:57,03 Jun 2019 11:51:58,03 Jun 2019 11:51:58,03 Jun 2019 11:51:58,23,8,2,11,0,0,2,809.95215,0.0,0.0,1086,423,,16789,0,778,,57.1%
https://idsync.rlcdn.com,COMPLETE,200,https,CONNECT,,/127.0.0.1,57768,idsync.rlcdn.com/34.95.92.78,443,,03 Jun 2019 11:51:58,,,03 Jun 2019 11:52:29,31262,2,2,186,,,,0.86816406,,,1347,0,838,24510,0,1107,,
https://aa.agkn.com,COMPLETE,200,https,CONNECT,,/127.0.0.1,57775,aa.agkn.com/156.154.200.36,443,,03 Jun 2019 11:51:58,,,03 Jun 2019 11:51:58,251,4,25,181,,,,89.987305,,,1454,0,402,20762,0,511,,
https://bsw.digitru.st,COMPLETE,200,https,CONNECT,,/127.0.0.1,57777,bsw.digitru.st/35.190.166.46,443,,03 Jun 2019 11:51:58,,,03 Jun 2019 11:52:08,10425,3,49,125,,,,3.4980469,,,1142,0,405,35144,0,658,,
https://dt-secure.videohub.tv/v1/uid?UIBK=g%2F8OnBJv999w5FPz,COMPLETE,200,https,GET,image/gif,/127.0.0.1,57699,dt-secure.videohub.tv/67.226.210.13,443,,03 Jun 2019 11:51:58,03 Jun 2019 11:51:58,03 Jun 2019 11:51:58,03 Jun 2019 11:51:58,12,,,,0,0,12,35.07422,0.0,0.0,,388,,,0,43,,
https://d.agkn.com,COMPLETE,200,https,CONNECT,,/127.0.0.1,57779,d.agkn.com/54.210.81.81,443,,03 Jun 2019 11:51:58,,,03 Jun 2019 11:52:28,30693,5,8,39,,,,0.8720703,,,1449,0,384,25023,0,570,,
https://pippio.com,COMPLETE,200,https,CONNECT,,/127.0.0.1,57781,pippio.com/107.178.254.65,443,,03 Jun 2019 11:51:58,,,03 Jun 2019 11:52:29,30957,3,3,29,,,,0.8564453,,,1317,0,751,23570,0,1536,,
https://cm.g.doubleclick.net,COMPLETE,200,https,CONNECT,,/127.0.0.1,57783,cm.g.doubleclick.net/172.217.3.98,443,,03 Jun 2019 11:51:58,,,03 Jun 2019 11:52:29,30881,4,1,55,,,,0.54003906,,,1367,0,424,14337,0,969,,
https://us-east-sync.bidswitch.net,COMPLETE,200,https,CONNECT,,/127.0.0.1,57785,us-east-sync.bidswitch.net/35.185.84.198,443,,03 Jun 2019 11:51:58,,,03 Jun 2019 11:52:08,10274,5,22,82,,,,3.6689453,,,1190,0,430,36284,0,700,,
https://tag.apxlv.com,COMPLETE,200,https,CONNECT,,/127.0.0.1,57787,tag.apxlv.com/162.223.54.6,443,,03 Jun 2019 11:51:58,,,03 Jun 2019 11:52:29,30695,5,9,53,,,,0.8798828,,,1102,0,368,25553,0,647,,
https://tag.cogocast.net,COMPLETE,200,https,CONNECT,,/127.0.0.1,57789,tag.cogocast.net/52.4.133.146,443,,03 Jun 2019 11:51:58,,,03 Jun 2019 11:52:29,30646,6,9,40,,,,1.0976562,,,1479,0,502,31563,0,923,,
https://gpush.cogocast.net,COMPLETE,200,https,CONNECT,,/127.0.0.1,57791,gpush.cogocast.net/162.223.54.16,443,,03 Jun 2019 11:51:58,,,03 Jun 2019 11:51:58,34,4,12,,,,,6.232422,,,210,0,0,7,0,0,,
https://l0-secure.videohub.tv/ssframework/log/log.png?EC=40&a=logitemaction&nolog=1&ssPD=tremorvideodsp.com&Uzip=__postalCode__&CI=3502466&ADI=7871906&PRI=9a3c8d47-742c-4122-bd0c-1b6be04fe77c&Udma=__dma__&ssMLVer=rml_app_1.9.0&Uctry=__country__&AVI=425726&ssASVer=2.0&PBI=3500226&RI=1&Ust=__state__&NI=1344&admode=preroll&ssDsC=mobiletablet&ssRnd=992246902&EvaF=1&pctVw=0,COMPLETE,200,https,GET,image/gif,/127.0.0.1,57708,l0-secure.videohub.tv/67.226.210.14,443,,03 Jun 2019 11:51:59,03 Jun 2019 11:51:59,03 Jun 2019 11:51:59,03 Jun 2019 11:51:59,13,,,,0,0,13,55.73828,0.0,0.0,,699,,,0,43,,
https://s.tremorvideodsp.com/q/qa.gif?param1=mobile_screen_click,COMPLETE,200,https,GET,image/gif,/127.0.0.1,57697,s.tremorvideodsp.com/165.254.123.8,443,,03 Jun 2019 11:52:00,03 Jun 2019 11:52:00,03 Jun 2019 11:52:00,03 Jun 2019 11:52:00,15,,,,0,0,15,28.320312,0.0,0.0,,392,,,0,43,,
https://s.tremorvideodsp.com/q/qa.gif?param1=creative_click,COMPLETE,200,https,GET,image/gif,/127.0.0.1,57714,s.tremorvideodsp.com/165.254.123.8,443,,03 Jun 2019 11:52:00,03 Jun 2019 11:52:00,03 Jun 2019 11:52:00,03 Jun 2019 11:52:00,15,,,,0,0,15,27.99414,0.0,0.0,,387,,,0,43,,
https://l0-secure.videohub.tv/ssframework/log/log.png?EC=2&a=logitemaction&nolog=1&ssPD=tremorvideodsp.com&Uzip=__postalCode__&CI=3502466&ADI=7871906&PRI=9a3c8d47-742c-4122-bd0c-1b6be04fe77c&Udma=__dma__&ssMLVer=rml_app_1.9.0&Uctry=__country__&AVI=425726&ssASVer=2.0&PBI=3500226&RI=1&Ust=__state__&NI=1344&admode=preroll&ssDsC=mobiletablet&ssRnd=1041276685,COMPLETE,200,https,GET,image/gif,/127.0.0.1,57708,l0-secure.videohub.tv/67.226.210.14,443,,03 Jun 2019 11:52:00,03 Jun 2019 11:52:00,03 Jun 2019 11:52:00,03 Jun 2019 11:52:00,11,,,,0,0,11,64.541016,0.0,0.0,,684,,,0,43,,
https://l0-secure.videohub.tv/ssframework/log/log.png?EC=4&a=logitemaction&nolog=1&ssPD=tremorvideodsp.com&Uzip=__postalCode__&CI=3502466&ADI=7871906&PRI=9a3c8d47-742c-4122-bd0c-1b6be04fe77c&Udma=__dma__&ssMLVer=rml_app_1.9.0&Uctry=__country__&AVI=425726&ssASVer=2.0&PBI=3500226&RI=1&Ust=__state__&NI=1344&admode=preroll&ssDsC=mobiletablet&ssRnd=931006679&EiN=1,COMPLETE,200,https,GET,image/gif,/127.0.0.1,57708,l0-secure.videohub.tv/67.226.210.14,443,,03 Jun 2019 11:52:00,03 Jun 2019 11:52:00,03 Jun 2019 11:52:00,03 Jun 2019 11:52:00,10,,,,0,0,10,71.484375,0.0,0.0,,689,,,0,43,,
https://tremorvideodsp.com,COMPLETE,200,https,CONNECT,,/127.0.0.1,57793,tremorvideodsp.com/67.226.210.15,443,,03 Jun 2019 11:52:00,,,03 Jun 2019 11:52:01,143,12,9,51,,,,196.8623,,,1404,0,540,25979,0,904,,
https://tremorvideodsp.com,COMPLETE,200,https,CONNECT,,/127.0.0.1,57795,tremorvideodsp.com/67.226.210.15,443,,03 Jun 2019 11:52:01,,,03 Jun 2019 11:52:06,5080,1,11,38,,,,6.5410156,,,1756,0,454,31388,0,429,,
https://www.tremorvideodsp.com,COMPLETE,200,https,CONNECT,,/127.0.0.1,57797,www.tremorvideodsp.com/52.72.245.79,443,,03 Jun 2019 11:52:01,,,03 Jun 2019 11:52:32,31434,18,8,41,,,,3.8330078,,,3024,0,2832,12406,0,105142,,
https://www.tremorvideodsp.com,COMPLETE,200,https,CONNECT,,/127.0.0.1,57799,www.tremorvideodsp.com/52.72.245.79,443,,03 Jun 2019 11:52:01,,,03 Jun 2019 11:52:31,30195,2,9,141,,,,0.4765625,,,1424,0,280,12301,0,744,,
https://dt.scanscout.com,COMPLETE,200,https,CONNECT,,/127.0.0.1,57801,dt.scanscout.com/67.226.210.14,443,,03 Jun 2019 11:52:01,,,03 Jun 2019 11:52:06,5101,3,10,44,,,,6.7441406,,,3096,0,536,31298,0,302,,
https://www.tremorvideodsp.com,COMPLETE,200,https,CONNECT,,/127.0.0.1,57802,www.tremorvideodsp.com/52.72.245.79,443,,03 Jun 2019 11:52:01,,,03 Jun 2019 11:52:32,31084,3,9,45,,,,0.4921875,,,1584,0,1197,12301,0,600,,
https://www.tremorvideodsp.com,COMPLETE,200,https,CONNECT,,/127.0.0.1,57805,www.tremorvideodsp.com/52.72.245.79,443,,03 Jun 2019 11:52:01,,,03 Jun 2019 11:52:32,31084,5,9,45,,,,0.4638672,,,1584,0,608,12301,0,301,,
https://www.tremorvideodsp.com,COMPLETE,200,https,CONNECT,,/127.0.0.1,57803,www.tremorvideodsp.com/52.72.245.79,443,,03 Jun 2019 11:52:01,,,03 Jun 2019 11:52:32,31085,7,9,52,,,,0.46289062,,,1584,0,557,12301,0,302,,
https://cdn-secure.tremormedia.com,COMPLETE,200,https,CONNECT,,/127.0.0.1,57809,cdn-secure.tremormedia.com/23.33.130.45,443,,03 Jun 2019 11:52:01,,,03 Jun 2019 11:52:32,31005,3,2,23,,,,0.9589844,,,3024,0,391,26250,0,791,,
https://s.tremorvideodsp.com/q/qa.gif?param1=mobile_screen_click,COMPLETE,200,https,GET,image/gif,/127.0.0.1,57697,s.tremorvideodsp.com/165.254.123.8,443,,03 Jun 2019 11:52:14,03 Jun 2019 11:52:14,03 Jun 2019 11:52:14,03 Jun 2019 11:52:14,49,,,,0,0,49,8.668945,0.0,0.0,,392,,,0,43,,
https://s.tremorvideodsp.com/q/qa.gif?param1=creative_click,COMPLETE,200,https,GET,image/gif,/127.0.0.1,57714,s.tremorvideodsp.com/165.254.123.8,443,,03 Jun 2019 11:52:14,03 Jun 2019 11:52:14,03 Jun 2019 11:52:14,03 Jun 2019 11:52:14,43,,,,0,1,42,9.765625,0.0,41.992188,,387,,,0,43,,
https://l0-secure.videohub.tv/ssframework/log/log.png?EC=2&a=logitemaction&nolog=1&ssPD=tremorvideodsp.com&Uzip=__postalCode__&CI=3502466&ADI=7871906&PRI=9a3c8d47-742c-4122-bd0c-1b6be04fe77c&Udma=__dma__&ssMLVer=rml_app_1.9.0&Uctry=__country__&AVI=425726&ssASVer=2.0&PBI=3500226&RI=1&Ust=__state__&NI=1344&admode=preroll&ssDsC=mobiletablet&ssRnd=1041276685,COMPLETE,200,https,GET,image/gif,/127.0.0.1,57708,l0-secure.videohub.tv/67.226.210.14,443,,03 Jun 2019 11:52:14,03 Jun 2019 11:52:14,03 Jun 2019 11:52:14,03 Jun 2019 11:52:14,123,,13,39,53,0,18,219.4961,31.949219,0.0,1050,684,,25869,0,43,,
https://l0-secure.videohub.tv/ssframework/log/log.png?EC=7&a=logitemaction&nolog=1&ssPD=tremorvideodsp.com&Uzip=__postalCode__&CI=3502466&ADI=7871906&PRI=9a3c8d47-742c-4122-bd0c-1b6be04fe77c&Udma=__dma__&ssMLVer=rml_app_1.9.0&Uctry=__country__&AVI=425726&ssASVer=2.0&PBI=3500226&RI=1&Ust=__state__&NI=1344&admode=preroll&ssDsC=mobiletablet&ssRnd=582851080&Eipct=25&EiN=1,COMPLETE,200,https,GET,image/gif,/127.0.0.1,57708,l0-secure.videohub.tv/67.226.210.14,443,,03 Jun 2019 11:52:15,03 Jun 2019 11:52:15,03 Jun 2019 11:52:15,03 Jun 2019 11:52:15,12,,,,1,0,11,60.302734,681.6406,0.0,,698,,,0,43,,
https://s.tremorvideodsp.com/q/qa.gif?param1=mobile_screen_first_quartile,COMPLETE,200,https,GET,image/gif,/127.0.0.1,57697,s.tremorvideodsp.com/165.254.123.8,443,,03 Jun 2019 11:52:15,03 Jun 2019 11:52:15,03 Jun 2019 11:52:15,03 Jun 2019 11:52:15,15,,,,0,0,15,28.90625,0.0,0.0,,401,,,0,43,,
https://s.tremorvideodsp.com/q/qa.gif?param1=creative_first_quartile,COMPLETE,200,https,GET,image/gif,/127.0.0.1,57714,s.tremorvideodsp.com/165.254.123.8,443,,03 Jun 2019 11:52:15,03 Jun 2019 11:52:15,03 Jun 2019 11:52:15,03 Jun 2019 11:52:15,16,,,,0,0,16,26.793945,0.0,0.0,,396,,,0,43,,
https://l0-secure.videohub.tv/ssframework/log/log.png?EC=7&a=logitemaction&nolog=1&ssPD=tremorvideodsp.com&Uzip=__postalCode__&CI=3502466&ADI=7871906&PRI=9a3c8d47-742c-4122-bd0c-1b6be04fe77c&Udma=__dma__&ssMLVer=rml_app_1.9.0&Uctry=__country__&AVI=425726&ssASVer=2.0&PBI=3500226&RI=1&Ust=__state__&NI=1344&admode=preroll&ssDsC=mobiletablet&ssRnd=845218107&Eipct=50&EiN=1,COMPLETE,200,https,GET,image/gif,/127.0.0.1,57708,l0-secure.videohub.tv/67.226.210.14,443,,03 Jun 2019 11:52:18,03 Jun 2019 11:52:18,03 Jun 2019 11:52:18,03 Jun 2019 11:52:18,13,,,,1,0,12,55.664062,681.6406,0.0,,698,,,0,43,,
https://s.tremorvideodsp.com/q/qa.gif?param1=mobile_screen_second_quartile,COMPLETE,200,https,GET,image/gif,/127.0.0.1,57697,s.tremorvideodsp.com/165.254.123.8,443,,03 Jun 2019 11:52:18,03 Jun 2019 11:52:18,03 Jun 2019 11:52:18,03 Jun 2019 11:52:18,17,,,,0,0,17,25.5625,0.0,0.0,,402,,,0,43,,
https://s.tremorvideodsp.com/q/qa.gif?param1=creative_second_quartile,COMPLETE,200,https,GET,image/gif,/127.0.0.1,57714,s.tremorvideodsp.com/165.254.123.8,443,,03 Jun 2019 11:52:18,03 Jun 2019 11:52:18,03 Jun 2019 11:52:18,03 Jun 2019 11:52:18,14,,,,0,1,13,30.691406,0.0,41.992188,,397,,,0,43,,
https://l0-secure.videohub.tv/ssframework/log/log.png?EC=7&a=logitemaction&nolog=1&ssPD=tremorvideodsp.com&Uzip=__postalCode__&CI=3502466&ADI=7871906&PRI=9a3c8d47-742c-4122-bd0c-1b6be04fe77c&Udma=__dma__&ssMLVer=rml_app_1.9.0&Uctry=__country__&AVI=425726&ssASVer=2.0&PBI=3500226&RI=1&Ust=__state__&NI=1344&admode=preroll&ssDsC=mobiletablet&ssRnd=1503211258&Eipct=75&EiN=1,COMPLETE,200,https,GET,image/gif,/127.0.0.1,57708,l0-secure.videohub.tv/67.226.210.14,443,,03 Jun 2019 11:52:22,03 Jun 2019 11:52:22,03 Jun 2019 11:52:22,03 Jun 2019 11:52:22,40,,,,0,0,40,18.115234,0.0,0.0,,699,,,0,43,,
https://s.tremorvideodsp.com/q/qa.gif?param1=mobile_screen_third_quartile,COMPLETE,200,https,GET,image/gif,/127.0.0.1,57697,s.tremorvideodsp.com/165.254.123.8,443,,03 Jun 2019 11:52:22,03 Jun 2019 11:52:22,03 Jun 2019 11:52:22,03 Jun 2019 11:52:22,17,,,,0,0,17,25.504883,0.0,0.0,,401,,,0,43,,
https://s.tremorvideodsp.com/q/qa.gif?param1=creative_third_quartile,COMPLETE,200,https,GET,image/gif,/127.0.0.1,57714,s.tremorvideodsp.com/165.254.123.8,443,,03 Jun 2019 11:52:22,03 Jun 2019 11:52:22,03 Jun 2019 11:52:22,03 Jun 2019 11:52:22,16,,,,0,0,16,26.793945,0.0,0.0,,396,,,0,43,,
https://l0-secure.videohub.tv/ssframework/log/log.png?EC=38&a=logitemaction&nolog=1&ssPD=tremorvideodsp.com&Uzip=__postalCode__&CI=3502466&ADI=7871906&PRI=9a3c8d47-742c-4122-bd0c-1b6be04fe77c&Udma=__dma__&ssMLVer=rml_app_1.9.0&Uctry=__country__&AVI=425726&ssASVer=2.0&PBI=3500226&RI=1&Ust=__state__&NI=1344&admode=preroll&ssDsC=mobiletablet&ssRnd=673327216&EvaF=1&pctVw=100,COMPLETE,200,https,GET,image/gif,/127.0.0.1,57708,l0-secure.videohub.tv/67.226.210.14,443,,03 Jun 2019 11:52:25,03 Jun 2019 11:52:25,03 Jun 2019 11:52:25,03 Jun 2019 11:52:25,21,,,,0,0,21,34.597656,0.0,0.0,,701,,,0,43,,
https://s.tremorvideodsp.com/q/qa.gif?param1=viewable_completion,COMPLETE,200,https,GET,image/gif,/127.0.0.1,57697,s.tremorvideodsp.com/165.254.123.8,443,,03 Jun 2019 11:52:25,03 Jun 2019 11:52:25,03 Jun 2019 11:52:25,03 Jun 2019 11:52:25,51,,,,0,0,51,8.329102,0.0,0.0,,392,,,0,43,,
https://l0-secure.videohub.tv/ssframework/log/log.png?EC=7&a=logitemaction&nolog=1&ssPD=tremorvideodsp.com&Uzip=__postalCode__&CI=3502466&ADI=7871906&PRI=9a3c8d47-742c-4122-bd0c-1b6be04fe77c&Udma=__dma__&ssMLVer=rml_app_1.9.0&Uctry=__country__&AVI=425726&ssASVer=2.0&PBI=3500226&RI=1&Ust=__state__&NI=1344&admode=preroll&ssDsC=mobiletablet&ssRnd=459055892&Eipct=100&RcpF=1&EiN=1,COMPLETE,200,https,GET,image/gif,/127.0.0.1,57708,l0-secure.videohub.tv/67.226.210.14,443,,03 Jun 2019 11:52:26,03 Jun 2019 11:52:26,03 Jun 2019 11:52:26,03 Jun 2019 11:52:26,14,,,,1,1,12,52.246094,689.4531,41.992188,,706,,,0,43,,
https://s.tremorvideodsp.com/q/qa.gif?param1=mobile_screen_completion,COMPLETE,200,https,GET,image/gif,/127.0.0.1,57697,s.tremorvideodsp.com/165.254.123.8,443,,03 Jun 2019 11:52:26,03 Jun 2019 11:52:26,03 Jun 2019 11:52:26,03 Jun 2019 11:52:26,48,,,,0,1,47,8.951172,0.0,41.992188,,397,,,0,43,,
https://s.tremorvideodsp.com/q/qa.gif?param1=creative_completion,COMPLETE,200,https,GET,image/gif,/127.0.0.1,57714,s.tremorvideodsp.com/165.254.123.8,443,,03 Jun 2019 11:52:26,03 Jun 2019 11:52:26,03 Jun 2019 11:52:26,03 Jun 2019 11:52:26,46,,,,0,0,46,9.234375,0.0,0.0,,392,,,0,43,,
https://s.tremorvideodsp.com/q/qa.gif?param1=completion,COMPLETE,200,https,GET,image/gif,/127.0.0.1,57716,s.tremorvideodsp.com/165.254.123.8,443,,03 Jun 2019 11:52:26,03 Jun 2019 11:52:26,03 Jun 2019 11:52:26,03 Jun 2019 11:52:26,24,,,,0,0,24,17.333984,0.0,0.0,,383,,,0,43,,
https://s.tremorvideodsp.com/q/video1_small.mp4,COMPLETE,206,https,GET,video/mp4,/127.0.0.1,57812,s.tremorvideodsp.com/165.254.123.8,443,,03 Jun 2019 11:52:26,03 Jun 2019 11:52:26,03 Jun 2019 11:52:26,03 Jun 2019 11:52:26,39,7,2,9,0,0,21,412.33398,0.0,0.0,1058,358,,15049,0,2,,
https://s.tremorvideodsp.com/q/video1_small.mp4,COMPLETE,206,https,GET,video/mp4,/127.0.0.1,57812,s.tremorvideodsp.com/165.254.123.8,443,,03 Jun 2019 11:52:26,03 Jun 2019 11:52:26,03 Jun 2019 11:52:26,03 Jun 2019 11:52:26,41,,,,0,9,32,1569.5977,0.0,7111.1104,,362,,,0,65536,,
https://s.tremorvideodsp.com/q/video1_small.mp4,COMPLETE,206,https,GET,video/mp4,/127.0.0.1,57812,s.tremorvideodsp.com/165.254.123.8,443,,03 Jun 2019 11:52:26,03 Jun 2019 11:52:26,03 Jun 2019 11:52:26,03 Jun 2019 11:52:26,30,,,,0,6,24,2145.3125,0.0,10666.666,,368,,,0,65536,,
https://s.tremorvideodsp.com/q/video1_small.mp4,COMPLETE,206,https,GET,video/mp4,/127.0.0.1,57814,s.tremorvideodsp.com/165.254.123.8,443,,03 Jun 2019 11:52:26,03 Jun 2019 11:52:26,03 Jun 2019 11:52:26,03 Jun 2019 11:52:27,717,3,1,9,0,677,27,13493.331,0.0,14288.621,986,368,,14959,0,9890599,,
https://s.tremorvideodsp.com/q/video1_small.mp4,COMPLETE,206,https,GET,video/mp4,/127.0.0.1,57812,s.tremorvideodsp.com/165.254.123.8,443,,03 Jun 2019 11:52:26,03 Jun 2019 11:52:26,03 Jun 2019 11:52:26,03 Jun 2019 11:52:26,54,,,,0,5,49,1191.8398,0.0,12800.0,,368,,,0,65536,,
https://jwpltx.com,COMPLETE,200,https,CONNECT,,/127.0.0.1,57816,jwpltx.com/34.192.30.112,443,,03 Jun 2019 11:52:27,,,03 Jun 2019 11:52:58,31009,2,12,88,,,,0.9013672,,,1274,0,883,26340,0,132,,
https://ssl.gstatic.com,RECEIVING_REQUEST_BODY,200,https,CONNECT,,/127.0.0.1,57818,ssl.gstatic.com/172.217.3.99,443,,03 Jun 2019 11:52:31,,,,43350,4,2,,,,,0.0107421875,,,517,0,0,,0,0,,
https://www.tremorvideodsp.com,COMPLETE,200,https,CONNECT,,/127.0.0.1,57820,www.tremorvideodsp.com/52.72.245.79,443,,03 Jun 2019 11:52:31,,,03 Jun 2019 11:52:31,255,2,9,54,,,,273.6787,,,1584,0,268,10148,0,59463,,
https://entitlements.jwplayer.com,COMPLETE,200,https,CONNECT,,/127.0.0.1,57822,entitlements.jwplayer.com/72.21.81.189,443,,03 Jun 2019 11:52:32,,,03 Jun 2019 11:53:02,30299,6,2,69,,,,1.1552734,,,1524,0,317,33541,0,464,,
https://s.tremorvideodsp.com/q/video1_small.mp4,COMPLETE,206,https,GET,video/mp4,/127.0.0.1,57824,s.tremorvideodsp.com/165.254.123.8,443,,03 Jun 2019 11:52:32,03 Jun 2019 11:52:32,03 Jun 2019 11:52:32,03 Jun 2019 11:52:32,134,3,1,10,1,1,118,120.00781,1382.8125,14698.242,1058,358,,15049,0,2,,
https://s.tremorvideodsp.com/q/video1_small.mp4,COMPLETE,206,https,GET,video/mp4,/127.0.0.1,57824,s.tremorvideodsp.com/165.254.123.8,443,,03 Jun 2019 11:52:32,03 Jun 2019 11:52:32,03 Jun 2019 11:52:32,03 Jun 2019 11:52:32,33,,,,1,6,26,1950.1064,353.51562,10666.666,,362,,,0,65536,,
https://s.tremorvideodsp.com/q/video1_small.mp4,COMPLETE,206,https,GET,video/mp4,/127.0.0.1,57824,s.tremorvideodsp.com/165.254.123.8,443,,03 Jun 2019 11:52:32,03 Jun 2019 11:52:32,03 Jun 2019 11:52:32,03 Jun 2019 11:52:32,29,,,,0,7,22,2219.288,0.0,9142.856,,368,,,0,65536,,
https://s.tremorvideodsp.com/q/video1_small.mp4,COMPLETE,206,https,GET,video/mp4,/127.0.0.1,57826,s.tremorvideodsp.com/165.254.123.8,443,com.xk72.proxy.ProxyException: Client closed connection before receiving entire response,03 Jun 2019 11:52:32,03 Jun 2019 11:52:32,03 Jun 2019 11:52:32,03 Jun 2019 11:52:32,169,2,2,61,0,81,23,6504.576,0.0,13554.952,986,368,,14959,0,1109343,,
https://s.tremorvideodsp.com/q/video1_small.mp4,COMPLETE,206,https,GET,video/mp4,/127.0.0.1,57824,s.tremorvideodsp.com/165.254.123.8,443,,03 Jun 2019 11:52:32,03 Jun 2019 11:52:32,03 Jun 2019 11:52:32,03 Jun 2019 11:52:32,68,,,,0,10,58,946.46094,0.0,6400.0,,368,,,0,65536,,
https://play.google.com,RECEIVING_REQUEST_BODY,200,https,CONNECT,,/127.0.0.1,57828,play.google.com/172.217.7.14,443,,03 Jun 2019 11:52:53,,,,21232,2,2,,,,,0.0234375,,,517,0,0,,0,0,,
