URL,Status,Response Code,Protocol,Method,Content-Type,Client Address,Client Port,Remote Address,Remote Port,Exception,Request Start Time,Request End Time,Response Start Time,Response End Time,Duration (ms),DNS Duration (ms),Connect Duration (ms),SSL Duration (ms),Request Duration (ms),Response Duration (ms),Latency (ms),Speed (KB/s),Request Speed (KB/s),Response Speed (KB/s),Request Handshake Size (bytes),Request Header Size (bytes),Request Body Size (bytes),Response Handshake Size (bytes),Response Header Size (bytes),Response Body Size (bytes),Request Compression,Response Compression
https://ssl.gstatic.com,RECEIVING_REQUEST_BODY,200,https,CONNECT,,/127.0.0.1,58085,ssl.gstatic.com/172.217.12.195,443,,04 Jun 2019 12:52:06,,,,2902534,2,2,4,,,,0.0029296875,,,1608,0,3629,372,0,5881,,
https://ts01-b.cloudsink.net,RECEIVING_REQUEST_BODY,200,https,CONNECT,,/127.0.0.1,58432,ts01-b.cloudsink.net/54.183.142.105,443,,04 Jun 2019 13:22:43,,,,1065781,5,73,173,,,,0.15625,,,1246,0,122907,17474,0,29235,,
https://14.client-channel.google.com,RECEIVING_RESPONSE_BODY,200,https,CONNECT,,/127.0.0.1,58485,14.client-channel.google.com/74.125.141.189,443,,04 Jun 2019 13:23:54,,,,995166,53,21,66,,,,0.028320312,,,1179,0,4713,15994,0,7292,,
https://www.google-analytics.com,COMPLETE,200,https,CONNECT,,/127.0.0.1,58996,www.google-analytics.com/172.217.6.206,443,,04 Jun 2019 13:31:56,,,04 Jun 2019 13:37:56,360071,27,3,34,,,,0.055664062,,,2892,0,1120,15900,0,,,
https://stats.g.doubleclick.net,COMPLETE,200,https,CONNECT,,/127.0.0.1,58998,stats.g.doubleclick.net/173.194.206.156,443,,04 Jun 2019 13:31:56,,,04 Jun 2019 13:37:56,359973,23,16,45,,,,0.05078125,,,2892,0,847,14301,0,,,
https://www.google.com,COMPLETE,200,https,CONNECT,,/127.0.0.1,59000,www.google.com/172.217.10.68,443,,04 Jun 2019 13:31:56,,,04 Jun 2019 13:37:56,359850,18,3,34,,,,0.048828125,,,2892,0,1026,13249,0,,,
https://play.google.com,COMPLETE,200,https,CONNECT,,/127.0.0.1,59033,play.google.com/172.217.10.46,443,,04 Jun 2019 13:34:01,,,04 Jun 2019 13:40:01,359995,20,2,3,,,,0.026367188,,,2207,0,4963,372,0,,,
https://entitlements.jwplayer.com,COMPLETE,200,https,CONNECT,,/127.0.0.1,59177,entitlements.jwplayer.com/72.21.81.189,443,,04 Jun 2019 13:38:58,,,04 Jun 2019 13:39:29,30979,2,2,60,,,,1.1347656,,,1684,0,317,33541,0,464,,
https://s.tremorvideodsp.com/q/video1_small.mp4,COMPLETE,206,https,GET,video/mp4,/127.0.0.1,59179,s.tremorvideodsp.com/23.48.39.121,443,,04 Jun 2019 13:38:58,04 Jun 2019 13:38:58,04 Jun 2019 13:38:58,04 Jun 2019 13:38:58,141,41,8,24,1,1,66,114.049805,1382.8125,14698.242,1058,358,,15049,0,2,,
https://jwpltx.com,COMPLETE,200,https,CONNECT,,/127.0.0.1,59180,jwpltx.com/34.236.4.254,443,,04 Jun 2019 13:38:58,,,04 Jun 2019 13:39:39,41134,5,9,44,,,,0.8261719,,,1609,0,1205,31731,0,264,,
https://s.tremorvideodsp.com/q/video1_small.mp4,COMPLETE,206,https,GET,video/mp4,/127.0.0.1,59179,s.tremorvideodsp.com/23.48.39.121,443,,04 Jun 2019 13:38:58,04 Jun 2019 13:38:58,04 Jun 2019 13:38:59,04 Jun 2019 13:38:59,43,,,,0,13,30,1496.5928,0.0,4923.076,,362,,,0,65536,,
https://s.tremorvideodsp.com/q/video1_small.mp4,COMPLETE,206,https,GET,video/mp4,/127.0.0.1,59179,s.tremorvideodsp.com/23.48.39.121,443,,04 Jun 2019 13:38:59,04 Jun 2019 13:38:59,04 Jun 2019 13:38:59,04 Jun 2019 13:38:59,39,,,,0,8,31,1650.2402,0.0,8000.0,,368,,,0,65536,,
https://s.tremorvideodsp.com/q/video1_small.mp4,COMPLETE,206,https,GET,video/mp4,/127.0.0.1,59183,s.tremorvideodsp.com/23.48.39.121,443,,04 Jun 2019 13:38:59,04 Jun 2019 13:38:59,04 Jun 2019 13:38:59,04 Jun 2019 13:38:59,520,2,9,25,0,460,24,18605.227,0.0,21029.121,986,368,,14959,0,9890599,,
https://s.tremorvideodsp.com/q/video1_small.mp4,COMPLETE,206,https,GET,video/mp4,/127.0.0.1,59179,s.tremorvideodsp.com/23.48.39.121,443,,04 Jun 2019 13:38:59,04 Jun 2019 13:38:59,04 Jun 2019 13:38:59,04 Jun 2019 13:38:59,37,,,,0,6,31,1739.4424,0.0,10666.666,,368,,,0,65536,,
https://safebrowsing.googleapis.com,RECEIVING_REQUEST_BODY,200,https,CONNECT,,/127.0.0.1,59185,safebrowsing.googleapis.com/172.217.10.74,443,,04 Jun 2019 13:39:03,,,,85670,2,2,,,,,0.005859375,,,517,0,0,,0,0,,
https://adserver.videohub.tv/preview?RI=UqCPSNZe2Z7u_ZSm7nGUYQ&screenType=mobiletablet&rml=true&Uctry=__country__&Ust=__state__&Udma=__dma__&Uzip=__postalCode__&Ucty=__city__&Uctnt=__continent__&Ulong=__longitude__&Ulat=__latitude__&Uacd=__areaCode__&position_ACP=__adChoicesPosition__&usedACP=__usedACP__&dspACP=__adChoicesProviders__&sig=C66909ECA95E241A272A495A5417EC66&dmps=y&ssRmlApp=1&isApp=y,COMPLETE,200,https,GET,application/xml; charset=utf-8,/127.0.0.1,59187,adserver.videohub.tv/67.226.210.8,443,,04 Jun 2019 13:39:07,04 Jun 2019 13:39:07,04 Jun 2019 13:39:07,04 Jun 2019 13:39:07,88,18,11,34,0,11,14,446.9209,0.0,3423.206,1046,668,,25605,0,12954,,
https://objects-secure.videohub.tv/net/js/rml-app.min.js?adData=https%3A%2F%2Fs.tremorvideodsp.com%2Fq%2Ftp_mp4_cor.xml,COMPLETE,200,https,GET,application/javascript,/127.0.0.1,59189,objects-secure.videohub.tv/104.110.215.249,443,,04 Jun 2019 13:39:07,04 Jun 2019 13:39:08,04 Jun 2019 13:39:08,04 Jun 2019 13:39:08,94,40,9,23,0,13,9,842.7832,0.0,5984.375,1070,389,,16754,0,62910,,72.6%
https://s.tremorvideodsp.com/q/tp_mp4_cor.xml,COMPLETE,200,https,GET,application/xml,/127.0.0.1,59191,s.tremorvideodsp.com/23.48.39.121,443,,04 Jun 2019 13:39:08,04 Jun 2019 13:39:08,04 Jun 2019 13:39:08,04 Jun 2019 13:39:08,131,1,8,20,0,1,101,127.64551,0.0,15392.578,1046,315,,15049,0,713,,
https://objects-secure.tremormedia.com/net/js/io-polyfill-0.5.1.js,COMPLETE,200,https,GET,application/javascript,/127.0.0.1,59193,objects-secure.tremormedia.com/104.110.194.47,443,,04 Jun 2019 13:39:08,04 Jun 2019 13:39:08,04 Jun 2019 13:39:08,04 Jun 2019 13:39:08,76,36,8,22,1,2,7,315.7119,1388.6719,11302.734,1086,336,,16789,0,6359,,71.5%
https://s.tremorvideodsp1.com,EXCEPTION,503,https,CONNECT,text/html;charset=ISO-8859-1,/127.0.0.1,59195,,443,"java.net.UnknownHostException: s.tremorvideodsp1.com: nodename nor servname provided, or not known",04 Jun 2019 13:39:08,,,04 Jun 2019 13:39:08,59,57,,,,,,13.241211,,,,0,,,0,800,,
https://s.tremorvideodsp.com/q/video1_small.mp4,COMPLETE,206,https,GET,video/mp4,/127.0.0.1,59196,s.tremorvideodsp.com/23.48.39.121,443,,04 Jun 2019 13:39:08,04 Jun 2019 13:39:08,04 Jun 2019 13:39:08,04 Jun 2019 13:39:08,80,2,9,23,0,0,46,201.0127,0.0,0.0,1058,358,,15049,0,2,,
https://s.tremorvideodsp.com/q/video1_small.mp4,COMPLETE,206,https,GET,video/mp4,/127.0.0.1,59196,s.tremorvideodsp.com/23.48.39.121,443,,04 Jun 2019 13:39:08,04 Jun 2019 13:39:08,04 Jun 2019 13:39:08,04 Jun 2019 13:39:08,35,,,,0,12,23,1838.6719,0.0,5333.333,,362,,,0,65536,,
https://s.tremorvideodsp.com/q/video1_small.mp4,COMPLETE,206,https,GET,video/mp4,/127.0.0.1,59196,s.tremorvideodsp.com/23.48.39.121,443,,04 Jun 2019 13:39:08,04 Jun 2019 13:39:08,04 Jun 2019 13:39:08,04 Jun 2019 13:39:08,28,,,,0,7,21,2298.5488,0.0,9142.856,,368,,,0,65536,,
https://s.tremorvideodsp.com/q/video1_small.mp4,COMPLETE,206,https,GET,video/mp4,/127.0.0.1,59198,s.tremorvideodsp.com/23.48.39.121,443,,04 Jun 2019 13:39:08,04 Jun 2019 13:39:08,04 Jun 2019 13:39:08,04 Jun 2019 13:39:09,650,2,9,24,0,592,23,14884.183,0.0,16340.196,986,368,,14959,0,9890599,,
https://s.tremorvideodsp.com/q/video1_small.mp4,COMPLETE,206,https,GET,video/mp4,/127.0.0.1,59196,s.tremorvideodsp.com/23.48.39.121,443,,04 Jun 2019 13:39:08,04 Jun 2019 13:39:08,04 Jun 2019 13:39:08,04 Jun 2019 13:39:08,26,,,,0,5,21,2475.3604,0.0,12800.0,,368,,,0,65536,,
https://prd.jwpltx.com,COMPLETE,200,https,CONNECT,,/127.0.0.1,59200,prd.jwpltx.com/52.1.20.79,443,,04 Jun 2019 13:39:09,,,04 Jun 2019 13:39:39,30612,40,9,37,,,,0.9238281,,,1629,0,884,26340,0,132,,
https://tremorvideo.jamfcloud.com,COMPLETE,200,https,CONNECT,,/127.0.0.1,59206,tremorvideo.jamfcloud.com/34.235.50.24,443,,04 Jun 2019 13:39:15,,,04 Jun 2019 13:39:15,216,101,9,28,,,,136.7002,,,1182,0,1839,26155,0,1060,,
https://entitlements.jwplayer.com,COMPLETE,200,https,CONNECT,,/127.0.0.1,59208,entitlements.jwplayer.com/72.21.81.189,443,,04 Jun 2019 13:39:45,,,04 Jun 2019 13:40:16,31005,1,2,111,,,,0.9707031,,,1524,0,317,28535,0,464,,
https://s.tremorvideodsp.com/q/video1_small.mp4,COMPLETE,206,https,GET,video/mp4,/127.0.0.1,59210,s.tremorvideodsp.com/23.48.39.121,443,,04 Jun 2019 13:39:45,04 Jun 2019 13:39:45,04 Jun 2019 13:39:45,04 Jun 2019 13:39:45,91,31,8,23,0,0,29,176.71484,0.0,0.0,1058,358,,15049,0,2,,
https://jwpltx.com,COMPLETE,200,https,CONNECT,,/127.0.0.1,59211,jwpltx.com/34.236.4.254,443,,04 Jun 2019 13:39:45,,,04 Jun 2019 13:40:16,30886,3,9,47,,,,1.0722656,,,1449,0,610,31731,0,132,,
https://s.tremorvideodsp.com/q/video1_small.mp4,COMPLETE,206,https,GET,video/mp4,/127.0.0.1,59210,s.tremorvideodsp.com/23.48.39.121,443,,04 Jun 2019 13:39:45,04 Jun 2019 13:39:45,04 Jun 2019 13:39:45,04 Jun 2019 13:39:45,109,,,,0,12,97,590.39844,0.0,5333.333,,362,,,0,65536,,
https://s.tremorvideodsp.com/q/video1_small.mp4,COMPLETE,206,https,GET,video/mp4,/127.0.0.1,59210,s.tremorvideodsp.com/23.48.39.121,443,,04 Jun 2019 13:39:45,04 Jun 2019 13:39:45,04 Jun 2019 13:39:45,04 Jun 2019 13:39:45,27,,,,0,7,20,2383.6797,0.0,9142.856,,368,,,0,65536,,
https://s.tremorvideodsp.com/q/video1_small.mp4,COMPLETE,206,https,GET,video/mp4,/127.0.0.1,59214,s.tremorvideodsp.com/23.48.39.121,443,com.xk72.proxy.ProxyException: Client closed connection before receiving entire response,04 Jun 2019 13:39:45,04 Jun 2019 13:39:45,04 Jun 2019 13:39:45,04 Jun 2019 13:39:45,201,2,8,69,0,101,21,5749.4844,0.0,11428.952,986,368,,14959,0,1167069,,
https://s.tremorvideodsp.com/q/video1_small.mp4,COMPLETE,206,https,GET,video/mp4,/127.0.0.1,59210,s.tremorvideodsp.com/23.48.39.121,443,,04 Jun 2019 13:39:45,04 Jun 2019 13:39:45,04 Jun 2019 13:39:45,04 Jun 2019 13:39:45,70,,,,0,12,58,919.41895,0.0,5333.333,,368,,,0,65536,,
