URL,Status,Response Code,Protocol,Method,Content-Type,Client Address,Client Port,Remote Address,Remote Port,Exception,Request Start Time,Request End Time,Response Start Time,Response End Time,Duration (ms),DNS Duration (ms),Connect Duration (ms),SSL Duration (ms),Request Duration (ms),Response Duration (ms),Latency (ms),Speed (KB/s),Request Speed (KB/s),Response Speed (KB/s),Request Handshake Size (bytes),Request Header Size (bytes),Request Body Size (bytes),Response Handshake Size (bytes),Response Header Size (bytes),Response Body Size (bytes),Request Compression,Response Compression
https://ts01-b.cloudsink.net,RECEIVING_RESPONSE_BODY,200,https,CONNECT,,/127.0.0.1,58432,ts01-b.cloudsink.net/54.183.142.105,443,,04 Jun 2019 13:22:43,,,,2130611,5,73,173,,,,0.099609375,,,1246,0,162614,17474,0,36695,,
https://14.client-channel.google.com,RECEIVING_RESPONSE_BODY,200,https,CONNECT,,/127.0.0.1,58485,14.client-channel.google.com/74.125.141.189,443,,04 Jun 2019 13:23:54,,,,2059996,53,21,66,,,,0.017578125,,,1179,0,8472,15994,0,12144,,
https://play.google.com,COMPLETE,200,https,CONNECT,,/127.0.0.1,59553,play.google.com/172.217.10.46,443,,04 Jun 2019 13:52:21,,,04 Jun 2019 13:56:06,224663,1,2,3,,,,0.024414062,,,2207,0,1930,372,0,,,
https://www.google-analytics.com,COMPLETE,200,https,CONNECT,,/127.0.0.1,59673,www.google-analytics.com/172.217.6.206,443,,04 Jun 2019 13:54:05,,,04 Jun 2019 13:58:05,240067,2,2,47,,,,0.08105469,,,2892,0,754,15900,0,,,
https://stats.g.doubleclick.net,COMPLETE,200,https,CONNECT,,/127.0.0.1,59675,stats.g.doubleclick.net/173.194.204.154,443,,04 Jun 2019 13:54:05,,,04 Jun 2019 13:58:05,239890,3,17,47,,,,0.07421875,,,2892,0,616,14309,0,,,
https://www.google.com,COMPLETE,200,https,CONNECT,,/127.0.0.1,59677,www.google.com/172.217.11.36,443,,04 Jun 2019 13:54:05,,,04 Jun 2019 13:58:05,239790,3,3,33,,,,0.07128906,,,2892,0,817,13249,0,,,
https://clients4.google.com,COMPLETE,200,https,CONNECT,,/127.0.0.1,59694,clients4.google.com/172.217.10.14,443,,04 Jun 2019 13:54:41,,,04 Jun 2019 13:58:06,205198,26,2,24,,,,0.11328125,,,2892,0,1745,18784,0,,,
https://ssl.gstatic.com,RECEIVING_REQUEST_BODY,200,https,CONNECT,,/127.0.0.1,59696,ssl.gstatic.com/172.217.12.195,443,,04 Jun 2019 13:55:06,,,,187410,1,2,3,,,,0.017578125,,,1608,0,722,372,0,777,,
https://mail.google.com,COMPLETE,200,https,CONNECT,,/127.0.0.1,59698,mail.google.com/172.217.6.229,443,,04 Jun 2019 13:55:34,,,04 Jun 2019 13:58:06,152282,3,2,4,,,,0.13574219,,,2207,0,2443,372,0,16174,,
https://people-pa.clients6.google.com,RECEIVING_REQUEST_BODY,200,https,CONNECT,,/127.0.0.1,59700,people-pa.clients6.google.com/172.217.12.138,443,,04 Jun 2019 13:56:22,,,,112009,22,2,,,,,0.00390625,,,517,0,0,,0,0,,
https://people-pa.clients6.google.com,RECEIVING_REQUEST_BODY,200,https,CONNECT,,/127.0.0.1,59702,people-pa.clients6.google.com/172.217.12.138,443,,04 Jun 2019 13:56:22,,,,111957,1,2,,,,,0.00390625,,,517,0,0,,0,0,,
https://entitlements.jwplayer.com,COMPLETE,200,https,CONNECT,,/127.0.0.1,59705,entitlements.jwplayer.com/72.21.81.189,443,,04 Jun 2019 13:56:43,,,04 Jun 2019 13:57:13,30146,29,2,41,,,,1.1660156,,,1684,0,317,33541,0,464,,
https://s.tremorvideodsp.com/q/video1_small.mp4,COMPLETE,206,https,GET,video/mp4,/127.0.0.1,59706,s.tremorvideodsp.com/23.48.39.121,443,,04 Jun 2019 13:56:43,04 Jun 2019 13:56:43,04 Jun 2019 13:56:43,04 Jun 2019 13:56:43,110,45,8,25,0,0,32,146.1914,0.0,0.0,1058,358,,15049,0,2,,
https://jwpltx.com,COMPLETE,200,https,CONNECT,,/127.0.0.1,59708,jwpltx.com/52.70.40.88,443,,04 Jun 2019 13:56:43,,,04 Jun 2019 13:57:23,40402,3,10,42,,,,0.8408203,,,1609,0,1204,31731,0,264,,
https://s.tremorvideodsp.com/q/video1_small.mp4,COMPLETE,206,https,GET,video/mp4,/127.0.0.1,59706,s.tremorvideodsp.com/23.48.39.121,443,,04 Jun 2019 13:56:43,04 Jun 2019 13:56:43,04 Jun 2019 13:56:43,04 Jun 2019 13:56:43,34,,,,0,13,21,1892.75,0.0,4923.076,,362,,,0,65536,,
https://s.tremorvideodsp.com/q/video1_small.mp4,COMPLETE,206,https,GET,video/mp4,/127.0.0.1,59706,s.tremorvideodsp.com/23.48.39.121,443,,04 Jun 2019 13:56:43,04 Jun 2019 13:56:43,04 Jun 2019 13:56:43,04 Jun 2019 13:56:43,42,,,,0,8,34,1532.3652,0.0,8000.0,,368,,,0,65536,,
https://s.tremorvideodsp.com/q/video1_small.mp4,COMPLETE,206,https,GET,video/mp4,/127.0.0.1,59711,s.tremorvideodsp.com/23.48.39.121,443,,04 Jun 2019 13:56:43,04 Jun 2019 13:56:43,04 Jun 2019 13:56:43,04 Jun 2019 13:56:43,521,2,9,24,0,461,25,18569.518,0.0,20983.506,986,368,,14959,0,9890599,,
https://s.tremorvideodsp.com/q/video1_small.mp4,COMPLETE,206,https,GET,video/mp4,/127.0.0.1,59706,s.tremorvideodsp.com/23.48.39.121,443,,04 Jun 2019 13:56:43,04 Jun 2019 13:56:43,04 Jun 2019 13:56:43,04 Jun 2019 13:56:43,46,,,,0,6,40,1399.1162,0.0,10666.666,,368,,,0,65536,,
https://adserver.videohub.tv/preview?RI=wZCiR_qaHFIdYaE-lVwTjA&screenType=mobiletablet&rml=true&Uctry=__country__&Ust=__state__&Udma=__dma__&Uzip=__postalCode__&Ucty=__city__&Uctnt=__continent__&Ulong=__longitude__&Ulat=__latitude__&Uacd=__areaCode__&position_ACP=__adChoicesPosition__&usedACP=__usedACP__&dspACP=__adChoicesProviders__&sig=D4453DD86D425E879BC87A579B906D68&dmps=y&ssRmlApp=1&isApp=y,COMPLETE,200,https,GET,application/xml; charset=utf-8,/127.0.0.1,59713,adserver.videohub.tv/67.226.210.8,443,,04 Jun 2019 13:56:52,04 Jun 2019 13:56:52,04 Jun 2019 13:56:52,04 Jun 2019 13:56:52,58,4,10,29,0,1,14,678.4238,0.0,37674.805,1046,668,,25605,0,12974,,
https://objects-secure.videohub.tv/net/js/rml-app.min.js?adData=https%3A%2F%2Fs.tremorvideodsp.com%2Fq%2FVAST_3%2Fmp4_vast3_two_id.xml,COMPLETE,200,https,GET,application/javascript,/127.0.0.1,59715,objects-secure.videohub.tv/104.110.215.249,443,,04 Jun 2019 13:56:52,04 Jun 2019 13:56:52,04 Jun 2019 13:56:52,04 Jun 2019 13:56:52,98,50,8,21,1,11,7,808.5332,1439.4531,7072.4424,1070,404,,16754,0,62910,,72.6%
https://s.tremorvideodsp.com/q/VAST_3/mp4_vast3_two_id.xml,COMPLETE,200,https,GET,text/xml,/127.0.0.1,59717,s.tremorvideodsp.com/23.48.39.121,443,,04 Jun 2019 13:56:52,04 Jun 2019 13:56:52,04 Jun 2019 13:56:52,04 Jun 2019 13:56:52,79,1,8,21,1,0,48,207.72266,1341.7969,0.0,1046,328,,15049,0,381,,72.6%
https://s.tremorvideodsp.com/q/video1_small.mp4,COMPLETE,206,https,GET,video/mp4,/127.0.0.1,59719,s.tremorvideodsp.com/23.48.39.121,443,,04 Jun 2019 13:56:52,04 Jun 2019 13:56:52,04 Jun 2019 13:56:52,04 Jun 2019 13:56:52,55,2,8,24,0,1,20,292.3828,0.0,14698.242,1058,358,,15049,0,2,,
https://s.tremorvideodsp.com/q/video1_small.mp4,COMPLETE,206,https,GET,video/mp4,/127.0.0.1,59719,s.tremorvideodsp.com/23.48.39.121,443,,04 Jun 2019 13:56:52,04 Jun 2019 13:56:52,04 Jun 2019 13:56:52,04 Jun 2019 13:56:52,52,,,,0,13,39,1237.5674,0.0,4923.076,,362,,,0,65536,,
https://s.tremorvideodsp.com/q/video1_small.mp4,COMPLETE,206,https,GET,video/mp4,/127.0.0.1,59719,s.tremorvideodsp.com/23.48.39.121,443,,04 Jun 2019 13:56:52,04 Jun 2019 13:56:52,04 Jun 2019 13:56:52,04 Jun 2019 13:56:52,26,,,,0,5,21,2475.3604,0.0,12800.0,,368,,,0,65536,,
https://s.tremorvideodsp.com/q/video1_small.mp4,COMPLETE,206,https,GET,video/mp4,/127.0.0.1,59721,s.tremorvideodsp.com/23.48.39.121,443,,04 Jun 2019 13:56:52,04 Jun 2019 13:56:52,04 Jun 2019 13:56:52,04 Jun 2019 13:56:53,578,2,7,23,0,524,22,16738.268,0.0,18460.68,986,368,,14959,0,9890599,,
https://s.tremorvideodsp.com/q/video1_small.mp4,COMPLETE,206,https,GET,video/mp4,/127.0.0.1,59719,s.tremorvideodsp.com/23.48.39.121,443,,04 Jun 2019 13:56:52,04 Jun 2019 13:56:52,04 Jun 2019 13:56:52,04 Jun 2019 13:56:52,28,,,,0,6,22,2298.5488,0.0,10666.666,,368,,,0,65536,,
https://prd.jwpltx.com,COMPLETE,200,https,CONNECT,,/127.0.0.1,59723,prd.jwpltx.com/52.70.40.88,443,,04 Jun 2019 13:56:53,,,04 Jun 2019 13:57:23,30213,24,8,34,,,,1.1054688,,,1469,0,887,31731,0,132,,
https://entitlements.jwplayer.com,COMPLETE,200,https,CONNECT,,/127.0.0.1,59725,entitlements.jwplayer.com/72.21.81.189,443,,04 Jun 2019 13:57:29,,,04 Jun 2019 13:58:00,30940,20,15,98,,,,1.1357422,,,1684,0,317,33541,0,464,,
https://s.tremorvideodsp.com/q/video1_small.mp4,COMPLETE,206,https,GET,video/mp4,/127.0.0.1,59727,s.tremorvideodsp.com/23.48.39.121,443,,04 Jun 2019 13:57:29,04 Jun 2019 13:57:29,04 Jun 2019 13:57:29,04 Jun 2019 13:57:29,140,69,8,23,0,0,40,114.86426,0.0,0.0,1058,358,,15049,0,2,,
https://jwpltx.com,COMPLETE,200,https,CONNECT,,/127.0.0.1,59728,jwpltx.com/52.70.40.88,443,,04 Jun 2019 13:57:29,,,04 Jun 2019 13:57:59,30297,6,8,10,,,,0.07421875,,,1075,0,609,515,0,132,,
https://s.tremorvideodsp.com/q/video1_small.mp4,COMPLETE,206,https,GET,video/mp4,/127.0.0.1,59727,s.tremorvideodsp.com/23.48.39.121,443,,04 Jun 2019 13:57:29,04 Jun 2019 13:57:29,04 Jun 2019 13:57:29,04 Jun 2019 13:57:29,40,,,,0,12,28,1608.8379,0.0,5333.333,,362,,,0,65536,,
https://s.tremorvideodsp.com/q/video1_small.mp4,COMPLETE,206,https,GET,video/mp4,/127.0.0.1,59727,s.tremorvideodsp.com/23.48.39.121,443,,04 Jun 2019 13:57:29,04 Jun 2019 13:57:29,04 Jun 2019 13:57:29,04 Jun 2019 13:57:29,35,,,,0,10,25,1838.8389,0.0,6400.0,,368,,,0,65536,,
https://s.tremorvideodsp.com/q/video1_small.mp4,COMPLETE,206,https,GET,video/mp4,/127.0.0.1,59731,s.tremorvideodsp.com/23.48.39.121,443,com.xk72.proxy.ProxyException: Client closed connection before receiving entire response,04 Jun 2019 13:57:29,04 Jun 2019 13:57:29,04 Jun 2019 13:57:29,04 Jun 2019 13:57:29,193,2,8,24,0,132,27,5540.712,0.0,8091.175,986,368,,14959,0,1078709,,
https://s.tremorvideodsp.com/q/video1_small.mp4,COMPLETE,206,https,GET,video/mp4,/127.0.0.1,59727,s.tremorvideodsp.com/23.48.39.121,443,,04 Jun 2019 13:57:29,04 Jun 2019 13:57:29,04 Jun 2019 13:57:29,04 Jun 2019 13:57:29,31,,,,1,4,26,2076.1084,359.375,16000.0,,368,,,0,65536,,
https://play.google.com,RECEIVING_REQUEST_BODY,200,https,CONNECT,,/127.0.0.1,59733,play.google.com/172.217.10.46,443,,04 Jun 2019 13:57:41,,,,32518,1,2,,,,,0.0146484375,,,517,0,0,,0,0,,
