URL,Status,Response Code,Protocol,Method,Content-Type,Client Address,Client Port,Remote Address,Remote Port,Exception,Request Start Time,Request End Time,Response Start Time,Response End Time,Duration (ms),DNS Duration (ms),Connect Duration (ms),SSL Duration (ms),Request Duration (ms),Response Duration (ms),Latency (ms),Speed (KB/s),Request Speed (KB/s),Response Speed (KB/s),Request Handshake Size (bytes),Request Header Size (bytes),Request Body Size (bytes),Response Handshake Size (bytes),Response Header Size (bytes),Response Body Size (bytes),Request Compression,Response Compression
https://ts01-b.cloudsink.net,RECEIVING_REQUEST_BODY,200,https,CONNECT,,/127.0.0.1,56951,ts01-b.cloudsink.net/54.67.92.206,443,,04 Jun 2019 11:02:57,,,,3212026,18,72,333,,,,0.08691406,,,1246,0,219663,17474,0,49362,,
https://14.client-channel.google.com,RECEIVING_RESPONSE_BODY,200,https,CONNECT,,/127.0.0.1,56973,14.client-channel.google.com/74.125.192.189,443,,04 Jun 2019 11:16:48,,,,2380609,21,17,41,,,,0.015625,,,1179,0,10590,16009,0,11833,,
https://ssl.gstatic.com,RECEIVING_REQUEST_BODY,200,https,CONNECT,,/127.0.0.1,57313,ssl.gstatic.com/172.217.12.195,443,,04 Jun 2019 11:47:07,,,,562293,2,2,3,,,,0.0068359375,,,1608,0,1013,372,0,1262,,
https://play.google.com,RECEIVING_REQUEST_BODY,200,https,CONNECT,,/127.0.0.1,57322,play.google.com/172.217.10.46,443,,04 Jun 2019 11:48:44,,,,465224,1,2,3,,,,0.021484375,,,1608,0,5641,372,0,2890,,
https://www.google-analytics.com,COMPLETE,200,https,CONNECT,,/127.0.0.1,57477,www.google-analytics.com/172.217.6.206,443,,04 Jun 2019 11:52:18,,,04 Jun 2019 11:56:18,240048,26,3,4,,,,0.015625,,,2207,0,755,372,0,,,
https://stats.g.doubleclick.net,COMPLETE,200,https,CONNECT,,/127.0.0.1,57479,stats.g.doubleclick.net/173.194.206.157,443,,04 Jun 2019 11:52:18,,,04 Jun 2019 11:56:18,239884,56,17,45,,,,0.07421875,,,2892,0,617,14305,0,,,
https://www.google.com,COMPLETE,200,https,CONNECT,,/127.0.0.1,57481,www.google.com/172.217.10.68,443,,04 Jun 2019 11:52:18,,,04 Jun 2019 11:56:18,239730,2,3,37,,,,0.07128906,,,2892,0,817,13245,0,,,
https://entitlements.jwplayer.com,COMPLETE,200,https,CONNECT,,/127.0.0.1,57499,entitlements.jwplayer.com/72.21.81.189,443,,04 Jun 2019 11:54:58,,,04 Jun 2019 11:55:28,30159,2,2,56,,,,1.1650391,,,1684,0,317,33541,0,464,,
https://s.tremorvideodsp.com/q/video1_small.mp4,COMPLETE,206,https,GET,video/mp4,/127.0.0.1,57501,s.tremorvideodsp.com/23.48.39.121,443,,04 Jun 2019 11:54:58,04 Jun 2019 11:54:58,04 Jun 2019 11:54:58,04 Jun 2019 11:54:58,101,27,11,23,0,1,39,159.21777,0.0,14698.242,1058,358,,15049,0,2,,
https://jwpltx.com,COMPLETE,200,https,CONNECT,,/127.0.0.1,57502,jwpltx.com/34.192.3.61,443,,04 Jun 2019 11:54:58,,,04 Jun 2019 11:55:39,41079,5,10,44,,,,0.82714844,,,1609,0,1203,31731,0,264,,
https://s.tremorvideodsp.com/q/video1_small.mp4,COMPLETE,206,https,GET,video/mp4,/127.0.0.1,57501,s.tremorvideodsp.com/23.48.39.121,443,,04 Jun 2019 11:54:58,04 Jun 2019 11:54:58,04 Jun 2019 11:54:58,04 Jun 2019 11:54:58,51,,,,0,11,40,1261.833,0.0,5818.1816,,362,,,0,65536,,
https://s.tremorvideodsp.com/q/video1_small.mp4,COMPLETE,206,https,GET,video/mp4,/127.0.0.1,57501,s.tremorvideodsp.com/23.48.39.121,443,,04 Jun 2019 11:54:58,04 Jun 2019 11:54:58,04 Jun 2019 11:54:58,04 Jun 2019 11:54:58,27,,,,0,6,21,2383.6797,0.0,10666.666,,368,,,0,65536,,
https://s.tremorvideodsp.com/q/video1_small.mp4,COMPLETE,206,https,GET,video/mp4,/127.0.0.1,57505,s.tremorvideodsp.com/23.48.39.121,443,,04 Jun 2019 11:54:58,04 Jun 2019 11:54:58,04 Jun 2019 11:54:58,04 Jun 2019 11:54:59,556,2,9,21,0,491,33,17400.574,0.0,19701.418,986,368,,14959,0,9890599,,
https://s.tremorvideodsp.com/q/video1_small.mp4,COMPLETE,206,https,GET,video/mp4,/127.0.0.1,57501,s.tremorvideodsp.com/23.48.39.121,443,,04 Jun 2019 11:54:58,04 Jun 2019 11:54:58,04 Jun 2019 11:54:58,04 Jun 2019 11:54:58,70,,,,0,4,66,919.41895,0.0,16000.0,,368,,,0,65536,,
https://play.google.com,RECEIVED_RESPONSE_HEADER,200,https,CONNECT,,/127.0.0.1,57509,play.google.com/172.217.10.46,443,,04 Jun 2019 11:55:02,,,,87465,2,2,,,,,0.0048828125,,,517,0,0,,0,0,,
https://adserver.videohub.tv/preview?RI=wZCiR_qaHFIdYaE-lVwTjA&screenType=mobiletablet&rml=true&Uctry=__country__&Ust=__state__&Udma=__dma__&Uzip=__postalCode__&Ucty=__city__&Uctnt=__continent__&Ulong=__longitude__&Ulat=__latitude__&Uacd=__areaCode__&position_ACP=__adChoicesPosition__&usedACP=__usedACP__&dspACP=__adChoicesProviders__&sig=D4453DD86D425E879BC87A579B906D68&dmps=y&ssRmlApp=1&isApp=y,COMPLETE,200,https,GET,application/xml; charset=utf-8,/127.0.0.1,57513,adserver.videohub.tv/67.226.210.8,443,,04 Jun 2019 11:55:07,04 Jun 2019 11:55:07,04 Jun 2019 11:55:07,04 Jun 2019 11:55:07,75,5,11,33,1,11,14,524.66113,1673.8281,3425.0703,1046,668,,25605,0,12975,,
https://objects-secure.videohub.tv/net/js/rml-app.min.js?adData=https%3A%2F%2Fs.tremorvideodsp.com%2Fq%2FVAST_3%2Fmp4_vast3_two_id.xml,COMPLETE,200,https,GET,application/javascript,/127.0.0.1,57515,objects-secure.videohub.tv/104.110.215.249,443,,04 Jun 2019 11:55:07,04 Jun 2019 11:55:07,04 Jun 2019 11:55:07,04 Jun 2019 11:55:07,107,61,8,20,0,10,8,740.52637,0.0,7779.6875,1070,404,,16754,0,62910,,72.6%
https://s.tremorvideodsp.com/q/VAST_3/mp4_vast3_two_id.xml,COMPLETE,200,https,GET,text/xml,/127.0.0.1,57517,s.tremorvideodsp.com/23.48.39.121,443,,04 Jun 2019 11:55:07,04 Jun 2019 11:55:08,04 Jun 2019 11:55:08,04 Jun 2019 11:55:08,88,2,8,22,0,0,56,186.47852,0.0,0.0,1046,328,,15049,0,381,,72.6%
https://tremorvideo.jamfcloud.com,COMPLETE,200,https,CONNECT,,/127.0.0.1,57519,tremorvideo.jamfcloud.com/52.20.191.66,443,,04 Jun 2019 11:55:08,,,04 Jun 2019 11:55:08,174,54,9,32,,,,169.3711,,,1182,0,1839,26155,0,1002,,
https://s.tremorvideodsp.com/q/video1_small.mp4,COMPLETE,206,https,GET,video/mp4,/127.0.0.1,57521,s.tremorvideodsp.com/23.48.39.121,443,,04 Jun 2019 11:55:08,04 Jun 2019 11:55:08,04 Jun 2019 11:55:08,04 Jun 2019 11:55:08,52,2,8,22,0,0,20,309.25098,0.0,0.0,1058,358,,15049,0,2,,
https://s.tremorvideodsp.com/q/video1_small.mp4,COMPLETE,206,https,GET,video/mp4,/127.0.0.1,57521,s.tremorvideodsp.com/23.48.39.121,443,,04 Jun 2019 11:55:08,04 Jun 2019 11:55:08,04 Jun 2019 11:55:08,04 Jun 2019 11:55:08,31,,,,0,11,20,2075.919,0.0,5818.1816,,362,,,0,65536,,
https://s.tremorvideodsp.com/q/video1_small.mp4,COMPLETE,206,https,GET,video/mp4,/127.0.0.1,57521,s.tremorvideodsp.com/23.48.39.121,443,,04 Jun 2019 11:55:08,04 Jun 2019 11:55:08,04 Jun 2019 11:55:08,04 Jun 2019 11:55:08,24,,,,0,5,19,2681.6406,0.0,12800.0,,368,,,0,65536,,
https://s.tremorvideodsp.com/q/video1_small.mp4,COMPLETE,206,https,GET,video/mp4,/127.0.0.1,57523,s.tremorvideodsp.com/23.48.39.121,443,,04 Jun 2019 11:55:08,04 Jun 2019 11:55:08,04 Jun 2019 11:55:08,04 Jun 2019 11:55:08,603,2,9,24,0,547,21,16044.31,0.0,17684.453,986,368,,14959,0,9890599,,
https://s.tremorvideodsp.com/q/video1_small.mp4,COMPLETE,206,https,GET,video/mp4,/127.0.0.1,57521,s.tremorvideodsp.com/23.48.39.121,443,,04 Jun 2019 11:55:08,04 Jun 2019 11:55:08,04 Jun 2019 11:55:08,04 Jun 2019 11:55:08,26,,,,0,4,22,2475.3604,0.0,16000.0,,368,,,0,65536,,
https://prd.jwpltx.com,COMPLETE,200,https,CONNECT,,/127.0.0.1,57525,prd.jwpltx.com/151.101.250.217,443,,04 Jun 2019 11:55:08,,,04 Jun 2019 11:55:39,30915,58,9,37,,,,1.5654297,,,1337,0,886,47116,0,236,,
https://mail.google.com,RECEIVING_REQUEST_BODY,200,https,CONNECT,,/127.0.0.1,57527,mail.google.com/172.217.10.37,443,,04 Jun 2019 11:55:34,,,,55466,3,2,,,,,0.0087890625,,,517,0,0,,0,0,,
https://entitlements.jwplayer.com,COMPLETE,200,https,CONNECT,,/127.0.0.1,57529,entitlements.jwplayer.com/72.21.81.189,443,,04 Jun 2019 11:55:44,,,04 Jun 2019 11:56:15,30908,2,2,88,,,,1.1367188,,,1684,0,317,33541,0,464,,
https://s.tremorvideodsp.com/q/video1_small.mp4,COMPLETE,206,https,GET,video/mp4,/127.0.0.1,57531,s.tremorvideodsp.com/23.48.39.112,443,,04 Jun 2019 11:55:44,04 Jun 2019 11:55:44,04 Jun 2019 11:55:44,04 Jun 2019 11:55:44,119,54,8,22,0,1,34,135.13477,0.0,14698.242,1058,358,,15049,0,2,,
https://jwpltx.com,COMPLETE,200,https,CONNECT,,/127.0.0.1,57532,jwpltx.com/54.174.103.247,443,,04 Jun 2019 11:55:44,,,04 Jun 2019 11:56:14,30208,6,9,38,,,,1.1015625,,,1609,0,609,31731,0,132,,
https://s.tremorvideodsp.com/q/video1_small.mp4,COMPLETE,206,https,GET,video/mp4,/127.0.0.1,57531,s.tremorvideodsp.com/23.48.39.112,443,,04 Jun 2019 11:55:44,04 Jun 2019 11:55:44,04 Jun 2019 11:55:44,04 Jun 2019 11:55:44,38,,,,0,12,26,1693.5127,0.0,5333.333,,362,,,0,65536,,
https://s.tremorvideodsp.com/q/video1_small.mp4,COMPLETE,206,https,GET,video/mp4,/127.0.0.1,57531,s.tremorvideodsp.com/23.48.39.112,443,,04 Jun 2019 11:55:44,04 Jun 2019 11:55:44,04 Jun 2019 11:55:44,04 Jun 2019 11:55:44,31,,,,0,8,23,2076.1084,0.0,8000.0,,368,,,0,65536,,
https://s.tremorvideodsp.com/q/video1_small.mp4,COMPLETE,206,https,GET,video/mp4,/127.0.0.1,57535,s.tremorvideodsp.com/23.48.39.112,443,com.xk72.proxy.ProxyException: Client closed connection before receiving entire response,04 Jun 2019 11:55:44,04 Jun 2019 11:55:44,04 Jun 2019 11:55:44,04 Jun 2019 11:55:45,184,2,8,25,0,129,20,6698.0186,0.0,9543.514,986,368,,14959,0,1245701,,
https://s.tremorvideodsp.com/q/video1_small.mp4,COMPLETE,206,https,GET,video/mp4,/127.0.0.1,57531,s.tremorvideodsp.com/23.48.39.112,443,,04 Jun 2019 11:55:44,04 Jun 2019 11:55:44,04 Jun 2019 11:55:44,04 Jun 2019 11:55:44,28,,,,0,4,24,2298.5488,0.0,16000.0,,368,,,0,65536,,
https://valid.apple.com,EXCEPTION,200,https,CONNECT,,/127.0.0.1,57537,valid.apple.com/208.185.118.89,443,java.net.SocketException: Broken pipe (Write failed),04 Jun 2019 11:55:54,,,04 Jun 2019 11:55:54,163,56,10,47,,,,1669.5615,,,3024,0,204,38556,0,236886,,
https://people-pa.clients6.google.com,RECEIVING_REQUEST_BODY,200,https,CONNECT,,/127.0.0.1,57539,people-pa.clients6.google.com/172.217.10.10,443,,04 Jun 2019 11:56:10,,,,19111,2,2,,,,,0.026367188,,,517,0,0,,0,0,,
https://people-pa.clients6.google.com,RECEIVED_RESPONSE_HEADER,200,https,CONNECT,,/127.0.0.1,57541,people-pa.clients6.google.com/172.217.10.10,443,,04 Jun 2019 11:56:10,,,,19063,1,2,,,,,0.026367188,,,517,0,0,,0,0,,
