URL,Status,Response Code,Protocol,Method,Content-Type,Client Address,Client Port,Remote Address,Remote Port,Exception,Request Start Time,Request End Time,Response Start Time,Response End Time,Duration (ms),DNS Duration (ms),Connect Duration (ms),SSL Duration (ms),Request Duration (ms),Response Duration (ms),Latency (ms),Speed (KB/s),Request Speed (KB/s),Response Speed (KB/s),Request Handshake Size (bytes),Request Header Size (bytes),Request Body Size (bytes),Response Handshake Size (bytes),Response Header Size (bytes),Response Body Size (bytes),Request Compression,Response Compression
https://14.client-channel.google.com,RECEIVING_RESPONSE_BODY,200,https,CONNECT,,/127.0.0.1,50798,14.client-channel.google.com/74.125.192.189,443,,03 Jun 2019 14:27:42,,,,790025,38,33,34,,,,0.013671875,,,1608,0,3896,372,0,5855,,
https://ts01-b.cloudsink.net,RECEIVING_REQUEST_BODY,200,https,CONNECT,,/127.0.0.1,51057,ts01-b.cloudsink.net/54.193.67.98,443,,03 Jun 2019 14:29:35,,,,676701,36,72,174,,,,0.08984375,,,1246,0,37328,17474,0,6722,,
https://ssl.gstatic.com,RECEIVING_REQUEST_BODY,200,https,CONNECT,,/127.0.0.1,51061,ssl.gstatic.com/172.217.12.195,443,,03 Jun 2019 14:29:47,,,,664486,36,5,3,,,,0.005859375,,,1608,0,1150,372,0,1508,,
https://ssl.p.jwpcdn.com,COMPLETE,200,https,CONNECT,,/127.0.0.1,51400,ssl.p.jwpcdn.com/72.21.81.48,443,,03 Jun 2019 14:38:36,,,03 Jun 2019 14:39:06,30103,38,1,24,,,,1.9775391,,,1479,0,303,34395,0,24787,,
https://entitlements.jwplayer.com,COMPLETE,200,https,CONNECT,,/127.0.0.1,51402,entitlements.jwplayer.com/72.21.81.189,443,,03 Jun 2019 14:38:36,,,03 Jun 2019 14:39:07,30734,2,2,59,,,,1.1435547,,,1684,0,317,33541,0,464,,
https://s.tremorvideodsp.com/q/video1_small.mp4,COMPLETE,206,https,GET,video/mp4,/127.0.0.1,51404,s.tremorvideodsp.com/23.48.39.112,443,,03 Jun 2019 14:38:36,03 Jun 2019 14:38:36,03 Jun 2019 14:38:36,03 Jun 2019 14:38:36,130,69,9,24,0,1,27,123.700195,0.0,14698.242,1058,358,,15049,0,2,,
https://jwpltx.com,COMPLETE,200,https,CONNECT,,/127.0.0.1,51405,jwpltx.com/54.174.103.247,443,,03 Jun 2019 14:38:36,,,03 Jun 2019 14:39:06,30255,41,9,36,,,,1.0996094,,,1609,0,608,31731,0,132,,
https://s.tremorvideodsp.com/q/video1_small.mp4,COMPLETE,206,https,GET,video/mp4,/127.0.0.1,51404,s.tremorvideodsp.com/23.48.39.112,443,,03 Jun 2019 14:38:36,03 Jun 2019 14:38:36,03 Jun 2019 14:38:36,03 Jun 2019 14:38:36,40,,,,0,12,28,1608.8379,0.0,5333.333,,362,,,0,65536,,
https://s.tremorvideodsp.com/q/video1_small.mp4,COMPLETE,206,https,GET,video/mp4,/127.0.0.1,51404,s.tremorvideodsp.com/23.48.39.112,443,,03 Jun 2019 14:38:36,03 Jun 2019 14:38:36,03 Jun 2019 14:38:36,03 Jun 2019 14:38:36,31,,,,0,7,24,2076.1084,0.0,9142.856,,368,,,0,65536,,
https://s.tremorvideodsp.com/q/video1_small.mp4,COMPLETE,206,https,GET,video/mp4,/127.0.0.1,51408,s.tremorvideodsp.com/23.48.39.112,443,,03 Jun 2019 14:38:36,03 Jun 2019 14:38:36,03 Jun 2019 14:38:36,03 Jun 2019 14:38:37,510,2,9,22,0,452,25,18970.035,0.0,21401.32,986,368,,14959,0,9890599,,
https://s.tremorvideodsp.com/q/video1_small.mp4,COMPLETE,206,https,GET,video/mp4,/127.0.0.1,51404,s.tremorvideodsp.com/23.48.39.112,443,,03 Jun 2019 14:38:36,03 Jun 2019 14:38:36,03 Jun 2019 14:38:36,03 Jun 2019 14:38:36,30,,,,0,4,26,2145.3125,0.0,16000.0,,368,,,0,65536,,
https://adserver.videohub.tv/preview?RI=h_AcAeyFREpDRXBay8d1aQ&screenType=mobiletablet&rml=true&Uctry=__country__&Ust=__state__&Udma=__dma__&Uzip=__postalCode__&Ucty=__city__&Uctnt=__continent__&Ulong=__longitude__&Ulat=__latitude__&Uacd=__areaCode__&position_ACP=__adChoicesPosition__&usedACP=__usedACP__&dspACP=__adChoicesProviders__&sig=2446D8A455EC81CE2B372F2D2FAD9745&dmps=y&ssRmlApp=1&isApp=y,COMPLETE,200,https,GET,application/xml; charset=utf-8,/127.0.0.1,51410,adserver.videohub.tv/67.226.210.8,443,,03 Jun 2019 14:38:45,03 Jun 2019 14:38:45,03 Jun 2019 14:38:45,03 Jun 2019 14:38:45,68,1,11,31,1,11,13,578.4404,1673.8281,3423.6504,1046,668,,25605,0,12959,,
https://objects-secure.videohub.tv/net/js/rml-app.min.js?adData=https%3A%2F%2Fs.tremorvideodsp.com%2Fq%2Fmp4_60sec.xml,COMPLETE,200,https,GET,application/javascript,/127.0.0.1,51412,objects-secure.videohub.tv/104.110.215.249,443,,03 Jun 2019 14:38:45,03 Jun 2019 14:38:45,03 Jun 2019 14:38:45,03 Jun 2019 14:38:45,114,61,9,23,0,13,8,694.91797,0.0,5984.375,1070,388,,16754,0,62910,,72.6%
https://play.google.com,RECEIVING_REQUEST_BODY,200,https,CONNECT,,/127.0.0.1,51414,play.google.com/172.217.10.46,443,,03 Jun 2019 14:38:45,,,,126551,1,2,,,,,0.00390625,,,517,0,0,,0,0,,
https://s.tremorvideodsp.com/q/mp4_60sec.xml,COMPLETE,200,https,GET,application/xml,/127.0.0.1,51416,s.tremorvideodsp.com/23.48.39.112,443,,03 Jun 2019 14:38:45,03 Jun 2019 14:38:46,03 Jun 2019 14:38:46,03 Jun 2019 14:38:46,131,2,8,25,0,0,96,127.64551,0.0,0.0,1046,314,,15049,0,714,,
https://objects-secure.tremormedia.com/net/js/io-polyfill-0.5.1.js,COMPLETE,200,https,GET,application/javascript,/127.0.0.1,51418,objects-secure.tremormedia.com/104.110.194.47,443,,03 Jun 2019 14:38:46,03 Jun 2019 14:38:46,03 Jun 2019 14:38:46,03 Jun 2019 14:38:46,131,91,8,23,0,1,8,183.16113,0.0,22605.469,1086,336,,16789,0,6359,,71.5%
https://s.tremorvideodsp.com/q/mp4_60sec.mp4,COMPLETE,206,https,GET,video/mp4,/127.0.0.1,51416,s.tremorvideodsp.com/23.48.39.112,443,,03 Jun 2019 14:38:46,03 Jun 2019 14:38:46,03 Jun 2019 14:38:46,03 Jun 2019 14:38:46,105,,,,0,0,105,3.5898438,0.0,0.0,,384,,,0,2,,
https://s.tremorvideodsp.com/q/mp4_60sec.mp4,COMPLETE,206,https,GET,video/mp4,/127.0.0.1,51416,s.tremorvideodsp.com/23.48.39.112,443,,03 Jun 2019 14:38:46,03 Jun 2019 14:38:46,03 Jun 2019 14:38:46,03 Jun 2019 14:38:46,102,,,,0,13,89,631.16504,0.0,4923.076,,388,,,0,65536,,
https://s.tremorvideodsp.com/q/mp4_60sec.mp4,COMPLETE,206,https,GET,video/mp4,/127.0.0.1,51416,s.tremorvideodsp.com/23.48.39.112,443,,03 Jun 2019 14:38:46,03 Jun 2019 14:38:46,03 Jun 2019 14:38:46,03 Jun 2019 14:38:46,99,,,,0,7,92,650.3408,0.0,9142.856,,393,,,0,65536,,
https://s.tremorvideodsp.com/q/mp4_60sec.mp4,COMPLETE,206,https,GET,video/mp4,/127.0.0.1,51416,s.tremorvideodsp.com/23.48.39.112,443,,03 Jun 2019 14:38:46,03 Jun 2019 14:38:46,03 Jun 2019 14:38:46,03 Jun 2019 14:38:49,2481,,,,0,2457,24,12507.827,0.0,12629.846,,396,,,0,31776290,,
https://s.tremorvideodsp.com/q/mp4_60sec.mp4,COMPLETE,206,https,GET,video/mp4,/127.0.0.1,51420,s.tremorvideodsp.com/23.48.39.112,443,com.xk72.proxy.ProxyException: Client closed connection before receiving entire response,03 Jun 2019 14:38:46,03 Jun 2019 14:38:46,03 Jun 2019 14:38:46,03 Jun 2019 14:38:46,94,5,9,26,0,10,44,595.02734,0.0,5458.496,986,394,,14959,0,40936,,
https://s.tremorvideodsp.com/q/mp4_60sec.mp4,COMPLETE,206,https,GET,video/mp4,/127.0.0.1,51422,s.tremorvideodsp.com/23.48.39.112,443,,03 Jun 2019 14:38:46,03 Jun 2019 14:38:46,03 Jun 2019 14:38:46,03 Jun 2019 14:38:46,111,2,13,35,0,18,43,720.3242,0.0,4367.133,986,394,,14959,0,65536,,
https://prd.jwpltx.com,COMPLETE,200,https,CONNECT,,/127.0.0.1,51424,prd.jwpltx.com/34.200.179.210,443,,03 Jun 2019 14:38:47,,,03 Jun 2019 14:39:34,47670,69,10,114,,,,0.7480469,,,1629,0,2760,31731,0,396,,
https://dt-secure.videohub.tv/v1/usync/ironsource?userId=,COMPLETE,303,https,GET,image/gif,/127.0.0.1,51425,dt-secure.videohub.tv/67.226.210.14,443,,03 Jun 2019 14:38:47,03 Jun 2019 14:38:47,03 Jun 2019 14:38:47,03 Jun 2019 14:38:47,58,2,9,35,2,0,10,460.44922,700.6836,0.0,1050,385,,25869,0,43,,
https://sync.doubleverify.com/query.gif?ctx=42674&cmp=2311460&DVP_CMPID=&DVP_PUBID=&dvp_red=http%3A%2F%2Fads.videohub.tv%2Fssframework%2Fdt%2Fbotid%3Fa%3Dset%26DUID%3D1,COMPLETE,200,https,GET,image/gif,/127.0.0.1,51427,sync.doubleverify.com/204.154.111.224,443,,03 Jun 2019 14:38:47,03 Jun 2019 14:38:47,03 Jun 2019 14:38:47,03 Jun 2019 14:38:47,15,1,4,3,0,1,6,158.20312,0.0,1176.7578,729,496,,345,0,860,,-6.6%
https://tps30.doubleverify.com/visit.jpg?ctx=42674&cmp=2256325&sid=1111&plc=22563261&num=&adid=&advid=498259&adsrv=41&region=30&btreg=&btadsrv=&crt=&crtname=&chnl=&unit=&pid=&uid=&dvtagver=6.1.img&DVP_CMPID=&DVP_PUBID=&turl=tremorvideodsp.com,COMPLETE,200,https,GET,image/jpeg,/127.0.0.1,51429,tps30.doubleverify.com/204.154.111.114,443,,03 Jun 2019 14:38:47,03 Jun 2019 14:38:47,03 Jun 2019 14:38:47,03 Jun 2019 14:38:47,410,368,3,17,1,1,20,62.14746,1710.9375,23769.531,1182,570,,24198,0,142,,53.4%
https://tags.bluekai.com/site/2954,COMPLETE,200,https,GET,image/gif,/127.0.0.1,51430,tags.bluekai.com/96.7.23.53,443,,03 Jun 2019 14:38:47,03 Jun 2019 14:38:47,03 Jun 2019 14:38:47,03 Jun 2019 14:38:47,238,94,12,35,0,0,97,62.64746,0.0,0.0,1030,362,,13814,0,62,,
https://s.tremorvideodsp.com/q/qa.gif?param1=screen_impression,COMPLETE,200,https,GET,image/gif,/127.0.0.1,51422,s.tremorvideodsp.com/23.48.39.112,443,,03 Jun 2019 14:38:47,03 Jun 2019 14:38:47,03 Jun 2019 14:38:47,03 Jun 2019 14:38:47,24,,,,0,1,23,17.618164,0.0,41.992188,,390,,,0,43,,
https://s.tremorvideodsp.com/q/qa.gif?param1=creative_impression,COMPLETE,200,https,GET,image/gif,/127.0.0.1,51432,s.tremorvideodsp.com/23.48.39.112,443,,03 Jun 2019 14:38:47,03 Jun 2019 14:38:47,03 Jun 2019 14:38:47,03 Jun 2019 14:38:47,180,4,12,29,1,0,134,88.86719,1345.7031,0.0,986,392,,14959,0,43,,
https://l0-secure.videohub.tv/ssframework/log/log.png?EC=3&a=logitemaction&nolog=1&ssPD=tremorvideodsp.com&Uzip=__postalCode__&ADI=7879076&PRI=3133c2d4-85af-4ba8-9ce9-b96ea0611765&Udma=__dma__&ssMLVer=rml_app_1.9.0&Uctry=__country__&AVI=425726&ssASVer=2.0&RI=1&Ust=__state__&NI=1344&admode=preroll&ssDsC=mobiletablet&ssRnd=1639295027&SfF=true&AmN=1&adFocus=true&RvN=1,COMPLETE,200,https,GET,image/gif,/127.0.0.1,51433,l0-secure.videohub.tv/67.226.210.14,443,,03 Jun 2019 14:38:47,03 Jun 2019 14:38:47,03 Jun 2019 14:38:47,03 Jun 2019 14:38:47,62,2,13,34,0,0,13,435.625,0.0,0.0,1050,695,,25869,0,43,,
https://tp.videohub.tv/v1/topprop.png?domain=&ui=&pri=3133c2d4-85af-4ba8-9ce9-b96ea0611765&ssRnd=2072767312,COMPLETE,200,https,GET,image/png,/127.0.0.1,51431,tp.videohub.tv/67.226.210.15,443,,03 Jun 2019 14:38:47,03 Jun 2019 14:38:47,03 Jun 2019 14:38:47,03 Jun 2019 14:38:47,97,36,10,35,0,0,16,275.54102,0.0,0.0,1022,435,,25869,0,43,,
https://sync.doubleverify.com/query.gif?ctx=42674&cmp=2256325&DVP_CMPID=&DVP_PUBID=&dvp_red=http%3A%2F%2Fapp.scanscout.com%2Fssframework%2Fdt%2Fbotid%3Fa%3Dset%26DUID%3D1,COMPLETE,200,https,GET,image/gif,/127.0.0.1,51438,sync.doubleverify.com/204.154.111.224,443,,03 Jun 2019 14:38:47,03 Jun 2019 14:38:47,03 Jun 2019 14:38:47,03 Jun 2019 14:38:47,15,1,3,5,0,0,6,155.40332,0.0,0.0,684,498,,345,0,860,,-6.6%
https://dt-secure.videohub.tv/v1/usync/bs?userId=,COMPLETE,303,https,GET,image/gif,/127.0.0.1,51441,dt-secure.videohub.tv/67.226.210.14,443,,03 Jun 2019 14:38:47,03 Jun 2019 14:38:47,03 Jun 2019 14:38:47,03 Jun 2019 14:38:47,75,1,10,44,0,0,20,355.1953,0.0,0.0,990,377,,25869,0,43,,
https://dt-secure.videohub.tv/v1/usync/rubicon?userId=,COMPLETE,303,https,GET,image/gif,/127.0.0.1,51444,dt-secure.videohub.tv/67.226.210.14,443,,03 Jun 2019 14:38:47,03 Jun 2019 14:38:47,03 Jun 2019 14:38:47,03 Jun 2019 14:38:47,80,1,9,56,0,1,13,333.05664,0.0,25304.688,990,382,,25869,0,43,,
https://dt-secure.videohub.tv/v1/usync/lkqd_direct?userId=,COMPLETE,303,https,GET,image/gif,/127.0.0.1,51442,dt-secure.videohub.tv/67.226.210.14,443,,03 Jun 2019 14:38:47,03 Jun 2019 14:38:47,03 Jun 2019 14:38:47,03 Jun 2019 14:38:47,60,2,9,39,0,1,9,444.14062,0.0,25304.688,990,386,,25869,0,43,,
https://dt-secure.videohub.tv/v1/usync/pubmatic?userId=,COMPLETE,303,https,GET,image/gif,/127.0.0.1,51443,dt-secure.videohub.tv/67.226.210.14,443,,03 Jun 2019 14:38:47,03 Jun 2019 14:38:47,03 Jun 2019 14:38:47,03 Jun 2019 14:38:47,74,1,11,45,0,7,10,360.07422,0.0,3614.955,990,383,,25869,0,43,,
https://dt-secure.videohub.tv/v1/usync/springserve?userId=,COMPLETE,303,https,GET,image/gif,/127.0.0.1,51445,dt-secure.videohub.tv/67.226.210.14,443,,03 Jun 2019 14:38:47,03 Jun 2019 14:38:47,03 Jun 2019 14:38:47,03 Jun 2019 14:38:47,75,2,10,45,0,0,18,355.3125,0.0,0.0,990,386,,25869,0,43,,
https://dt-secure.videohub.tv/v1/usync/spx?userId=,COMPLETE,303,https,GET,image/gif,/127.0.0.1,51425,dt-secure.videohub.tv/67.226.210.14,443,,03 Jun 2019 14:38:47,03 Jun 2019 14:38:47,03 Jun 2019 14:38:47,03 Jun 2019 14:38:47,20,,,,0,0,20,20.55664,0.0,0.0,,378,,,0,43,,
https://cs.rtb-seller.com,COMPLETE,200,https,CONNECT,,/127.0.0.1,51451,cs.rtb-seller.com/52.200.27.187,443,,03 Jun 2019 14:38:47,,,03 Jun 2019 14:39:18,30869,5,10,142,,,,1.0615234,,,1484,0,388,31539,0,170,,
https://dt-secure.videohub.tv/v1/usync/rhythmone?userId=,COMPLETE,303,https,GET,image/gif,/127.0.0.1,51425,dt-secure.videohub.tv/67.226.210.14,443,,03 Jun 2019 14:38:47,03 Jun 2019 14:38:47,03 Jun 2019 14:38:47,03 Jun 2019 14:38:47,14,,,,0,0,14,29.785156,0.0,0.0,,384,,,0,43,,
https://sync.search.spotxchange.com,COMPLETE,200,https,CONNECT,,/127.0.0.1,51453,sync.search.spotxchange.com/192.35.249.120,443,,03 Jun 2019 14:38:47,,,03 Jun 2019 14:39:18,30783,6,11,178,,,,0.6357422,,,1534,0,886,16383,0,1260,,
https://l0-secure.videohub.tv/ssframework/log/log.png?EC=7&a=logitemaction&nolog=1&ssPD=tremorvideodsp.com&Uzip=__postalCode__&ADI=7879076&PRI=3133c2d4-85af-4ba8-9ce9-b96ea0611765&Udma=__dma__&ssMLVer=rml_app_1.9.0&Uctry=__country__&AVI=425726&ssASVer=2.0&RI=1&Ust=__state__&NI=1344&admode=preroll&ssDsC=mobiletablet&ssRnd=1318061483&Eipct=0&EvaF=1&EiN=1,COMPLETE,200,https,GET,image/gif,/127.0.0.1,51454,l0-secure.videohub.tv/67.226.210.14,443,,03 Jun 2019 14:38:47,03 Jun 2019 14:38:47,03 Jun 2019 14:38:47,03 Jun 2019 14:38:47,64,2,10,37,0,0,15,420.89844,0.0,0.0,990,682,,25869,0,43,,
https://dt-secure.videohub.tv/v1/usync/tr?userId=,COMPLETE,303,https,GET,image/gif,/127.0.0.1,51425,dt-secure.videohub.tv/67.226.210.14,443,,03 Jun 2019 14:38:47,03 Jun 2019 14:38:47,03 Jun 2019 14:38:47,03 Jun 2019 14:38:47,11,,,,0,1,10,37.286133,0.0,41.992188,,377,,,0,43,,
https://dt-secure.videohub.tv/ssframework/tvuid?a=set&UI=,COMPLETE,400,https,GET,image/gif,/127.0.0.1,51444,dt-secure.videohub.tv/67.226.210.14,443,,03 Jun 2019 14:38:47,03 Jun 2019 14:38:47,03 Jun 2019 14:38:47,03 Jun 2019 14:38:47,10,,,,0,1,9,41.796875,0.0,41.992188,,385,,,0,43,,
https://sync.1rx.io,COMPLETE,200,https,CONNECT,,/127.0.0.1,51457,sync.1rx.io/8.41.222.152,443,,03 Jun 2019 14:38:47,,,03 Jun 2019 14:39:18,30806,4,2,228,,,,0.87890625,,,1094,0,796,24907,0,936,,
https://dt-secure.videohub.tv/v1/usync/ex?userId=,COMPLETE,303,https,GET,image/gif,/127.0.0.1,51442,dt-secure.videohub.tv/67.226.210.14,443,,03 Jun 2019 14:38:47,03 Jun 2019 14:38:47,03 Jun 2019 14:38:47,03 Jun 2019 14:38:47,22,,,,0,0,22,18.642578,0.0,0.0,,377,,,0,43,,
https://dt-secure.videohub.tv/v1/usync/lo?userId=,COMPLETE,303,https,GET,image/gif,/127.0.0.1,51425,dt-secure.videohub.tv/67.226.210.14,443,,03 Jun 2019 14:38:47,03 Jun 2019 14:38:47,03 Jun 2019 14:38:47,03 Jun 2019 14:38:47,19,,,,0,1,18,21.586914,0.0,41.992188,,377,,,0,43,,
https://pixel.rubiconproject.com,COMPLETE,200,https,CONNECT,,/127.0.0.1,51459,pixel.rubiconproject.com/8.43.72.97,443,,03 Jun 2019 14:38:47,,,03 Jun 2019 14:39:19,31836,246,12,328,,,,0.6230469,,,1589,0,890,16516,0,1322,,
https://dt-secure.videohub.tv/v1/usync/ds?userId=,COMPLETE,303,https,GET,image/gif,/127.0.0.1,51441,dt-secure.videohub.tv/67.226.210.14,443,,03 Jun 2019 14:38:47,03 Jun 2019 14:38:47,03 Jun 2019 14:38:47,03 Jun 2019 14:38:47,11,,,,0,0,11,37.286133,0.0,0.0,,377,,,0,43,,
https://dt-secure.videohub.tv/v1/usync/dd?userId=,COMPLETE,303,https,GET,image/gif,/127.0.0.1,51443,dt-secure.videohub.tv/67.226.210.14,443,,03 Jun 2019 14:38:47,03 Jun 2019 14:38:47,03 Jun 2019 14:38:47,03 Jun 2019 14:38:47,11,,,,0,1,10,37.286133,0.0,41.992188,,377,,,0,43,,
https://dt-secure.videohub.tv/v1/usync/lrjs?userId=,COMPLETE,303,https,GET,image/gif,/127.0.0.1,51445,dt-secure.videohub.tv/67.226.210.14,443,,03 Jun 2019 14:38:47,03 Jun 2019 14:38:47,03 Jun 2019 14:38:47,03 Jun 2019 14:38:47,11,,,,0,0,11,37.463867,0.0,0.0,,379,,,0,43,,
https://dt-secure.videohub.tv/v1/usync/db?userId=&deviceId=unknown&screenType=mobiletablet&osType=iOS&rand=1676999005,COMPLETE,303,https,GET,image/gif,/127.0.0.1,51444,dt-secure.videohub.tv/67.226.210.14,443,,03 Jun 2019 14:38:47,03 Jun 2019 14:38:47,03 Jun 2019 14:38:47,03 Jun 2019 14:38:47,10,,,,0,0,10,47.65625,0.0,0.0,,445,,,0,43,,
https://partners.tremorhub.com,COMPLETE,200,https,CONNECT,,/127.0.0.1,51461,partners.tremorhub.com/52.3.24.219,443,,03 Jun 2019 14:38:47,,,03 Jun 2019 14:39:18,30677,43,10,321,,,,1.0976562,,,1509,0,387,32079,0,516,,
https://cs.lkqd.net,COMPLETE,200,https,CONNECT,,/127.0.0.1,51460,cs.lkqd.net/146.20.132.52,443,,03 Jun 2019 14:38:47,,,03 Jun 2019 14:39:18,30664,13,14,272,,,,1.4072266,,,1322,0,396,42000,0,482,,
https://simage2.pubmatic.com,COMPLETE,200,https,CONNECT,,/127.0.0.1,51462,simage2.pubmatic.com/162.248.19.147,443,,03 Jun 2019 14:38:47,,,03 Jun 2019 14:39:18,30657,48,2,313,,,,0.7011719,,,1499,0,455,19257,0,827,,
https://x.bidswitch.net,COMPLETE,200,https,CONNECT,,/127.0.0.1,51463,x.bidswitch.net/104.196.142.56,443,,03 Jun 2019 14:38:47,,,03 Jun 2019 14:38:58,10625,62,21,315,,,,3.5449219,,,1146,0,405,36284,0,743,,
https://sync.springserve.com,COMPLETE,200,https,CONNECT,,/127.0.0.1,51465,sync.springserve.com/52.200.250.68,443,,03 Jun 2019 14:38:47,,,03 Jun 2019 14:39:18,30655,64,9,291,,,,1.0751953,,,1499,0,397,31653,0,212,,
https://dt-secure.videohub.tv/v1/usync/kx?userId=,COMPLETE,303,https,GET,image/gif,/127.0.0.1,51442,dt-secure.videohub.tv/67.226.210.14,443,,03 Jun 2019 14:38:47,03 Jun 2019 14:38:47,03 Jun 2019 14:38:47,03 Jun 2019 14:38:47,16,,,,0,0,16,25.634766,0.0,0.0,,377,,,0,43,,
https://dt-secure.videohub.tv/v1/usync/al?userId=,COMPLETE,303,https,GET,image/gif,/127.0.0.1,51425,dt-secure.videohub.tv/67.226.210.14,443,,03 Jun 2019 14:38:47,03 Jun 2019 14:38:47,03 Jun 2019 14:38:47,03 Jun 2019 14:38:47,14,,,,0,0,14,29.296875,0.0,0.0,,377,,,0,43,,
https://dt-secure.videohub.tv/v1/usync/bk?userId=,COMPLETE,303,https,GET,image/gif,/127.0.0.1,51443,dt-secure.videohub.tv/67.226.210.14,443,,03 Jun 2019 14:38:47,03 Jun 2019 14:38:47,03 Jun 2019 14:38:47,03 Jun 2019 14:38:47,14,,,,0,1,13,29.296875,0.0,41.992188,,377,,,0,43,,
https://dt-secure.videohub.tv/v1/usync/lr?userId=,COMPLETE,303,https,GET,image/gif,/127.0.0.1,51441,dt-secure.videohub.tv/67.226.210.14,443,,03 Jun 2019 14:38:47,03 Jun 2019 14:38:47,03 Jun 2019 14:38:47,03 Jun 2019 14:38:47,14,,,,0,0,14,29.296875,0.0,0.0,,377,,,0,43,,
https://dt-secure.videohub.tv/v1/usync/ns?userId=,COMPLETE,303,https,GET,image/gif,/127.0.0.1,51445,dt-secure.videohub.tv/67.226.210.14,443,,03 Jun 2019 14:38:47,03 Jun 2019 14:38:47,03 Jun 2019 14:38:47,03 Jun 2019 14:38:47,11,,,,0,0,11,37.286133,0.0,0.0,,377,,,0,43,,
https://objects-secure.tremormedia.com/net/js/lr.js?partner_id=41d67b436dd60a17e319430b2fdf63ba,COMPLETE,200,https,GET,application/javascript,/127.0.0.1,51418,objects-secure.tremormedia.com/104.110.194.47,443,,03 Jun 2019 14:38:47,03 Jun 2019 14:38:47,03 Jun 2019 14:38:47,03 Jun 2019 14:38:47,9,,,,0,1,8,130.3164,0.0,759.7656,,423,,,0,778,,57.1%
https://loadm.exelator.com,COMPLETE,200,https,CONNECT,,/127.0.0.1,51467,loadm.exelator.com/147.75.39.192,443,,03 Jun 2019 14:38:47,,,03 Jun 2019 14:38:58,10718,65,2,329,,,,3.1660156,,,1122,0,816,31294,0,1521,,
https://bcp.crwdcntrl.net,COMPLETE,200,https,CONNECT,,/127.0.0.1,51468,bcp.crwdcntrl.net/34.238.129.202,443,,03 Jun 2019 14:38:47,,,03 Jun 2019 14:39:18,30600,11,8,258,,,,1.0927734,,,1484,0,797,31179,0,791,,
https://dpm.demdex.net,COMPLETE,200,https,CONNECT,,/127.0.0.1,51471,dpm.demdex.net/35.168.157.246,443,,03 Jun 2019 14:38:47,,,03 Jun 2019 14:39:18,30599,10,8,293,,,,0.6933594,,,1469,0,804,18303,0,1155,,
https://idpix.media6degrees.com,COMPLETE,200,https,CONNECT,,/127.0.0.1,51470,idpix.media6degrees.com/204.2.197.211,443,,03 Jun 2019 14:38:47,,,03 Jun 2019 14:38:47,487,124,2,280,,,,53.720703,,,1514,0,431,24075,0,770,,
https://p.adsymptotic.com,COMPLETE,200,https,CONNECT,,/127.0.0.1,51473,p.adsymptotic.com/52.0.136.218,443,,03 Jun 2019 14:38:47,,,03 Jun 2019 14:39:19,31696,162,9,273,,,,0.69628906,,,1484,0,944,19281,0,921,,
https://idsync.rlcdn.com,COMPLETE,200,https,CONNECT,,/127.0.0.1,51480,idsync.rlcdn.com/34.95.92.78,443,,03 Jun 2019 14:38:47,,,03 Jun 2019 14:39:19,31600,3,3,309,,,,0.85839844,,,1347,0,838,24510,0,1107,,
https://beacon.krxd.net,COMPLETE,200,https,CONNECT,,/127.0.0.1,51483,beacon.krxd.net/23.21.188.101,443,,03 Jun 2019 14:38:47,,,03 Jun 2019 14:39:19,31600,10,12,284,,,,0.87109375,,,1474,0,414,25825,0,482,,
https://aa.agkn.com,COMPLETE,200,https,CONNECT,,/127.0.0.1,51481,aa.agkn.com/63.251.88.56,443,,03 Jun 2019 14:38:47,,,03 Jun 2019 14:38:48,419,50,9,271,,,,53.90625,,,1454,0,402,20762,0,511,,
https://stags.bluekai.com,COMPLETE,200,https,CONNECT,,/127.0.0.1,51479,stags.bluekai.com/96.7.23.53,443,,03 Jun 2019 14:38:47,,,03 Jun 2019 14:39:19,31593,3,13,315,,,,0.74121094,,,1484,0,459,21259,0,784,,
https://sync.alphonso.tv,COMPLETE,200,https,CONNECT,,/127.0.0.1,51482,sync.alphonso.tv/104.129.168.238,443,,03 Jun 2019 14:38:47,,,03 Jun 2019 14:39:19,31589,5,6,310,,,,0.93359375,,,1479,0,391,27865,0,471,,
https://tps30.doubleverify.com/visit.jpg?ctx=42674&cmp=DV069178&sid=1111&plc=2018011501&advid=3819603&adsrv=0&tagtype=&dvtagver=6.1.img&DVP_PP_REP=1&DVP_IQM_ID=16&DVP_DV_TT=2&DVP_DV_CT=2&DVP_TR_SSP=&DVP_TR_PUB=[PUBLISHER_ID]&DVP_TR_SITE=[SUPPLY_ID]&DVP_TR_ADV=425726&DVP_TR_CMP=&DVP_TR_PLC=&turl=tremorvideodsp.com&DVP_PP_BUNDLE_ID=&DVP_TR_COST=,COMPLETE,200,https,GET,image/jpeg,/127.0.0.1,51492,tps30.doubleverify.com/204.154.111.114,443,,03 Jun 2019 14:38:47,03 Jun 2019 14:38:47,03 Jun 2019 14:38:47,03 Jun 2019 14:38:47,16,2,3,3,0,0,8,111.63281,0.0,0.0,687,673,,327,0,142,,53.4%
https://bsw.digitru.st,COMPLETE,200,https,CONNECT,,/127.0.0.1,51494,bsw.digitru.st/104.196.142.56,443,,03 Jun 2019 14:38:47,,,03 Jun 2019 14:38:58,10329,2,21,78,,,,3.5302734,,,1142,0,405,35144,0,658,,
https://d.agkn.com,COMPLETE,200,https,CONNECT,,/127.0.0.1,51496,d.agkn.com/54.210.81.81,443,,03 Jun 2019 14:38:48,,,03 Jun 2019 14:39:18,30938,49,7,37,,,,0.8652344,,,1449,0,384,25023,0,570,,
https://pippio.com,COMPLETE,200,https,CONNECT,,/127.0.0.1,51497,pippio.com/107.178.254.65,443,,03 Jun 2019 14:38:48,,,03 Jun 2019 14:39:19,31162,5,2,24,,,,0.8515625,,,1317,0,751,23570,0,1536,,
https://dt-secure.videohub.tv/v1/uid?UIBK=klH2w%2BJv999oU4Pz,COMPLETE,200,https,GET,image/gif,/127.0.0.1,51425,dt-secure.videohub.tv/67.226.210.14,443,,03 Jun 2019 14:38:48,03 Jun 2019 14:38:48,03 Jun 2019 14:38:48,03 Jun 2019 14:38:48,17,,,,1,0,16,24.757812,378.90625,0.0,,388,,,0,43,,
https://cm.g.doubleclick.net,COMPLETE,200,https,CONNECT,,/127.0.0.1,51500,cm.g.doubleclick.net/172.217.3.98,443,,03 Jun 2019 14:38:48,,,03 Jun 2019 14:39:19,31082,38,2,48,,,,0.5371094,,,1367,0,424,14345,0,969,,
https://us-east-sync.bidswitch.net,COMPLETE,200,https,CONNECT,,/127.0.0.1,51502,us-east-sync.bidswitch.net/104.196.188.7,443,,03 Jun 2019 14:38:48,,,03 Jun 2019 14:38:58,10437,37,21,81,,,,3.6113281,,,1190,0,430,36284,0,700,,
https://tag.apxlv.com,COMPLETE,200,https,CONNECT,,/127.0.0.1,51504,tag.apxlv.com/162.223.54.6,443,,03 Jun 2019 14:38:48,,,03 Jun 2019 14:39:19,30911,4,9,48,,,,0.8847656,,,1464,0,368,25553,0,647,,
https://tag.cogocast.net,COMPLETE,200,https,CONNECT,,/127.0.0.1,51506,tag.cogocast.net/54.152.25.88,443,,03 Jun 2019 14:38:48,,,03 Jun 2019 14:39:19,30831,7,9,35,,,,1.0908203,,,1479,0,502,31563,0,923,,
https://gpush.cogocast.net,COMPLETE,200,https,CONNECT,,/127.0.0.1,51508,gpush.cogocast.net/162.223.54.16,443,,03 Jun 2019 14:38:48,,,03 Jun 2019 14:38:48,30,5,9,,,,,7.0634766,,,210,0,0,7,0,0,,
https://objects-secure.tremormedia.com/net/js/adchoicesappicon.min.js?iconPosition=top-left&optOut=&iconClick=&playerWidth=770&playerHeight=1026&sources=&country=us,COMPLETE,200,https,GET,application/javascript,/127.0.0.1,51418,objects-secure.tremormedia.com/104.110.194.47,443,,03 Jun 2019 14:38:48,03 Jun 2019 14:38:48,03 Jun 2019 14:38:48,03 Jun 2019 14:38:48,19,,,,0,1,18,897.15234,0.0,16622.07,,434,,,0,17021,,45.7%
https://l0-secure.videohub.tv/ssframework/log/log.png?EC=40&a=logitemaction&nolog=1&ssPD=tremorvideodsp.com&Uzip=__postalCode__&ADI=7879076&PRI=3133c2d4-85af-4ba8-9ce9-b96ea0611765&Udma=__dma__&ssMLVer=rml_app_1.9.0&Uctry=__country__&AVI=425726&ssASVer=2.0&RI=1&Ust=__state__&NI=1344&admode=preroll&ssDsC=mobiletablet&ssRnd=1296546432&EvaF=1&pctVw=0,COMPLETE,200,https,GET,image/gif,/127.0.0.1,51433,l0-secure.videohub.tv/67.226.210.14,443,,03 Jun 2019 14:38:49,03 Jun 2019 14:38:49,03 Jun 2019 14:38:49,03 Jun 2019 14:38:49,290,,,,0,0,290,2.4238281,0.0,0.0,,677,,,0,43,,
https://s.tremorvideodsp.com/q/qa.gif?param1=screen_click,COMPLETE,200,https,GET,image/gif,/127.0.0.1,51416,s.tremorvideodsp.com/23.48.39.112,443,,03 Jun 2019 14:38:50,03 Jun 2019 14:38:50,03 Jun 2019 14:38:50,03 Jun 2019 14:38:50,115,,,,1,1,113,3.633789,375.97656,41.992188,,385,,,0,43,,
https://s.tremorvideodsp.com/q/qa.gif?param1=creative_click,COMPLETE,200,https,GET,image/gif,/127.0.0.1,51422,s.tremorvideodsp.com/23.48.39.112,443,,03 Jun 2019 14:38:50,03 Jun 2019 14:38:50,03 Jun 2019 14:38:50,03 Jun 2019 14:38:50,17,,,,0,1,16,24.701172,0.0,41.992188,,387,,,0,43,,
https://l0-secure.videohub.tv/ssframework/log/log.png?EC=2&a=logitemaction&nolog=1&ssPD=tremorvideodsp.com&Uzip=__postalCode__&ADI=7879076&PRI=3133c2d4-85af-4ba8-9ce9-b96ea0611765&Udma=__dma__&ssMLVer=rml_app_1.9.0&Uctry=__country__&AVI=425726&ssASVer=2.0&RI=1&Ust=__state__&NI=1344&admode=preroll&ssDsC=mobiletablet&ssRnd=492249655,COMPLETE,200,https,GET,image/gif,/127.0.0.1,51433,l0-secure.videohub.tv/67.226.210.14,443,,03 Jun 2019 14:38:50,03 Jun 2019 14:38:50,03 Jun 2019 14:38:50,03 Jun 2019 14:38:50,12,,,,0,1,11,57.20996,0.0,41.992188,,660,,,0,43,,
https://l0-secure.videohub.tv/ssframework/log/log.png?EC=4&a=logitemaction&nolog=1&ssPD=tremorvideodsp.com&Uzip=__postalCode__&ADI=7879076&PRI=3133c2d4-85af-4ba8-9ce9-b96ea0611765&Udma=__dma__&ssMLVer=rml_app_1.9.0&Uctry=__country__&AVI=425726&ssASVer=2.0&RI=1&Ust=__state__&NI=1344&admode=preroll&ssDsC=mobiletablet&ssRnd=1068498387&EiN=1,COMPLETE,200,https,GET,image/gif,/127.0.0.1,51433,l0-secure.videohub.tv/67.226.210.14,443,,03 Jun 2019 14:38:50,03 Jun 2019 14:38:50,03 Jun 2019 14:38:50,03 Jun 2019 14:38:50,13,,,,1,1,11,53.33496,651.3672,41.992188,,667,,,0,43,,
https://tremorvideodsp.com,COMPLETE,200,https,CONNECT,,/127.0.0.1,51510,tremorvideodsp.com/67.226.210.12,443,,03 Jun 2019 14:38:50,,,03 Jun 2019 14:38:50,250,84,10,68,,,,112.60547,,,1404,0,540,25979,0,904,,
https://www.tremorvideodsp.com,COMPLETE,200,https,CONNECT,,/127.0.0.1,51512,www.tremorvideodsp.com/52.22.236.254,443,,03 Jun 2019 14:38:50,,,03 Jun 2019 14:39:22,31265,104,9,56,,,,0.6435547,,,3024,0,3466,12406,0,1715,,
https://dt.scanscout.com,COMPLETE,200,https,CONNECT,,/127.0.0.1,51513,dt.scanscout.com/67.226.210.15,443,,03 Jun 2019 14:38:50,,,03 Jun 2019 14:38:55,5091,2,10,44,,,,6.7578125,,,3096,0,536,31298,0,302,,
https://tremorvideodsp.com,COMPLETE,200,https,CONNECT,,/127.0.0.1,51514,tremorvideodsp.com/67.226.210.12,443,,03 Jun 2019 14:38:50,,,03 Jun 2019 14:38:55,5102,1,11,44,,,,6.522461,,,1756,0,508,31388,0,429,,
https://www.tremorvideodsp.com,COMPLETE,200,https,CONNECT,,/127.0.0.1,51519,www.tremorvideodsp.com/52.22.236.254,443,,03 Jun 2019 14:38:50,,,03 Jun 2019 14:39:22,31072,2,10,37,,,,0.46289062,,,1584,0,566,12301,0,301,,
https://www.tremorvideodsp.com,COMPLETE,200,https,CONNECT,,/127.0.0.1,51520,www.tremorvideodsp.com/52.22.236.254,443,,03 Jun 2019 14:38:50,,,03 Jun 2019 14:39:22,31072,7,10,50,,,,0.39648438,,,1584,0,603,10148,0,299,,
https://www.tremorvideodsp.com,COMPLETE,200,https,CONNECT,,/127.0.0.1,51518,www.tremorvideodsp.com/52.22.236.254,443,,03 Jun 2019 14:38:50,,,03 Jun 2019 14:39:22,31072,14,10,44,,,,0.3955078,,,1584,0,557,10148,0,302,,
https://www.tremorvideodsp.com,COMPLETE,200,https,CONNECT,,/127.0.0.1,51524,www.tremorvideodsp.com/52.22.236.254,443,,03 Jun 2019 14:38:51,,,03 Jun 2019 14:39:21,30112,2,9,58,,,,0.47753906,,,1424,0,280,12301,0,744,,
https://www.google-analytics.com,RECEIVING_REQUEST_BODY,200,https,CONNECT,,/127.0.0.1,51526,www.google-analytics.com/172.217.11.46,443,,03 Jun 2019 14:38:51,,,,120751,37,2,,,,,0.00390625,,,517,0,0,,0,0,,
https://stats.g.doubleclick.net,RECEIVING_REQUEST_BODY,200,https,CONNECT,,/127.0.0.1,51528,stats.g.doubleclick.net/173.194.206.155,443,,03 Jun 2019 14:38:51,,,,120579,41,32,,,,,0.00390625,,,517,0,0,,0,0,,
https://www.google.com,RECEIVED_RESPONSE_HEADER,200,https,CONNECT,,/127.0.0.1,51530,www.google.com/172.217.11.36,443,,03 Jun 2019 14:38:52,,,,120390,36,2,,,,,0.00390625,,,517,0,0,,0,0,,
https://s.tremorvideodsp.com/q/qa.gif?param1=screen_click,COMPLETE,200,https,GET,image/gif,/127.0.0.1,51416,s.tremorvideodsp.com/23.48.39.112,443,,03 Jun 2019 14:39:04,03 Jun 2019 14:39:04,03 Jun 2019 14:39:04,03 Jun 2019 14:39:04,34,,,,0,1,33,12.292969,0.0,41.992188,,385,,,0,43,,
https://s.tremorvideodsp.com/q/qa.gif?param1=creative_click,COMPLETE,200,https,GET,image/gif,/127.0.0.1,51422,s.tremorvideodsp.com/23.48.39.112,443,,03 Jun 2019 14:39:04,03 Jun 2019 14:39:04,03 Jun 2019 14:39:04,03 Jun 2019 14:39:04,36,,,,0,0,36,11.6640625,0.0,0.0,,387,,,0,43,,
https://l0-secure.videohub.tv/ssframework/log/log.png?EC=2&a=logitemaction&nolog=1&ssPD=tremorvideodsp.com&Uzip=__postalCode__&ADI=7879076&PRI=3133c2d4-85af-4ba8-9ce9-b96ea0611765&Udma=__dma__&ssMLVer=rml_app_1.9.0&Uctry=__country__&AVI=425726&ssASVer=2.0&RI=1&Ust=__state__&NI=1344&admode=preroll&ssDsC=mobiletablet&ssRnd=492249655,COMPLETE,200,https,GET,image/gif,/127.0.0.1,51433,l0-secure.videohub.tv/67.226.210.14,443,,03 Jun 2019 14:39:04,03 Jun 2019 14:39:04,03 Jun 2019 14:39:04,03 Jun 2019 14:39:04,111,,10,38,52,0,11,243.01367,32.11328,0.0,1050,660,,25869,0,43,,
https://l0-secure.videohub.tv/ssframework/log/log.png?EC=7&a=logitemaction&nolog=1&ssPD=tremorvideodsp.com&Uzip=__postalCode__&ADI=7879076&PRI=3133c2d4-85af-4ba8-9ce9-b96ea0611765&Udma=__dma__&ssMLVer=rml_app_1.9.0&Uctry=__country__&AVI=425726&ssASVer=2.0&RI=1&Ust=__state__&NI=1344&admode=preroll&ssDsC=mobiletablet&ssRnd=2037257091&Eipct=25&EiN=1,COMPLETE,200,https,GET,image/gif,/127.0.0.1,51433,l0-secure.videohub.tv/67.226.210.14,443,,03 Jun 2019 14:39:16,03 Jun 2019 14:39:16,03 Jun 2019 14:39:16,03 Jun 2019 14:39:16,101,,10,34,45,0,12,267.2295,37.456055,0.0,1050,676,,25869,0,43,,
https://s.tremorvideodsp.com/q/qa.gif?param1=screen_first_quartile,COMPLETE,200,https,GET,image/gif,/127.0.0.1,51416,s.tremorvideodsp.com/23.48.39.112,443,,03 Jun 2019 14:39:16,03 Jun 2019 14:39:16,03 Jun 2019 14:39:16,03 Jun 2019 14:39:16,25,,,,0,2,23,17.070312,0.0,20.996094,,394,,,0,43,,
https://s.tremorvideodsp.com/q/qa.gif?param1=creative_first_quartile,COMPLETE,200,https,GET,image/gif,/127.0.0.1,51422,s.tremorvideodsp.com/23.48.39.112,443,,03 Jun 2019 14:39:16,03 Jun 2019 14:39:16,03 Jun 2019 14:39:16,03 Jun 2019 14:39:16,97,,,,0,0,97,4.4189453,0.0,0.0,,396,,,0,43,,
https://www.tremorvideodsp.com,EXCEPTION,200,https,CONNECT,,/127.0.0.1,51534,www.tremorvideodsp.com/52.22.236.254,443,java.net.SocketException: Broken pipe (Write failed),03 Jun 2019 14:39:21,,,03 Jun 2019 14:39:21,203,3,9,56,,,,273.45117,,,1584,0,268,10148,0,44843,,
https://l0-secure.videohub.tv/ssframework/log/log.png?EC=7&a=logitemaction&nolog=1&ssPD=tremorvideodsp.com&Uzip=__postalCode__&ADI=7879076&PRI=3133c2d4-85af-4ba8-9ce9-b96ea0611765&Udma=__dma__&ssMLVer=rml_app_1.9.0&Uctry=__country__&AVI=425726&ssASVer=2.0&RI=1&Ust=__state__&NI=1344&admode=preroll&ssDsC=mobiletablet&ssRnd=711233433&Eipct=50&EiN=1,COMPLETE,200,https,GET,image/gif,/127.0.0.1,51433,l0-secure.videohub.tv/67.226.210.14,443,,03 Jun 2019 14:39:31,03 Jun 2019 14:39:31,03 Jun 2019 14:39:31,03 Jun 2019 14:39:31,101,,9,35,45,1,11,267.21973,37.43457,25304.688,1050,675,,25869,0,43,,
https://s.tremorvideodsp.com/q/qa.gif?param1=screen_second_quartile,COMPLETE,200,https,GET,image/gif,/127.0.0.1,51416,s.tremorvideodsp.com/23.48.39.112,443,,03 Jun 2019 14:39:31,03 Jun 2019 14:39:31,03 Jun 2019 14:39:31,03 Jun 2019 14:39:31,30,,,,0,1,29,14.2578125,0.0,41.992188,,395,,,0,43,,
https://s.tremorvideodsp.com/q/qa.gif?param1=creative_second_quartile,COMPLETE,200,https,GET,image/gif,/127.0.0.1,51422,s.tremorvideodsp.com/23.48.39.112,443,,03 Jun 2019 14:39:31,03 Jun 2019 14:39:31,03 Jun 2019 14:39:31,03 Jun 2019 14:39:31,30,,,,0,1,29,14.322266,0.0,41.992188,,397,,,0,43,,
https://safebrowsing.googleapis.com,RECEIVING_REQUEST_BODY,200,https,CONNECT,,/127.0.0.1,51537,safebrowsing.googleapis.com/172.217.10.74,443,,03 Jun 2019 14:39:39,,,,72444,1,2,,,,,0.0068359375,,,517,0,0,,0,0,,
https://l0-secure.videohub.tv/ssframework/log/log.png?EC=7&a=logitemaction&nolog=1&ssPD=tremorvideodsp.com&Uzip=__postalCode__&ADI=7879076&PRI=3133c2d4-85af-4ba8-9ce9-b96ea0611765&Udma=__dma__&ssMLVer=rml_app_1.9.0&Uctry=__country__&AVI=425726&ssASVer=2.0&RI=1&Ust=__state__&NI=1344&admode=preroll&ssDsC=mobiletablet&ssRnd=1575851023&Eipct=75&EiN=1,COMPLETE,200,https,GET,image/gif,/127.0.0.1,51433,l0-secure.videohub.tv/67.226.210.14,443,,03 Jun 2019 14:39:46,03 Jun 2019 14:39:46,03 Jun 2019 14:39:46,03 Jun 2019 14:39:46,153,,12,57,70,0,14,176.40625,24.079102,0.0,1050,676,,25869,0,43,,
https://s.tremorvideodsp.com/q/qa.gif?param1=screen_third_quartile,COMPLETE,200,https,GET,image/gif,/127.0.0.1,51416,s.tremorvideodsp.com/23.48.39.112,443,,03 Jun 2019 14:39:46,03 Jun 2019 14:39:46,03 Jun 2019 14:39:46,03 Jun 2019 14:39:46,55,,,,0,0,55,7.758789,0.0,0.0,,394,,,0,43,,
https://s.tremorvideodsp.com/q/qa.gif?param1=creative_third_quartile,COMPLETE,200,https,GET,image/gif,/127.0.0.1,51422,s.tremorvideodsp.com/23.48.39.112,443,,03 Jun 2019 14:39:46,03 Jun 2019 14:39:46,03 Jun 2019 14:39:46,03 Jun 2019 14:39:46,52,,,,0,0,52,8.244141,0.0,0.0,,396,,,0,43,,
https://l0-secure.videohub.tv/ssframework/log/log.png?EC=38&a=logitemaction&nolog=1&ssPD=tremorvideodsp.com&Uzip=__postalCode__&ADI=7879076&PRI=3133c2d4-85af-4ba8-9ce9-b96ea0611765&Udma=__dma__&ssMLVer=rml_app_1.9.0&Uctry=__country__&AVI=425726&ssASVer=2.0&RI=1&Ust=__state__&NI=1344&admode=preroll&ssDsC=mobiletablet&ssRnd=620087453&EvaF=1&pctVw=100,COMPLETE,200,https,GET,image/gif,/127.0.0.1,51433,l0-secure.videohub.tv/67.226.210.14,443,,03 Jun 2019 14:39:58,03 Jun 2019 14:39:58,03 Jun 2019 14:39:58,03 Jun 2019 14:39:58,99,,10,32,45,1,11,272.64746,37.5,25304.688,1050,678,,25869,0,43,,
https://l0-secure.videohub.tv/ssframework/log/log.png?EC=7&a=logitemaction&nolog=1&ssPD=tremorvideodsp.com&Uzip=__postalCode__&ADI=7879076&PRI=3133c2d4-85af-4ba8-9ce9-b96ea0611765&Udma=__dma__&ssMLVer=rml_app_1.9.0&Uctry=__country__&AVI=425726&ssASVer=2.0&RI=1&Ust=__state__&NI=1344&admode=preroll&ssDsC=mobiletablet&ssRnd=1175821295&Eipct=100&RcpF=1&EiN=1,COMPLETE,200,https,GET,image/gif,/127.0.0.1,51433,l0-secure.videohub.tv/67.226.210.14,443,,03 Jun 2019 14:40:01,03 Jun 2019 14:40:01,03 Jun 2019 14:40:01,03 Jun 2019 14:40:01,13,,,,0,0,13,54.612305,0.0,0.0,,684,,,0,43,,
https://s.tremorvideodsp.com/q/qa.gif?param1=screen_completion,COMPLETE,200,https,GET,image/gif,/127.0.0.1,51416,s.tremorvideodsp.com/23.48.39.112,443,,03 Jun 2019 14:40:01,03 Jun 2019 14:40:01,03 Jun 2019 14:40:01,03 Jun 2019 14:40:01,25,,,,0,1,24,16.914062,0.0,41.992188,,390,,,0,43,,
https://s.tremorvideodsp.com/q/qa.gif?param1=creative_completion,COMPLETE,200,https,GET,image/gif,/127.0.0.1,51422,s.tremorvideodsp.com/23.48.39.112,443,,03 Jun 2019 14:40:01,03 Jun 2019 14:40:01,03 Jun 2019 14:40:01,03 Jun 2019 14:40:01,27,,,,0,0,27,15.733398,0.0,0.0,,392,,,0,43,,
https://s.tremorvideodsp.com/q/video1_small.mp4,COMPLETE,206,https,GET,video/mp4,/127.0.0.1,51541,s.tremorvideodsp.com/23.48.39.112,443,,03 Jun 2019 14:40:01,03 Jun 2019 14:40:01,03 Jun 2019 14:40:01,03 Jun 2019 14:40:01,203,149,8,23,0,1,22,79.2168,0.0,14698.242,1058,358,,15049,0,2,,
https://s.tremorvideodsp.com/q/video1_small.mp4,COMPLETE,206,https,GET,video/mp4,/127.0.0.1,51541,s.tremorvideodsp.com/23.48.39.112,443,,03 Jun 2019 14:40:01,03 Jun 2019 14:40:01,03 Jun 2019 14:40:01,03 Jun 2019 14:40:01,30,,,,0,11,19,2145.1172,0.0,5818.1816,,362,,,0,65536,,
https://s.tremorvideodsp.com/q/video1_small.mp4,COMPLETE,206,https,GET,video/mp4,/127.0.0.1,51541,s.tremorvideodsp.com/23.48.39.112,443,,03 Jun 2019 14:40:01,03 Jun 2019 14:40:01,03 Jun 2019 14:40:01,03 Jun 2019 14:40:01,30,,,,0,7,23,2145.3125,0.0,9142.856,,368,,,0,65536,,
https://s.tremorvideodsp.com/q/video1_small.mp4,COMPLETE,206,https,GET,video/mp4,/127.0.0.1,51543,s.tremorvideodsp.com/23.48.39.112,443,,03 Jun 2019 14:40:01,03 Jun 2019 14:40:01,03 Jun 2019 14:40:01,03 Jun 2019 14:40:02,756,3,8,28,0,695,22,12797.246,0.0,13918.556,986,368,,14959,0,9890599,,
https://s.tremorvideodsp.com/q/video1_small.mp4,COMPLETE,206,https,GET,video/mp4,/127.0.0.1,51541,s.tremorvideodsp.com/23.48.39.112,443,,03 Jun 2019 14:40:01,03 Jun 2019 14:40:01,03 Jun 2019 14:40:01,03 Jun 2019 14:40:01,26,,,,0,6,20,2475.3604,0.0,10666.666,,368,,,0,65536,,
https://jwpltx.com,COMPLETE,200,https,CONNECT,,/127.0.0.1,51545,jwpltx.com/34.200.179.210,443,,03 Jun 2019 14:40:02,,,03 Jun 2019 14:40:37,35231,13,9,42,,,,0.95996094,,,1449,0,1204,31731,0,264,,
https://prd.jwpltx.com,COMPLETE,200,https,CONNECT,,/127.0.0.1,51546,prd.jwpltx.com/52.1.20.79,443,,03 Jun 2019 14:40:02,,,03 Jun 2019 14:40:32,30224,80,9,39,,,,0.93066406,,,1469,0,886,26340,0,132,,
https://entitlements.jwplayer.com,COMPLETE,200,https,CONNECT,,/127.0.0.1,51549,entitlements.jwplayer.com/72.21.81.189,443,,03 Jun 2019 14:40:07,,,03 Jun 2019 14:40:38,30646,57,1,45,,,,0.9824219,,,1524,0,317,28535,0,464,,
https://s.tremorvideodsp.com/q/video1_small.mp4,COMPLETE,206,https,GET,video/mp4,/127.0.0.1,51550,s.tremorvideodsp.com/23.48.39.112,443,,03 Jun 2019 14:40:07,03 Jun 2019 14:40:07,03 Jun 2019 14:40:07,03 Jun 2019 14:40:07,131,3,8,23,0,0,97,122.75586,0.0,0.0,1058,358,,15049,0,2,,
https://s.tremorvideodsp.com/q/video1_small.mp4,COMPLETE,206,https,GET,video/mp4,/127.0.0.1,51550,s.tremorvideodsp.com/23.48.39.112,443,,03 Jun 2019 14:40:07,03 Jun 2019 14:40:07,03 Jun 2019 14:40:07,03 Jun 2019 14:40:07,50,,,,0,12,38,1287.0703,0.0,5333.333,,362,,,0,65536,,
https://s.tremorvideodsp.com/q/video1_small.mp4,COMPLETE,206,https,GET,video/mp4,/127.0.0.1,51550,s.tremorvideodsp.com/23.48.39.112,443,,03 Jun 2019 14:40:07,03 Jun 2019 14:40:07,03 Jun 2019 14:40:07,03 Jun 2019 14:40:07,110,,,,1,5,104,585.08496,359.375,12800.0,,368,,,0,65536,,
https://s.tremorvideodsp.com/q/video1_small.mp4,COMPLETE,206,https,GET,video/mp4,/127.0.0.1,51553,s.tremorvideodsp.com/23.48.39.112,443,com.xk72.proxy.ProxyException: Client closed connection before receiving entire response,03 Jun 2019 14:40:07,03 Jun 2019 14:40:07,03 Jun 2019 14:40:07,03 Jun 2019 14:40:08,151,2,9,23,0,91,26,7187.6416,0.0,11912.216,986,368,,14959,0,1095069,,
https://s.tremorvideodsp.com/q/video1_small.mp4,COMPLETE,206,https,GET,video/mp4,/127.0.0.1,51550,s.tremorvideodsp.com/23.48.39.112,443,,03 Jun 2019 14:40:07,03 Jun 2019 14:40:07,03 Jun 2019 14:40:07,03 Jun 2019 14:40:07,29,,,,0,4,25,2219.288,0.0,16000.0,,368,,,0,65536,,
