URL,Status,Response Code,Protocol,Method,Content-Type,Client Address,Client Port,Remote Address,Remote Port,Exception,Request Start Time,Request End Time,Response Start Time,Response End Time,Duration (ms),DNS Duration (ms),Connect Duration (ms),SSL Duration (ms),Request Duration (ms),Response Duration (ms),Latency (ms),Speed (KB/s),Request Speed (KB/s),Response Speed (KB/s),Request Handshake Size (bytes),Request Header Size (bytes),Request Body Size (bytes),Response Handshake Size (bytes),Response Header Size (bytes),Response Body Size (bytes),Request Compression,Response Compression
https://14.client-channel.google.com,RECEIVING_RESPONSE_BODY,200,https,CONNECT,,/127.0.0.1,50798,14.client-channel.google.com/74.125.192.189,443,,03 Jun 2019 14:27:42,,,,2543724,38,33,34,,,,0.0107421875,,,1608,0,,372,0,15835,,
https://ts01-b.cloudsink.net,RECEIVING_REQUEST_BODY,200,https,CONNECT,,/127.0.0.1,51057,ts01-b.cloudsink.net/54.193.67.98,443,,03 Jun 2019 14:29:35,,,,2430400,36,72,174,,,,0.078125,,,1246,0,147215,17474,0,29531,,
https://ssl.gstatic.com,RECEIVING_REQUEST_BODY,200,https,CONNECT,,/127.0.0.1,51061,ssl.gstatic.com/172.217.12.195,443,,03 Jun 2019 14:29:47,,,,2418185,36,5,3,,,,0.00390625,,,1608,0,3202,372,0,5157,,
https://chat-pa.clients6.google.com,COMPLETE,200,https,CONNECT,,/127.0.0.1,52217,chat-pa.clients6.google.com/172.217.7.10,443,,03 Jun 2019 15:04:25,,,03 Jun 2019 15:06:53,147509,1,2,49,,,,0.16796875,,,2892,0,1898,19621,0,,,
https://play.google.com,RECEIVING_REQUEST_BODY,200,https,CONNECT,,/127.0.0.1,52382,play.google.com/172.217.10.46,443,,03 Jun 2019 15:05:25,,,,280335,2,4,3,,,,0.0126953125,,,1608,0,1270,372,0,548,,
https://play.google.com,RECEIVING_REQUEST_BODY,200,https,CONNECT,,/127.0.0.1,52384,play.google.com/172.217.10.46,443,,03 Jun 2019 15:05:25,,,,280274,1,2,3,,,,0.02734375,,,1608,0,4173,372,0,1948,,
https://chat-pa.clients6.google.com,RECEIVING_REQUEST_BODY,200,https,CONNECT,,/127.0.0.1,52405,chat-pa.clients6.google.com/172.217.9.234,443,,03 Jun 2019 15:07:25,,,,160324,50,3,,,,,0.0029296875,,,517,0,0,,0,0,,
https://chat-pa.clients6.google.com,RECEIVING_REQUEST_BODY,200,https,CONNECT,,/127.0.0.1,52407,chat-pa.clients6.google.com/172.217.9.234,443,,03 Jun 2019 15:07:25,,,,160168,1,2,,,,,0.0029296875,,,517,0,0,,0,0,,
https://entitlements.jwplayer.com,COMPLETE,200,https,CONNECT,,/127.0.0.1,52410,entitlements.jwplayer.com/72.21.81.189,443,,03 Jun 2019 15:07:50,,,03 Jun 2019 15:08:20,30165,2,2,55,,,,1.1650391,,,1684,0,317,33541,0,464,,
https://s.tremorvideodsp.com/q/video1_small.mp4,COMPLETE,206,https,GET,video/mp4,/127.0.0.1,52412,s.tremorvideodsp.com/23.48.39.120,443,,03 Jun 2019 15:07:50,03 Jun 2019 15:07:50,03 Jun 2019 15:07:50,03 Jun 2019 15:07:50,168,79,8,30,0,0,51,95.71973,0.0,0.0,1058,358,,15049,0,2,,
https://jwpltx.com,COMPLETE,200,https,CONNECT,,/127.0.0.1,52413,jwpltx.com/54.174.103.247,443,,03 Jun 2019 15:07:50,,,03 Jun 2019 15:08:20,30130,6,8,40,,,,1.1044922,,,1609,0,609,31731,0,132,,
https://s.tremorvideodsp.com/q/video1_small.mp4,COMPLETE,206,https,GET,video/mp4,/127.0.0.1,52412,s.tremorvideodsp.com/23.48.39.120,443,,03 Jun 2019 15:07:50,03 Jun 2019 15:07:50,03 Jun 2019 15:07:50,03 Jun 2019 15:07:50,40,,,,0,11,29,1608.8379,0.0,5818.1816,,362,,,0,65536,,
https://s.tremorvideodsp.com/q/video1_small.mp4,COMPLETE,206,https,GET,video/mp4,/127.0.0.1,52412,s.tremorvideodsp.com/23.48.39.120,443,,03 Jun 2019 15:07:50,03 Jun 2019 15:07:50,03 Jun 2019 15:07:50,03 Jun 2019 15:07:50,30,,,,1,8,21,2145.3125,359.375,8000.0,,368,,,0,65536,,
https://s.tremorvideodsp.com/q/video1_small.mp4,COMPLETE,206,https,GET,video/mp4,/127.0.0.1,52416,s.tremorvideodsp.com/23.48.39.120,443,,03 Jun 2019 15:07:50,03 Jun 2019 15:07:50,03 Jun 2019 15:07:50,03 Jun 2019 15:07:51,538,4,8,27,0,461,38,17982.748,0.0,20983.506,986,368,,14959,0,9890599,,
https://s.tremorvideodsp.com/q/video1_small.mp4,COMPLETE,206,https,GET,video/mp4,/127.0.0.1,52412,s.tremorvideodsp.com/23.48.39.120,443,,03 Jun 2019 15:07:50,03 Jun 2019 15:07:50,03 Jun 2019 15:07:50,03 Jun 2019 15:07:50,30,,,,0,5,25,2145.3125,0.0,12800.0,,368,,,0,65536,,
https://adserver.videohub.tv/preview?RI=h_AcAeyFREpDRXBay8d1aQ&screenType=mobiletablet&rml=true&Uctry=__country__&Ust=__state__&Udma=__dma__&Uzip=__postalCode__&Ucty=__city__&Uctnt=__continent__&Ulong=__longitude__&Ulat=__latitude__&Uacd=__areaCode__&position_ACP=__adChoicesPosition__&usedACP=__usedACP__&dspACP=__adChoicesProviders__&sig=2446D8A455EC81CE2B372F2D2FAD9745&dmps=y&ssRmlApp=1&isApp=y,COMPLETE,200,https,GET,application/xml; charset=utf-8,/127.0.0.1,52418,adserver.videohub.tv/67.226.210.8,443,,03 Jun 2019 15:07:59,03 Jun 2019 15:07:59,03 Jun 2019 15:07:59,03 Jun 2019 15:07:59,69,2,10,32,1,11,13,570.0576,1673.8281,3423.6504,1046,668,,25605,0,12959,,
https://objects-secure.videohub.tv/net/js/rml-app.min.js?adData=https%3A%2F%2Fs.tremorvideodsp.com%2Fq%2Fmp4_60sec.xml,COMPLETE,200,https,GET,application/javascript,/127.0.0.1,52420,objects-secure.videohub.tv/104.110.215.249,443,,03 Jun 2019 15:07:59,03 Jun 2019 15:07:59,03 Jun 2019 15:07:59,03 Jun 2019 15:07:59,138,80,9,25,0,14,10,574.0625,0.0,5556.919,1070,388,,16754,0,62910,,72.6%
https://s.tremorvideodsp.com/q/mp4_60sec.xml,COMPLETE,200,https,GET,application/xml,/127.0.0.1,52422,s.tremorvideodsp.com/23.48.39.120,443,,03 Jun 2019 15:07:59,03 Jun 2019 15:07:59,03 Jun 2019 15:07:59,03 Jun 2019 15:07:59,135,3,8,24,0,0,100,123.86426,0.0,0.0,1046,314,,15049,0,714,,
https://objects-secure.tremormedia.com/net/js/io-polyfill-0.5.1.js,COMPLETE,200,https,GET,application/javascript,/127.0.0.1,52424,objects-secure.tremormedia.com/104.110.194.47,443,,03 Jun 2019 15:07:59,03 Jun 2019 15:08:00,03 Jun 2019 15:08:00,03 Jun 2019 15:08:00,134,89,9,25,1,1,9,179.06055,1388.6719,22605.469,1086,336,,16789,0,6359,,71.5%
https://s.tremorvideodsp.com/q/mp4_60sec.mp4,COMPLETE,206,https,GET,video/mp4,/127.0.0.1,52422,s.tremorvideodsp.com/23.48.39.120,443,,03 Jun 2019 15:08:00,03 Jun 2019 15:08:00,03 Jun 2019 15:08:00,03 Jun 2019 15:08:00,97,,,,0,0,97,3.8857422,0.0,0.0,,384,,,0,2,,
https://s.tremorvideodsp.com/q/mp4_60sec.mp4,COMPLETE,206,https,GET,video/mp4,/127.0.0.1,52422,s.tremorvideodsp.com/23.48.39.120,443,,03 Jun 2019 15:08:00,03 Jun 2019 15:08:00,03 Jun 2019 15:08:00,03 Jun 2019 15:08:00,94,,,,0,14,80,684.88184,0.0,4571.4277,,388,,,0,65536,,
https://s.tremorvideodsp.com/q/mp4_60sec.mp4,COMPLETE,206,https,GET,video/mp4,/127.0.0.1,52422,s.tremorvideodsp.com/23.48.39.120,443,,03 Jun 2019 15:08:00,03 Jun 2019 15:08:00,03 Jun 2019 15:08:00,03 Jun 2019 15:08:00,36,,,,1,6,29,1788.4385,383.78906,10666.666,,393,,,0,65536,,
https://s.tremorvideodsp.com/q/mp4_60sec.mp4,COMPLETE,206,https,GET,video/mp4,/127.0.0.1,52422,s.tremorvideodsp.com/23.48.39.120,443,,03 Jun 2019 15:08:00,03 Jun 2019 15:08:00,03 Jun 2019 15:08:00,03 Jun 2019 15:08:02,2397,,,,0,2370,27,12946.148,0.0,13093.474,,396,,,0,31776290,,
https://prd.jwpltx.com,COMPLETE,200,https,CONNECT,,/127.0.0.1,52426,prd.jwpltx.com/54.174.103.247,443,,03 Jun 2019 15:08:01,,,03 Jun 2019 15:08:48,47631,78,8,164,,,,0.7480469,,,1629,0,2759,31731,0,396,,
https://dt-secure.videohub.tv/v1/usync/ironsource?userId=,COMPLETE,303,https,GET,image/gif,/127.0.0.1,52427,dt-secure.videohub.tv/67.226.210.13,443,,03 Jun 2019 15:08:01,03 Jun 2019 15:08:01,03 Jun 2019 15:08:01,03 Jun 2019 15:08:01,56,2,9,35,0,1,9,476.89355,0.0,25304.688,1050,385,,25869,0,43,,
https://sync.doubleverify.com/query.gif?ctx=42674&cmp=2311460&DVP_CMPID=&DVP_PUBID=&dvp_red=http%3A%2F%2Fads.videohub.tv%2Fssframework%2Fdt%2Fbotid%3Fa%3Dset%26DUID%3D1,COMPLETE,200,https,GET,image/gif,/127.0.0.1,52429,sync.doubleverify.com/204.154.111.224,443,,03 Jun 2019 15:08:01,03 Jun 2019 15:08:01,03 Jun 2019 15:08:01,03 Jun 2019 15:08:01,22,2,2,11,0,0,7,107.865234,0.0,0.0,729,496,,345,0,860,,-6.6%
https://tps30.doubleverify.com/visit.jpg?ctx=42674&cmp=2256325&sid=1111&plc=22563261&num=&adid=&advid=498259&adsrv=41&region=30&btreg=&btadsrv=&crt=&crtname=&chnl=&unit=&pid=&uid=&dvtagver=6.1.img&DVP_CMPID=&DVP_PUBID=&turl=tremorvideodsp.com,COMPLETE,200,https,GET,image/jpeg,/127.0.0.1,52430,tps30.doubleverify.com/204.154.111.105,443,,03 Jun 2019 15:08:01,03 Jun 2019 15:08:01,03 Jun 2019 15:08:01,03 Jun 2019 15:08:01,352,327,2,16,0,0,7,72.387695,0.0,0.0,1182,570,,24198,0,142,,53.4%
https://tags.bluekai.com/site/2954,COMPLETE,200,https,GET,,/127.0.0.1,52432,tags.bluekai.com/96.7.23.53,443,,03 Jun 2019 15:08:01,03 Jun 2019 15:08:01,03 Jun 2019 15:08:01,03 Jun 2019 15:08:01,256,76,14,49,0,0,117,58.00586,0.0,0.0,1030,362,,13814,0,0,,
https://s.tremorvideodsp.com/q/qa.gif?param1=screen_impression,COMPLETE,200,https,GET,image/gif,/127.0.0.1,52434,s.tremorvideodsp.com/23.48.39.120,443,,03 Jun 2019 15:08:01,03 Jun 2019 15:08:01,03 Jun 2019 15:08:01,03 Jun 2019 15:08:01,74,7,8,28,1,2,28,216.13672,1343.75,7325.1953,986,390,,14959,0,43,,
https://s.tremorvideodsp.com/q/qa.gif?param1=creative_impression,COMPLETE,200,https,GET,image/gif,/127.0.0.1,52435,s.tremorvideodsp.com/23.48.39.120,443,,03 Jun 2019 15:08:01,03 Jun 2019 15:08:01,03 Jun 2019 15:08:01,03 Jun 2019 15:08:01,72,13,9,31,1,1,17,222.16797,1345.7031,14650.391,986,392,,14959,0,43,,
https://l0-secure.videohub.tv/ssframework/log/log.png?EC=3&a=logitemaction&nolog=1&ssPD=tremorvideodsp.com&Uzip=__postalCode__&ADI=7879076&PRI=ed4d4ca6-c315-46a7-8e44-b670a9597b2f&Udma=__dma__&ssMLVer=rml_app_1.9.0&Uctry=__country__&AVI=425726&ssASVer=2.0&RI=1&Ust=__state__&NI=1344&admode=preroll&ssDsC=mobiletablet&ssRnd=191172740&SfF=true&AmN=1&adFocus=true&RvN=1,COMPLETE,200,https,GET,image/gif,/127.0.0.1,52436,l0-secure.videohub.tv/67.226.210.13,443,,03 Jun 2019 15:08:01,03 Jun 2019 15:08:01,03 Jun 2019 15:08:01,03 Jun 2019 15:08:01,67,6,10,36,2,0,13,403.10156,851.5625,0.0,1050,694,,25869,0,43,,
https://tp.videohub.tv/v1/topprop.png?domain=&ui=&pri=ed4d4ca6-c315-46a7-8e44-b670a9597b2f&ssRnd=1434126814,COMPLETE,200,https,GET,image/png,/127.0.0.1,52433,tp.videohub.tv/67.226.210.12,443,,03 Jun 2019 15:08:01,03 Jun 2019 15:08:01,03 Jun 2019 15:08:01,03 Jun 2019 15:08:01,71,3,11,42,0,0,15,376.44336,0.0,0.0,1022,435,,25869,0,43,,
https://sync.doubleverify.com/query.gif?ctx=42674&cmp=2256325&DVP_CMPID=&DVP_PUBID=&dvp_red=http%3A%2F%2Fapp.scanscout.com%2Fssframework%2Fdt%2Fbotid%3Fa%3Dset%26DUID%3D1,COMPLETE,200,https,GET,image/gif,/127.0.0.1,52443,sync.doubleverify.com/204.154.111.224,443,,03 Jun 2019 15:08:01,03 Jun 2019 15:08:01,03 Jun 2019 15:08:01,03 Jun 2019 15:08:01,17,2,2,4,1,1,7,137.12012,1154.2969,1176.7578,684,498,,345,0,860,,-6.6%
https://dt-secure.videohub.tv/v1/usync/bs?userId=,COMPLETE,303,https,GET,image/gif,/127.0.0.1,52444,dt-secure.videohub.tv/67.226.210.13,443,,03 Jun 2019 15:08:01,03 Jun 2019 15:08:01,03 Jun 2019 15:08:01,03 Jun 2019 15:08:01,51,2,9,29,0,0,11,522.3457,0.0,0.0,990,377,,25869,0,43,,
https://dt-secure.videohub.tv/v1/usync/lkqd_direct?userId=,COMPLETE,303,https,GET,image/gif,/127.0.0.1,52445,dt-secure.videohub.tv/67.226.210.13,443,,03 Jun 2019 15:08:01,03 Jun 2019 15:08:01,03 Jun 2019 15:08:01,03 Jun 2019 15:08:01,57,1,10,35,0,1,10,467.51562,0.0,25304.688,990,386,,25869,0,43,,
https://dt-secure.videohub.tv/v1/usync/pubmatic?userId=,COMPLETE,303,https,GET,image/gif,/127.0.0.1,52446,dt-secure.videohub.tv/67.226.210.13,443,,03 Jun 2019 15:08:01,03 Jun 2019 15:08:01,03 Jun 2019 15:08:01,03 Jun 2019 15:08:01,54,3,9,30,0,0,12,493.43457,0.0,0.0,990,383,,25869,0,43,,
https://dt-secure.videohub.tv/v1/usync/springserve?userId=,COMPLETE,303,https,GET,image/gif,/127.0.0.1,52448,dt-secure.videohub.tv/67.226.210.13,443,,03 Jun 2019 15:08:01,03 Jun 2019 15:08:01,03 Jun 2019 15:08:01,03 Jun 2019 15:08:01,89,4,24,31,0,1,29,299.41992,0.0,25304.688,990,386,,25869,0,43,,
https://dt-secure.videohub.tv/v1/usync/rubicon?userId=,COMPLETE,303,https,GET,image/gif,/127.0.0.1,52447,dt-secure.videohub.tv/67.226.210.13,443,,03 Jun 2019 15:08:01,03 Jun 2019 15:08:01,03 Jun 2019 15:08:01,03 Jun 2019 15:08:01,60,2,10,30,0,0,18,444.0752,0.0,0.0,990,382,,25869,0,43,,
https://dt-secure.videohub.tv/v1/usync/spx?userId=,COMPLETE,303,https,GET,image/gif,/127.0.0.1,52427,dt-secure.videohub.tv/67.226.210.13,443,,03 Jun 2019 15:08:01,03 Jun 2019 15:08:01,03 Jun 2019 15:08:01,03 Jun 2019 15:08:01,11,,,,0,1,10,37.375,0.0,41.992188,,378,,,0,43,,
https://l0-secure.videohub.tv/ssframework/log/log.png?EC=7&a=logitemaction&nolog=1&ssPD=tremorvideodsp.com&Uzip=__postalCode__&ADI=7879076&PRI=ed4d4ca6-c315-46a7-8e44-b670a9597b2f&Udma=__dma__&ssMLVer=rml_app_1.9.0&Uctry=__country__&AVI=425726&ssASVer=2.0&RI=1&Ust=__state__&NI=1344&admode=preroll&ssDsC=mobiletablet&ssRnd=1347956053&Eipct=0&EvaF=1&EiN=1,COMPLETE,200,https,GET,image/gif,/127.0.0.1,52455,l0-secure.videohub.tv/67.226.210.13,443,,03 Jun 2019 15:08:01,03 Jun 2019 15:08:01,03 Jun 2019 15:08:01,03 Jun 2019 15:08:01,56,1,10,31,0,1,13,481.02637,0.0,25304.688,990,682,,25869,0,43,,
https://dt-secure.videohub.tv/v1/usync/rhythmone?userId=,COMPLETE,303,https,GET,image/gif,/127.0.0.1,52427,dt-secure.videohub.tv/67.226.210.13,443,,03 Jun 2019 15:08:01,03 Jun 2019 15:08:01,03 Jun 2019 15:08:01,03 Jun 2019 15:08:01,10,,,,0,0,10,41.69922,0.0,0.0,,384,,,0,43,,
https://cs.rtb-seller.com,COMPLETE,200,https,CONNECT,,/127.0.0.1,52456,cs.rtb-seller.com/52.200.27.187,443,,03 Jun 2019 15:08:01,,,03 Jun 2019 15:08:32,30600,5,7,188,,,,1.0712891,,,1484,0,388,31539,0,170,,
https://sync.search.spotxchange.com,COMPLETE,200,https,CONNECT,,/127.0.0.1,52459,sync.search.spotxchange.com/192.35.249.120,443,,03 Jun 2019 15:08:01,,,03 Jun 2019 15:08:32,30563,2,16,189,,,,0.640625,,,1534,0,886,16383,0,1260,,
https://dt-secure.videohub.tv/v1/usync/tr?userId=,COMPLETE,303,https,GET,image/gif,/127.0.0.1,52427,dt-secure.videohub.tv/67.226.210.13,443,,03 Jun 2019 15:08:01,03 Jun 2019 15:08:01,03 Jun 2019 15:08:01,03 Jun 2019 15:08:01,10,,,,0,0,10,41.015625,0.0,0.0,,377,,,0,43,,
https://dt-secure.videohub.tv/v1/usync/ex?userId=,COMPLETE,303,https,GET,image/gif,/127.0.0.1,52445,dt-secure.videohub.tv/67.226.210.13,443,,03 Jun 2019 15:08:01,03 Jun 2019 15:08:01,03 Jun 2019 15:08:01,03 Jun 2019 15:08:01,16,,,,0,0,16,25.634766,0.0,0.0,,377,,,0,43,,
https://dt-secure.videohub.tv/ssframework/tvuid?a=set&UI=,COMPLETE,400,https,GET,image/gif,/127.0.0.1,52444,dt-secure.videohub.tv/67.226.210.13,443,,03 Jun 2019 15:08:01,03 Jun 2019 15:08:01,03 Jun 2019 15:08:01,03 Jun 2019 15:08:01,11,,,,0,0,11,37.99707,0.0,0.0,,385,,,0,43,,
https://dt-secure.videohub.tv/v1/usync/lo?userId=,COMPLETE,303,https,GET,image/gif,/127.0.0.1,52446,dt-secure.videohub.tv/67.226.210.13,443,,03 Jun 2019 15:08:01,03 Jun 2019 15:08:01,03 Jun 2019 15:08:01,03 Jun 2019 15:08:01,16,,,,0,0,16,25.634766,0.0,0.0,,377,,,0,43,,
https://sync.1rx.io,COMPLETE,200,https,CONNECT,,/127.0.0.1,52462,sync.1rx.io/8.41.222.150,443,,03 Jun 2019 15:08:01,,,03 Jun 2019 15:08:32,30475,5,2,170,,,,0.8886719,,,1094,0,796,24907,0,936,,
https://x.bidswitch.net,COMPLETE,200,https,CONNECT,,/127.0.0.1,52463,x.bidswitch.net/104.196.98.113,443,,03 Jun 2019 15:08:01,,,03 Jun 2019 15:08:12,10561,6,20,194,,,,3.5664062,,,1146,0,405,36284,0,743,,
https://cs.lkqd.net,COMPLETE,200,https,CONNECT,,/127.0.0.1,52464,cs.lkqd.net/146.20.128.49,443,,03 Jun 2019 15:08:01,,,03 Jun 2019 15:08:32,30501,52,11,213,,,,1.4150391,,,1322,0,396,42000,0,482,,
https://dt-secure.videohub.tv/v1/usync/dd?userId=,COMPLETE,303,https,GET,image/gif,/127.0.0.1,52448,dt-secure.videohub.tv/67.226.210.13,443,,03 Jun 2019 15:08:01,03 Jun 2019 15:08:01,03 Jun 2019 15:08:01,03 Jun 2019 15:08:01,11,,,,0,0,11,37.286133,0.0,0.0,,377,,,0,43,,
https://dt-secure.videohub.tv/v1/usync/ds?userId=,COMPLETE,303,https,GET,image/gif,/127.0.0.1,52447,dt-secure.videohub.tv/67.226.210.13,443,,03 Jun 2019 15:08:01,03 Jun 2019 15:08:01,03 Jun 2019 15:08:01,03 Jun 2019 15:08:01,16,,,,0,0,16,25.634766,0.0,0.0,,377,,,0,43,,
https://dt-secure.videohub.tv/v1/usync/db?userId=&deviceId=unknown&screenType=mobiletablet&osType=iOS&rand=793252729,COMPLETE,303,https,GET,image/gif,/127.0.0.1,52444,dt-secure.videohub.tv/67.226.210.13,443,,03 Jun 2019 15:08:01,03 Jun 2019 15:08:01,03 Jun 2019 15:08:01,03 Jun 2019 15:08:01,11,,,,1,0,10,43.234375,433.59375,0.0,,444,,,0,43,,
https://dt-secure.videohub.tv/v1/usync/lrjs?userId=,COMPLETE,303,https,GET,image/gif,/127.0.0.1,52427,dt-secure.videohub.tv/67.226.210.13,443,,03 Jun 2019 15:08:01,03 Jun 2019 15:08:01,03 Jun 2019 15:08:01,03 Jun 2019 15:08:01,15,,,,1,1,13,27.473633,370.1172,41.992188,,379,,,0,43,,
https://simage2.pubmatic.com,COMPLETE,200,https,CONNECT,,/127.0.0.1,52465,simage2.pubmatic.com/162.248.19.147,443,,03 Jun 2019 15:08:01,,,03 Jun 2019 15:08:32,30490,48,2,196,,,,0.7050781,,,1499,0,455,19257,0,827,,
https://dt-secure.videohub.tv/v1/usync/kx?userId=,COMPLETE,303,https,GET,image/gif,/127.0.0.1,52446,dt-secure.videohub.tv/67.226.210.13,443,,03 Jun 2019 15:08:01,03 Jun 2019 15:08:01,03 Jun 2019 15:08:01,03 Jun 2019 15:08:01,10,,,,0,0,10,41.015625,0.0,0.0,,377,,,0,43,,
https://dt-secure.videohub.tv/v1/usync/al?userId=,COMPLETE,303,https,GET,image/gif,/127.0.0.1,52445,dt-secure.videohub.tv/67.226.210.13,443,,03 Jun 2019 15:08:01,03 Jun 2019 15:08:01,03 Jun 2019 15:08:01,03 Jun 2019 15:08:01,11,,,,0,1,10,37.286133,0.0,41.992188,,377,,,0,43,,
https://pixel.rubiconproject.com,COMPLETE,200,https,CONNECT,,/127.0.0.1,52469,pixel.rubiconproject.com/208.185.50.80,443,,03 Jun 2019 15:08:01,,,03 Jun 2019 15:08:33,31598,4,11,211,,,,0.6269531,,,1589,0,890,16516,0,1322,,
https://partners.tremorhub.com,COMPLETE,200,https,CONNECT,,/127.0.0.1,52470,partners.tremorhub.com/52.72.225.121,443,,03 Jun 2019 15:08:01,,,03 Jun 2019 15:08:32,30460,67,8,194,,,,1.1054688,,,1509,0,387,32079,0,516,,
https://loadm.exelator.com,COMPLETE,200,https,CONNECT,,/127.0.0.1,52472,loadm.exelator.com/147.75.39.192,443,,03 Jun 2019 15:08:01,,,03 Jun 2019 15:08:12,10429,4,3,163,,,,3.2539062,,,1122,0,816,31294,0,1521,,
https://bcp.crwdcntrl.net,COMPLETE,200,https,CONNECT,,/127.0.0.1,52471,bcp.crwdcntrl.net/52.54.83.29,443,,03 Jun 2019 15:08:01,,,03 Jun 2019 15:08:32,30453,8,8,217,,,,1.0976562,,,1484,0,797,31179,0,790,,
https://sync.springserve.com,COMPLETE,200,https,CONNECT,,/127.0.0.1,52468,sync.springserve.com/52.200.250.68,443,,03 Jun 2019 15:08:01,,,03 Jun 2019 15:08:32,30448,75,8,196,,,,1.0820312,,,1499,0,397,31653,0,212,,
https://dt-secure.videohub.tv/v1/usync/bk?userId=,COMPLETE,303,https,GET,image/gif,/127.0.0.1,52427,dt-secure.videohub.tv/67.226.210.13,443,,03 Jun 2019 15:08:01,03 Jun 2019 15:08:01,03 Jun 2019 15:08:01,03 Jun 2019 15:08:01,16,,,,0,0,16,25.634766,0.0,0.0,,377,,,0,43,,
https://dt-secure.videohub.tv/v1/usync/lr?userId=,COMPLETE,303,https,GET,image/gif,/127.0.0.1,52446,dt-secure.videohub.tv/67.226.210.13,443,,03 Jun 2019 15:08:01,03 Jun 2019 15:08:01,03 Jun 2019 15:08:01,03 Jun 2019 15:08:01,12,,,,0,1,11,34.179688,0.0,41.992188,,377,,,0,43,,
https://dt-secure.videohub.tv/v1/usync/ns?userId=,COMPLETE,303,https,GET,image/gif,/127.0.0.1,52445,dt-secure.videohub.tv/67.226.210.13,443,,03 Jun 2019 15:08:01,03 Jun 2019 15:08:01,03 Jun 2019 15:08:01,03 Jun 2019 15:08:01,18,,,,1,1,16,22.786133,368.16406,41.992188,,377,,,0,43,,
https://objects-secure.tremormedia.com/net/js/lr.js?partner_id=e0efd9e5a45493fed9d623bed2d96582,COMPLETE,200,https,GET,application/javascript,/127.0.0.1,52424,objects-secure.tremormedia.com/104.110.194.47,443,,03 Jun 2019 15:08:01,03 Jun 2019 15:08:01,03 Jun 2019 15:08:01,03 Jun 2019 15:08:01,10,,,,0,1,9,117.28516,0.0,759.7656,,423,,,0,778,,57.1%
https://beacon.krxd.net,COMPLETE,200,https,CONNECT,,/127.0.0.1,52478,beacon.krxd.net/107.22.218.14,443,,03 Jun 2019 15:08:01,,,03 Jun 2019 15:08:32,30398,12,9,187,,,,1.0751953,,,1474,0,414,31113,0,482,,
https://sync.alphonso.tv,COMPLETE,200,https,CONNECT,,/127.0.0.1,52479,sync.alphonso.tv/104.129.168.238,443,,03 Jun 2019 15:08:01,,,03 Jun 2019 15:08:32,30390,50,5,170,,,,0.96972656,,,1479,0,391,27865,0,471,,
https://dpm.demdex.net,COMPLETE,200,https,CONNECT,,/127.0.0.1,52480,dpm.demdex.net/52.54.198.81,443,,03 Jun 2019 15:08:01,,,03 Jun 2019 15:08:33,31534,69,9,156,,,,0.67285156,,,1469,0,804,18303,0,1155,,
https://p.adsymptotic.com,COMPLETE,200,https,CONNECT,,/127.0.0.1,52481,p.adsymptotic.com/52.1.178.62,443,,03 Jun 2019 15:08:01,,,03 Jun 2019 15:08:33,31528,134,9,146,,,,0.7001953,,,1484,0,942,19281,0,920,,
https://idpix.media6degrees.com,COMPLETE,200,https,CONNECT,,/127.0.0.1,52482,idpix.media6degrees.com/204.2.197.201,443,,03 Jun 2019 15:08:01,,,03 Jun 2019 15:08:02,292,92,1,138,,,,89.5957,,,1514,0,431,24075,0,770,,
https://aa.agkn.com,COMPLETE,200,https,CONNECT,,/127.0.0.1,52487,aa.agkn.com/63.251.88.56,443,,03 Jun 2019 15:08:01,,,03 Jun 2019 15:08:02,263,62,9,140,,,,85.87402,,,1454,0,402,20762,0,509,,
https://idsync.rlcdn.com,COMPLETE,200,https,CONNECT,,/127.0.0.1,52486,idsync.rlcdn.com/34.95.92.78,443,,03 Jun 2019 15:08:01,,,03 Jun 2019 15:08:33,31466,6,3,158,,,,0.8623047,,,1347,0,838,24510,0,1107,,
https://stags.bluekai.com,COMPLETE,200,https,CONNECT,,/127.0.0.1,52488,stags.bluekai.com/96.7.23.53,443,,03 Jun 2019 15:08:01,,,03 Jun 2019 15:08:33,31463,87,11,147,,,,0.74316406,,,1484,0,459,21237,0,788,,
https://tps30.doubleverify.com/visit.jpg?ctx=42674&cmp=DV069178&sid=1111&plc=2018011501&advid=3819603&adsrv=0&tagtype=&dvtagver=6.1.img&DVP_PP_REP=1&DVP_IQM_ID=16&DVP_DV_TT=2&DVP_DV_CT=2&DVP_TR_SSP=&DVP_TR_PUB=[PUBLISHER_ID]&DVP_TR_SITE=[SUPPLY_ID]&DVP_TR_ADV=425726&DVP_TR_CMP=&DVP_TR_PLC=&turl=tremorvideodsp.com&DVP_PP_BUNDLE_ID=&DVP_TR_COST=,COMPLETE,200,https,GET,image/jpeg,/127.0.0.1,52492,tps30.doubleverify.com/204.154.111.105,443,,03 Jun 2019 15:08:01,03 Jun 2019 15:08:01,03 Jun 2019 15:08:01,03 Jun 2019 15:08:01,14,2,2,3,0,0,7,127.58008,0.0,0.0,687,673,,327,0,142,,53.4%
https://bsw.digitru.st,COMPLETE,200,https,CONNECT,,/127.0.0.1,52498,bsw.digitru.st/104.196.98.113,443,,03 Jun 2019 15:08:02,,,03 Jun 2019 15:08:12,10286,4,20,64,,,,3.5458984,,,1142,0,405,35144,0,658,,
https://d.agkn.com,COMPLETE,200,https,CONNECT,,/127.0.0.1,52500,d.agkn.com/34.224.115.86,443,,03 Jun 2019 15:08:02,,,03 Jun 2019 15:08:32,30376,43,10,39,,,,0.8808594,,,1449,0,384,25023,0,572,,
https://pippio.com,COMPLETE,200,https,CONNECT,,/127.0.0.1,52501,pippio.com/107.178.254.65,443,,03 Jun 2019 15:08:02,,,03 Jun 2019 15:08:33,31176,1,2,21,,,,0.85058594,,,1317,0,751,23570,0,1536,,
https://cm.g.doubleclick.net,COMPLETE,200,https,CONNECT,,/127.0.0.1,52504,cm.g.doubleclick.net/172.217.12.162,443,,03 Jun 2019 15:08:02,,,03 Jun 2019 15:08:33,31104,55,2,60,,,,0.5361328,,,1367,0,424,14341,0,969,,
https://dt-secure.videohub.tv/v1/uid?UIBK=v7Oq%2FBJv999eHwPz,COMPLETE,200,https,GET,image/gif,/127.0.0.1,52427,dt-secure.videohub.tv/67.226.210.13,443,,03 Jun 2019 15:08:02,03 Jun 2019 15:08:02,03 Jun 2019 15:08:02,03 Jun 2019 15:08:02,9,,,,0,0,9,46.765625,0.0,0.0,,388,,,0,43,,
https://us-east-sync.bidswitch.net,COMPLETE,200,https,CONNECT,,/127.0.0.1,52505,us-east-sync.bidswitch.net/35.185.88.112,443,,03 Jun 2019 15:08:02,,,03 Jun 2019 15:08:12,10337,5,20,63,,,,3.6464844,,,1190,0,430,36284,0,700,,
https://tag.apxlv.com,COMPLETE,200,https,CONNECT,,/127.0.0.1,52508,tag.apxlv.com/162.223.54.6,443,,03 Jun 2019 15:08:02,,,03 Jun 2019 15:08:33,30890,43,10,45,,,,0.8857422,,,1464,0,368,25553,0,647,,
https://objects-secure.tremormedia.com/net/js/adchoicesappicon.min.js?iconPosition=top-left&optOut=&iconClick=&playerWidth=770&playerHeight=1026&sources=&country=us,COMPLETE,200,https,GET,application/javascript,/127.0.0.1,52424,objects-secure.tremormedia.com/104.110.194.47,443,,03 Jun 2019 15:08:02,03 Jun 2019 15:08:02,03 Jun 2019 15:08:02,03 Jun 2019 15:08:02,12,,,,1,1,10,1420.4912,423.82812,16622.07,,434,,,0,17021,,45.7%
https://tag.cogocast.net,COMPLETE,200,https,CONNECT,,/127.0.0.1,52510,tag.cogocast.net/52.7.156.74,443,,03 Jun 2019 15:08:02,,,03 Jun 2019 15:08:33,30747,48,8,31,,,,1.09375,,,1479,0,502,31563,0,923,,
https://gpush.cogocast.net,COMPLETE,200,https,CONNECT,,/127.0.0.1,52512,gpush.cogocast.net/162.223.54.16,443,,03 Jun 2019 15:08:02,,,03 Jun 2019 15:08:02,28,4,8,,,,,7.5683594,,,210,0,0,7,0,0,,
https://l0-secure.videohub.tv/ssframework/log/log.png?EC=40&a=logitemaction&nolog=1&ssPD=tremorvideodsp.com&Uzip=__postalCode__&ADI=7879076&PRI=ed4d4ca6-c315-46a7-8e44-b670a9597b2f&Udma=__dma__&ssMLVer=rml_app_1.9.0&Uctry=__country__&AVI=425726&ssASVer=2.0&RI=1&Ust=__state__&NI=1344&admode=preroll&ssDsC=mobiletablet&ssRnd=2017900858&EvaF=1&pctVw=0,COMPLETE,200,https,GET,image/gif,/127.0.0.1,52436,l0-secure.videohub.tv/67.226.210.13,443,,03 Jun 2019 15:08:03,03 Jun 2019 15:08:03,03 Jun 2019 15:08:03,03 Jun 2019 15:08:03,13,,,,0,1,12,54.085938,0.0,41.992188,,677,,,0,43,,
https://s.tremorvideodsp.com/q/qa.gif?param1=screen_click,COMPLETE,200,https,GET,image/gif,/127.0.0.1,52422,s.tremorvideodsp.com/23.48.39.120,443,,03 Jun 2019 15:08:04,03 Jun 2019 15:08:04,03 Jun 2019 15:08:04,03 Jun 2019 15:08:04,16,,,,0,0,16,26.123047,0.0,0.0,,385,,,0,43,,
https://s.tremorvideodsp.com/q/qa.gif?param1=creative_click,COMPLETE,200,https,GET,image/gif,/127.0.0.1,52434,s.tremorvideodsp.com/23.48.39.120,443,,03 Jun 2019 15:08:04,03 Jun 2019 15:08:04,03 Jun 2019 15:08:04,03 Jun 2019 15:08:04,78,,,,1,1,76,5.3828125,377.9297,41.992188,,387,,,0,43,,
https://l0-secure.videohub.tv/ssframework/log/log.png?EC=2&a=logitemaction&nolog=1&ssPD=tremorvideodsp.com&Uzip=__postalCode__&ADI=7879076&PRI=ed4d4ca6-c315-46a7-8e44-b670a9597b2f&Udma=__dma__&ssMLVer=rml_app_1.9.0&Uctry=__country__&AVI=425726&ssASVer=2.0&RI=1&Ust=__state__&NI=1344&admode=preroll&ssDsC=mobiletablet&ssRnd=1536235769,COMPLETE,200,https,GET,image/gif,/127.0.0.1,52436,l0-secure.videohub.tv/67.226.210.13,443,,03 Jun 2019 15:08:04,03 Jun 2019 15:08:04,03 Jun 2019 15:08:05,03 Jun 2019 15:08:05,859,,,,0,2,857,0.7998047,0.0,20.996094,,661,,,0,43,,
https://l0-secure.videohub.tv/ssframework/log/log.png?EC=4&a=logitemaction&nolog=1&ssPD=tremorvideodsp.com&Uzip=__postalCode__&ADI=7879076&PRI=ed4d4ca6-c315-46a7-8e44-b670a9597b2f&Udma=__dma__&ssMLVer=rml_app_1.9.0&Uctry=__country__&AVI=425726&ssASVer=2.0&RI=1&Ust=__state__&NI=1344&admode=preroll&ssDsC=mobiletablet&ssRnd=1144528517&EiN=1,COMPLETE,200,https,GET,image/gif,/127.0.0.1,52455,l0-secure.videohub.tv/67.226.210.13,443,,03 Jun 2019 15:08:04,03 Jun 2019 15:08:04,03 Jun 2019 15:08:05,03 Jun 2019 15:08:05,1015,,,,1,1,1013,0.6826172,651.3672,41.992188,,667,,,0,43,,
https://tremorvideodsp.com,COMPLETE,200,https,CONNECT,,/127.0.0.1,52514,tremorvideodsp.com/67.226.210.12,443,,03 Jun 2019 15:08:04,,,03 Jun 2019 15:08:04,222,91,10,49,,,,126.80762,,,1404,0,540,25979,0,904,,
https://dt.scanscout.com,COMPLETE,200,https,CONNECT,,/127.0.0.1,52515,dt.scanscout.com/67.226.210.12,443,,03 Jun 2019 15:08:04,,,03 Jun 2019 15:08:09,5094,5,10,41,,,,6.7539062,,,3096,0,536,31298,0,302,,
https://tremorvideodsp.com,COMPLETE,200,https,CONNECT,,/127.0.0.1,52518,tremorvideodsp.com/67.226.210.12,443,,03 Jun 2019 15:08:04,,,03 Jun 2019 15:08:09,5093,6,8,50,,,,6.7910156,,,3096,0,508,31388,0,429,,
https://www.tremorvideodsp.com,COMPLETE,200,https,CONNECT,,/127.0.0.1,52517,www.tremorvideodsp.com/3.209.102.29,443,,03 Jun 2019 15:08:04,,,03 Jun 2019 15:08:35,31070,88,11,45,,,,0.6230469,,,3024,0,2907,12406,0,1504,,
https://www.tremorvideodsp.com,COMPLETE,200,https,CONNECT,,/127.0.0.1,52524,www.tremorvideodsp.com/3.209.102.29,443,,03 Jun 2019 15:08:04,,,03 Jun 2019 15:08:35,30905,3,9,48,,,,0.4892578,,,1584,0,1116,12301,0,513,,
https://www.tremorvideodsp.com,COMPLETE,200,https,CONNECT,,/127.0.0.1,52522,www.tremorvideodsp.com/3.209.102.29,443,,03 Jun 2019 15:08:04,,,03 Jun 2019 15:08:35,30905,4,9,47,,,,0.39746094,,,1584,0,566,10148,0,301,,
https://www.tremorvideodsp.com,COMPLETE,200,https,CONNECT,,/127.0.0.1,52523,www.tremorvideodsp.com/3.209.102.29,443,,03 Jun 2019 15:08:04,,,03 Jun 2019 15:08:35,30905,6,8,44,,,,0.3984375,,,1584,0,603,10148,0,299,,
https://www.tremorvideodsp.com,COMPLETE,200,https,CONNECT,,/127.0.0.1,52528,www.tremorvideodsp.com/3.209.102.29,443,,03 Jun 2019 15:08:05,,,03 Jun 2019 15:08:35,30097,2,8,48,,,,0.47851562,,,1424,0,280,12301,0,744,,
https://www.google-analytics.com,RECEIVED_RESPONSE_HEADER,200,https,CONNECT,,/127.0.0.1,52530,www.google-analytics.com/172.217.6.206,443,,03 Jun 2019 15:08:05,,,,120605,66,3,,,,,0.00390625,,,517,0,0,,0,0,,
https://stats.g.doubleclick.net,RECEIVING_REQUEST_BODY,200,https,CONNECT,,/127.0.0.1,52532,stats.g.doubleclick.net/173.194.206.154,443,,03 Jun 2019 15:08:05,,,,120436,64,45,,,,,0.00390625,,,517,0,0,,0,0,,
https://www.google.com,RECEIVING_REQUEST_BODY,200,https,CONNECT,,/127.0.0.1,52534,www.google.com/172.217.11.36,443,,03 Jun 2019 15:08:05,,,,120193,50,2,,,,,0.00390625,,,517,0,0,,0,0,,
https://s.tremorvideodsp.com/q/qa.gif?param1=screen_click,COMPLETE,200,https,GET,image/gif,/127.0.0.1,52422,s.tremorvideodsp.com/23.48.39.120,443,,03 Jun 2019 15:08:18,03 Jun 2019 15:08:18,03 Jun 2019 15:08:18,03 Jun 2019 15:08:18,36,,,,0,1,35,11.609375,0.0,41.992188,,385,,,0,43,,
https://s.tremorvideodsp.com/q/qa.gif?param1=creative_click,COMPLETE,200,https,GET,image/gif,/127.0.0.1,52434,s.tremorvideodsp.com/23.48.39.120,443,,03 Jun 2019 15:08:18,03 Jun 2019 15:08:18,03 Jun 2019 15:08:18,03 Jun 2019 15:08:18,25,,,,1,0,24,16.796875,377.9297,0.0,,387,,,0,43,,
https://l0-secure.videohub.tv/ssframework/log/log.png?EC=2&a=logitemaction&nolog=1&ssPD=tremorvideodsp.com&Uzip=__postalCode__&ADI=7879076&PRI=ed4d4ca6-c315-46a7-8e44-b670a9597b2f&Udma=__dma__&ssMLVer=rml_app_1.9.0&Uctry=__country__&AVI=425726&ssASVer=2.0&RI=1&Ust=__state__&NI=1344&admode=preroll&ssDsC=mobiletablet&ssRnd=1536235769,COMPLETE,200,https,GET,image/gif,/127.0.0.1,52436,l0-secure.videohub.tv/67.226.210.13,443,,03 Jun 2019 15:08:18,03 Jun 2019 15:08:18,03 Jun 2019 15:08:18,03 Jun 2019 15:08:18,109,,10,37,50,1,11,247.48242,33.41797,25304.688,1050,661,,25869,0,43,,
https://l0-secure.videohub.tv/ssframework/log/log.png?EC=7&a=logitemaction&nolog=1&ssPD=tremorvideodsp.com&Uzip=__postalCode__&ADI=7879076&PRI=ed4d4ca6-c315-46a7-8e44-b670a9597b2f&Udma=__dma__&ssMLVer=rml_app_1.9.0&Uctry=__country__&AVI=425726&ssASVer=2.0&RI=1&Ust=__state__&NI=1344&admode=preroll&ssDsC=mobiletablet&ssRnd=1380516254&Eipct=25&EiN=1,COMPLETE,200,https,GET,image/gif,/127.0.0.1,52436,l0-secure.videohub.tv/67.226.210.13,443,,03 Jun 2019 15:08:30,03 Jun 2019 15:08:30,03 Jun 2019 15:08:31,03 Jun 2019 15:08:31,680,,9,35,45,0,591,39.691406,37.456055,0.0,1050,676,,25869,0,43,,
https://s.tremorvideodsp.com/q/qa.gif?param1=screen_first_quartile,COMPLETE,200,https,GET,image/gif,/127.0.0.1,52422,s.tremorvideodsp.com/23.48.39.120,443,,03 Jun 2019 15:08:30,03 Jun 2019 15:08:30,03 Jun 2019 15:08:30,03 Jun 2019 15:08:30,32,,,,0,0,32,13.3359375,0.0,0.0,,394,,,0,43,,
https://s.tremorvideodsp.com/q/qa.gif?param1=creative_first_quartile,COMPLETE,200,https,GET,image/gif,/127.0.0.1,52434,s.tremorvideodsp.com/23.48.39.120,443,,03 Jun 2019 15:08:30,03 Jun 2019 15:08:30,03 Jun 2019 15:08:30,03 Jun 2019 15:08:30,31,,,,0,0,31,13.829102,0.0,0.0,,396,,,0,43,,
https://www.tremorvideodsp.com,EXCEPTION,200,https,CONNECT,,/127.0.0.1,52538,www.tremorvideodsp.com/3.209.102.29,443,java.net.SocketException: Broken pipe (Write failed),03 Jun 2019 15:08:35,,,03 Jun 2019 15:08:35,289,3,9,51,,,,298.47656,,,1584,0,268,10148,0,76330,,
https://l0-secure.videohub.tv/ssframework/log/log.png?EC=7&a=logitemaction&nolog=1&ssPD=tremorvideodsp.com&Uzip=__postalCode__&ADI=7879076&PRI=ed4d4ca6-c315-46a7-8e44-b670a9597b2f&Udma=__dma__&ssMLVer=rml_app_1.9.0&Uctry=__country__&AVI=425726&ssASVer=2.0&RI=1&Ust=__state__&NI=1344&admode=preroll&ssDsC=mobiletablet&ssRnd=1622104090&Eipct=50&EiN=1,COMPLETE,200,https,GET,image/gif,/127.0.0.1,52436,l0-secure.videohub.tv/67.226.210.13,443,,03 Jun 2019 15:08:45,03 Jun 2019 15:08:45,03 Jun 2019 15:08:45,03 Jun 2019 15:08:45,112,,10,36,46,0,20,240.9834,36.6416,0.0,1050,676,,25869,0,43,,
https://s.tremorvideodsp.com/q/qa.gif?param1=screen_second_quartile,COMPLETE,200,https,GET,image/gif,/127.0.0.1,52422,s.tremorvideodsp.com/23.48.39.120,443,,03 Jun 2019 15:08:45,03 Jun 2019 15:08:45,03 Jun 2019 15:08:45,03 Jun 2019 15:08:45,37,,,,0,0,37,11.55957,0.0,0.0,,395,,,0,43,,
https://s.tremorvideodsp.com/q/qa.gif?param1=creative_second_quartile,COMPLETE,200,https,GET,image/gif,/127.0.0.1,52434,s.tremorvideodsp.com/23.48.39.120,443,,03 Jun 2019 15:08:45,03 Jun 2019 15:08:45,03 Jun 2019 15:08:45,03 Jun 2019 15:08:45,40,,,,0,0,40,10.7421875,0.0,0.0,,397,,,0,43,,
https://s.tremorvideodsp.com/q/qa.gif?param1=screen_third_quartile,COMPLETE,200,https,GET,image/gif,/127.0.0.1,52422,s.tremorvideodsp.com/23.48.39.120,443,,03 Jun 2019 15:09:00,03 Jun 2019 15:09:00,03 Jun 2019 15:09:00,03 Jun 2019 15:09:00,28,,,,0,0,28,15.241211,0.0,0.0,,394,,,0,43,,
https://l0-secure.videohub.tv/ssframework/log/log.png?EC=7&a=logitemaction&nolog=1&ssPD=tremorvideodsp.com&Uzip=__postalCode__&ADI=7879076&PRI=ed4d4ca6-c315-46a7-8e44-b670a9597b2f&Udma=__dma__&ssMLVer=rml_app_1.9.0&Uctry=__country__&AVI=425726&ssASVer=2.0&RI=1&Ust=__state__&NI=1344&admode=preroll&ssDsC=mobiletablet&ssRnd=2073786905&Eipct=75&EiN=1,COMPLETE,200,https,GET,image/gif,/127.0.0.1,52436,l0-secure.videohub.tv/67.226.210.13,443,,03 Jun 2019 15:09:00,03 Jun 2019 15:09:00,03 Jun 2019 15:09:00,03 Jun 2019 15:09:00,109,,9,40,50,1,9,247.61621,33.710938,25304.688,1050,676,,25869,0,43,,
https://s.tremorvideodsp.com/q/qa.gif?param1=creative_third_quartile,COMPLETE,200,https,GET,image/gif,/127.0.0.1,52434,s.tremorvideodsp.com/23.48.39.120,443,,03 Jun 2019 15:09:00,03 Jun 2019 15:09:00,03 Jun 2019 15:09:00,03 Jun 2019 15:09:00,30,,,,0,1,29,14.290039,0.0,41.992188,,396,,,0,43,,
https://safebrowsing.googleapis.com,RECEIVING_REQUEST_BODY,200,https,CONNECT,,/127.0.0.1,52542,safebrowsing.googleapis.com/172.217.10.74,443,,03 Jun 2019 15:09:13,,,,52875,2,1,,,,,0.0087890625,,,517,0,0,,0,0,,
https://l0-secure.videohub.tv/ssframework/log/log.png?EC=38&a=logitemaction&nolog=1&ssPD=tremorvideodsp.com&Uzip=__postalCode__&ADI=7879076&PRI=ed4d4ca6-c315-46a7-8e44-b670a9597b2f&Udma=__dma__&ssMLVer=rml_app_1.9.0&Uctry=__country__&AVI=425726&ssASVer=2.0&RI=1&Ust=__state__&NI=1344&admode=preroll&ssDsC=mobiletablet&ssRnd=1142482912&EvaF=1&pctVw=100,COMPLETE,200,https,GET,image/gif,/127.0.0.1,52436,l0-secure.videohub.tv/67.226.210.13,443,,03 Jun 2019 15:09:13,03 Jun 2019 15:09:13,03 Jun 2019 15:09:13,03 Jun 2019 15:09:13,92,,9,30,39,2,12,293.40332,43.293945,12652.344,1050,679,,25869,0,43,,
https://l0-secure.videohub.tv/ssframework/log/log.png?EC=7&a=logitemaction&nolog=1&ssPD=tremorvideodsp.com&Uzip=__postalCode__&ADI=7879076&PRI=ed4d4ca6-c315-46a7-8e44-b670a9597b2f&Udma=__dma__&ssMLVer=rml_app_1.9.0&Uctry=__country__&AVI=425726&ssASVer=2.0&RI=1&Ust=__state__&NI=1344&admode=preroll&ssDsC=mobiletablet&ssRnd=745197324&Eipct=100&RcpF=1&EiN=1,COMPLETE,200,https,GET,image/gif,/127.0.0.1,52436,l0-secure.videohub.tv/67.226.210.13,443,,03 Jun 2019 15:09:15,03 Jun 2019 15:09:15,03 Jun 2019 15:09:15,03 Jun 2019 15:09:15,12,,,,0,1,11,59.08203,0.0,41.992188,,683,,,0,43,,
https://s.tremorvideodsp.com/q/qa.gif?param1=screen_completion,COMPLETE,200,https,GET,image/gif,/127.0.0.1,52422,s.tremorvideodsp.com/23.48.39.120,443,,03 Jun 2019 15:09:15,03 Jun 2019 15:09:15,03 Jun 2019 15:09:15,03 Jun 2019 15:09:15,29,,,,0,0,29,14.581055,0.0,0.0,,390,,,0,43,,
https://s.tremorvideodsp.com/q/qa.gif?param1=creative_completion,COMPLETE,200,https,GET,image/gif,/127.0.0.1,52434,s.tremorvideodsp.com/23.48.39.120,443,,03 Jun 2019 15:09:15,03 Jun 2019 15:09:15,03 Jun 2019 15:09:15,03 Jun 2019 15:09:15,50,,,,0,1,49,8.496094,0.0,41.992188,,392,,,0,43,,
https://s.tremorvideodsp.com/q/video1_small.mp4,COMPLETE,206,https,GET,video/mp4,/127.0.0.1,52545,s.tremorvideodsp.com/23.48.39.112,443,,03 Jun 2019 15:09:15,03 Jun 2019 15:09:16,03 Jun 2019 15:09:16,03 Jun 2019 15:09:16,156,82,14,21,1,1,37,103.08301,1382.8125,14698.242,1058,358,,15049,0,2,,
https://s.tremorvideodsp.com/q/video1_small.mp4,COMPLETE,206,https,GET,video/mp4,/127.0.0.1,52545,s.tremorvideodsp.com/23.48.39.112,443,,03 Jun 2019 15:09:16,03 Jun 2019 15:09:16,03 Jun 2019 15:09:16,03 Jun 2019 15:09:16,37,,,,0,13,24,1739.2842,0.0,4923.076,,362,,,0,65536,,
https://s.tremorvideodsp.com/q/video1_small.mp4,COMPLETE,206,https,GET,video/mp4,/127.0.0.1,52545,s.tremorvideodsp.com/23.48.39.112,443,,03 Jun 2019 15:09:16,03 Jun 2019 15:09:16,03 Jun 2019 15:09:16,03 Jun 2019 15:09:16,39,,,,0,7,32,1650.2402,0.0,9142.856,,368,,,0,65536,,
https://s.tremorvideodsp.com/q/video1_small.mp4,COMPLETE,206,https,GET,video/mp4,/127.0.0.1,52547,s.tremorvideodsp.com/23.48.39.112,443,,03 Jun 2019 15:09:16,03 Jun 2019 15:09:16,03 Jun 2019 15:09:16,03 Jun 2019 15:09:17,906,2,9,53,0,800,42,10678.497,0.0,12091.745,986,368,,14959,0,9890599,,
https://s.tremorvideodsp.com/q/video1_small.mp4,COMPLETE,206,https,GET,video/mp4,/127.0.0.1,52545,s.tremorvideodsp.com/23.48.39.112,443,,03 Jun 2019 15:09:16,03 Jun 2019 15:09:16,03 Jun 2019 15:09:16,03 Jun 2019 15:09:16,25,,,,0,4,21,2574.375,0.0,16000.0,,368,,,0,65536,,
https://jwpltx.com,COMPLETE,200,https,CONNECT,,/127.0.0.1,52549,jwpltx.com/34.236.4.254,443,,03 Jun 2019 15:09:16,,,03 Jun 2019 15:09:52,35184,10,10,48,,,,0.81152344,,,1449,0,1204,26340,0,264,,
https://prd.jwpltx.com,COMPLETE,200,https,CONNECT,,/127.0.0.1,52550,prd.jwpltx.com/52.200.42.178,443,,03 Jun 2019 15:09:16,,,03 Jun 2019 15:09:47,30794,78,9,35,,,,1.0849609,,,1469,0,885,31731,0,132,,
https://entitlements.jwplayer.com,COMPLETE,200,https,CONNECT,,/127.0.0.1,52553,entitlements.jwplayer.com/72.21.81.189,443,,03 Jun 2019 15:09:21,,,03 Jun 2019 15:09:52,30282,2,2,45,,,,1.1552734,,,1524,0,317,33541,0,464,,
https://s.tremorvideodsp.com/q/video1_small.mp4,COMPLETE,206,https,GET,video/mp4,/127.0.0.1,52555,s.tremorvideodsp.com/23.48.39.112,443,,03 Jun 2019 15:09:21,03 Jun 2019 15:09:21,03 Jun 2019 15:09:21,03 Jun 2019 15:09:21,58,2,9,25,0,0,22,277.2588,0.0,0.0,1058,358,,15049,0,2,,
https://s.tremorvideodsp.com/q/video1_small.mp4,COMPLETE,206,https,GET,video/mp4,/127.0.0.1,52555,s.tremorvideodsp.com/23.48.39.112,443,,03 Jun 2019 15:09:21,03 Jun 2019 15:09:21,03 Jun 2019 15:09:21,03 Jun 2019 15:09:21,45,,,,0,12,33,1430.0781,0.0,5333.333,,362,,,0,65536,,
https://s.tremorvideodsp.com/q/video1_small.mp4,COMPLETE,206,https,GET,video/mp4,/127.0.0.1,52555,s.tremorvideodsp.com/23.48.39.112,443,,03 Jun 2019 15:09:21,03 Jun 2019 15:09:21,03 Jun 2019 15:09:21,03 Jun 2019 15:09:21,33,,,,0,5,28,1950.2832,0.0,12800.0,,368,,,0,65536,,
https://s.tremorvideodsp.com/q/video1_small.mp4,COMPLETE,206,https,GET,video/mp4,/127.0.0.1,52557,s.tremorvideodsp.com/23.48.39.112,443,com.xk72.proxy.ProxyException: Client closed connection before receiving entire response,03 Jun 2019 15:09:21,03 Jun 2019 15:09:21,03 Jun 2019 15:09:21,03 Jun 2019 15:09:22,205,3,8,27,0,146,21,5528.382,0.0,7753.3975,986,368,,14959,0,1144205,,
https://s.tremorvideodsp.com/q/video1_small.mp4,COMPLETE,206,https,GET,video/mp4,/127.0.0.1,52555,s.tremorvideodsp.com/23.48.39.112,443,,03 Jun 2019 15:09:21,03 Jun 2019 15:09:21,03 Jun 2019 15:09:21,03 Jun 2019 15:09:21,31,,,,0,6,25,2076.1084,0.0,10666.666,,368,,,0,65536,,
