URL,Status,Response Code,Protocol,Method,Content-Type,Client Address,Client Port,Remote Address,Remote Port,Exception,Request Start Time,Request End Time,Response Start Time,Response End Time,Duration (ms),DNS Duration (ms),Connect Duration (ms),SSL Duration (ms),Request Duration (ms),Response Duration (ms),Latency (ms),Speed (KB/s),Request Speed (KB/s),Response Speed (KB/s),Request Handshake Size (bytes),Request Header Size (bytes),Request Body Size (bytes),Response Handshake Size (bytes),Response Header Size (bytes),Response Body Size (bytes),Request Compression,Response Compression
https://ssl.gstatic.com,RECEIVING_REQUEST_BODY,200,https,CONNECT,,/127.0.0.1,49865,ssl.gstatic.com/172.217.12.195,443,,03 Jun 2019 13:26:30,,,,3646000,2,2,53,,,,0.009765625,,,1127,0,6023,18780,0,10566,,
https://14.client-channel.google.com,RECEIVING_RESPONSE_BODY,200,https,CONNECT,,/127.0.0.1,49902,14.client-channel.google.com/74.125.192.189,443,,03 Jun 2019 13:26:34,,,,3641390,65,39,96,,,,0.017578125,,,1179,0,,16009,0,27732,,
https://ts01-b.cloudsink.net,RECEIVING_REQUEST_BODY,200,https,CONNECT,,/127.0.0.1,50767,ts01-b.cloudsink.net/54.183.142.105,443,,03 Jun 2019 14:19:31,,,,464788,113,72,174,,,,0.15039062,,,1246,0,41297,17474,0,11788,,
https://play.google.com,COMPLETE,200,https,CONNECT,,/127.0.0.1,50769,play.google.com/172.217.10.46,443,,03 Jun 2019 14:21:06,,,03 Jun 2019 14:26:43,337083,2,2,3,,,,0.021484375,,,2207,0,3389,372,0,,,
https://mail.google.com,COMPLETE,200,https,CONNECT,,/127.0.0.1,50775,mail.google.com/172.217.10.37,443,,03 Jun 2019 14:21:43,,,03 Jun 2019 14:24:43,180763,37,2,3,,,,0.107421875,,,2207,0,2444,372,0,,,
https://play.google.com,COMPLETE,200,https,CONNECT,,/127.0.0.1,50777,play.google.com/172.217.10.46,443,,03 Jun 2019 14:22:53,,,03 Jun 2019 14:24:53,120296,2,2,3,,,,0.030273438,,,2207,0,610,372,0,,,
http://www.syntevo.com/smartgit/autoupdate?type=foundation&version=18.2.7&build=13257&os=mac+os+x&osv=10.13.6&java=10.0.1&bugtraces=off&id=x663453672&email=-763947%40gmail.com&lifelong=off&git=on&svn=off&hg=off&dreview=off&dg=off&checking=download&lastchecking=0,COMPLETE,301,http,GET,text/html; charset=iso-8859-1,/127.0.0.1,50779,www.syntevo.com/104.25.200.15,80,,03 Jun 2019 14:26:20,03 Jun 2019 14:26:20,03 Jun 2019 14:26:21,03 Jun 2019 14:26:21,360,64,2,,0,1,293,4.8847656,0.0,1334.9609,,434,,,819,548,,
http://www.syntevo.com/api/autoupdate/smartgit?type=foundation&version=18.2.7&build=13257&os=mac+os+x&osv=10.13.6&java=10.0.1&bugtraces=off&id=x663453672&email=-763947%40gmail.com&lifelong=off&git=on&svn=off&hg=off&dreview=off&dg=off&checking=download&lastchecking=0,COMPLETE,200,http,GET,,/127.0.0.1,50781,www.syntevo.com/104.25.200.15,80,,03 Jun 2019 14:26:21,03 Jun 2019 14:26:21,03 Jun 2019 14:26:21,03 Jun 2019 14:26:21,200,1,2,,0,0,197,38.57422,0.0,0.0,,438,,,484,6978,,
https://mail.google.com,RECEIVING_REQUEST_BODY,200,https,CONNECT,,/127.0.0.1,50784,mail.google.com/172.217.10.37,443,,03 Jun 2019 14:26:31,,,,44778,1,2,,,,,0.0107421875,,,517,0,0,,0,0,,
https://clients6.google.com,RECEIVING_REQUEST_BODY,200,https,CONNECT,,/127.0.0.1,50786,clients6.google.com/172.217.10.14,443,,03 Jun 2019 14:26:33,,,,42712,35,2,,,,,0.01171875,,,517,0,0,,0,0,,
https://clients6.google.com,RECEIVING_REQUEST_BODY,200,https,CONNECT,,/127.0.0.1,50788,clients6.google.com/172.217.10.14,443,,03 Jun 2019 14:26:33,,,,42594,1,2,,,,,0.01171875,,,517,0,0,,0,0,,
https://people-pa.clients6.google.com,RECEIVING_REQUEST_BODY,200,https,CONNECT,,/127.0.0.1,50790,people-pa.clients6.google.com/172.217.10.10,443,,03 Jun 2019 14:26:33,,,,42444,36,2,,,,,0.01171875,,,517,0,0,,0,0,,
https://people-pa.clients6.google.com,RECEIVING_REQUEST_BODY,200,https,CONNECT,,/127.0.0.1,50792,people-pa.clients6.google.com/172.217.10.10,443,,03 Jun 2019 14:26:33,,,,42321,1,2,,,,,0.01171875,,,517,0,0,,0,0,,
https://play.google.com,RECEIVING_REQUEST_BODY,200,https,CONNECT,,/127.0.0.1,50794,play.google.com/172.217.10.46,443,,03 Jun 2019 14:26:45,,,,30226,2,2,,,,,0.016601562,,,517,0,0,,0,0,,
https://play.google.com,RECEIVING_REQUEST_BODY,200,https,CONNECT,,/127.0.0.1,50796,play.google.com/172.217.10.46,443,,03 Jun 2019 14:26:45,,,,30223,1,2,,,,,0.016601562,,,517,0,0,,0,0,,
